Clases/Contador de 4 Bits/simulation/qsim/contador_cuatro_bits.msim.vcd
$comment
	File created using the following command:
		vcd file contador_cuatro_bits.msim.vcd -direction
$end
$date
	Wed Mar 13 18:37:53 2024
$end
$version
	ModelSim Version 10.1d
$end
$timescale
	1ps
$end
$scope module SM2_vlg_vec_tst $end
$var reg 1 ! clock $end
$var reg 1 " input1 $end
$var reg 1 # reset $end
$var wire 1 $ output1 $end
$var wire 1 % output2 $end
$var wire 1 & sampler $end
$scope module i1 $end
$var wire 1 ' gnd $end
$var wire 1 ( vcc $end
$var wire 1 ) unknown $end
$var tri1 1 * devclrn $end
$var tri1 1 + devpor $end
$var tri1 1 , devoe $end
$var wire 1 - clock~input_o $end
$var wire 1 . clock~inputclkctrl_outclk $end
$var wire 1 / output1~output_o $end
$var wire 1 0 output2~output_o $end
$var wire 1 1 reset~input_o $end
$var wire 1 2 input1~input_o $end
$var wire 1 3 reg_fstate.state1~0_combout $end
$var wire 1 4 fstate.state1~q $end
$var wire 1 5 reg_fstate.state3~0_combout $end
$var wire 1 6 fstate.state3~q $end
$var wire 1 7 output1~0_combout $end
$var wire 1 8 output2~0_combout $end
$upscope $end
$upscope $end
$enddefinitions $end
#0
$dumpvars
0!
0"
0#
0$
0%
x&
0'
1(
x)
1*
1+
1,
0-
0.
0/
00
01
02
03
04
05
06
07
08
$end
#5000
1!
1-
1.
0&
#10000
1"
0!
12
0-
0.
1&
13
#15000
1!
1-
1.
0&
14
15
18
10
1%
#20000
0"
0!
02
0-
0.
1&
05
03
#25000
1!
1-
1.
0&
04
08
00
0%
#30000
1"
0!
12
0-
0.
1&
13
#35000
1!
1-
1.
0&
14
15
18
10
1%
#40000
0"
0!
02
0-
0.
1&
05
03
#45000
1!
1-
1.
0&
04
08
00
0%
#50000
1"
0!
12
0-
0.
1&
13
#55000
1!
1-
1.
0&
14
15
18
10
1%
#60000
0"
0!
02
0-
0.
1&
05
03
#65000
1!
1-
1.
0&
04
08
00
0%
#70000
1"
0!
12
0-
0.
1&
13
#75000
1!
1-
1.
0&
14
15
18
10
1%
#80000
0"
0!
02
0-
0.
1&
05
03
#85000
1!
1-
1.
0&
04
08
00
0%
#90000
1"
0!
12
0-
0.
1&
13
#95000
1!
1-
1.
0&
14
15
18
10
1%
#100000
0"
0!
02
0-
0.
1&
05
03
#105000
1!
1-
1.
0&
04
08
00
0%
#110000
1"
0!
12
0-
0.
1&
13
#115000
1!
1-
1.
0&
14
15
18
10
1%
#120000
0"
0!
02
0-
0.
1&
05
03
#125000
1!
1-
1.
0&
04
08
00
0%
#130000
1"
0!
12
0-
0.
1&
13
#135000
1!
1-
1.
0&
14
15
18
10
1%
#140000
0"
0!
02
0-
0.
1&
05
03
#145000
1!
1-
1.
0&
04
08
00
0%
#150000
1"
0!
12
0-
0.
1&
13
#155000
1!
1-
1.
0&
14
15
18
10
1%
#160000
0"
0!
02
0-
0.
1&
05
03
#165000
1!
1-
1.
0&
04
08
00
0%
#170000
1"
0!
12
0-
0.
1&
13
#175000
1!
1-
1.
0&
14
15
18
10
1%
#180000
0"
0!
02
0-
0.
1&
05
03
#185000
1!
1-
1.
0&
04
08
00
0%
#190000
1"
0!
12
0-
0.
1&
13
#195000
1!
1-
1.
0&
14
15
18
10
1%
#200000
0"
0!
02
0-
0.
1&
05
03
#205000
1!
1-
1.
0&
04
08
00
0%
#210000
1"
0!
12
0-
0.
1&
13
#215000
1!
1-
1.
0&
14
15
18
10
1%
#220000
0"
0!
02
0-
0.
1&
05
03
#225000
1!
1-
1.
0&
04
08
00
0%
#230000
1"
0!
12
0-
0.
1&
13
#235000
1!
1-
1.
0&
14
15
18
10
1%
#240000
0"
0!
02
0-
0.
1&
05
03
#245000
1!
1-
1.
0&
04
08
00
0%
#250000
1"
0!
12
0-
0.
1&
13
#255000
1!
1-
1.
0&
14
15
18
10
1%
#260000
0"
0!
02
0-
0.
1&
05
03
#265000
1!
1-
1.
0&
04
08
00
0%
#270000
1"
0!
12
0-
0.
1&
13
#275000
1!
1-
1.
0&
14
15
18
10
1%
#280000
0"
0!
02
0-
0.
1&
05
03
#285000
1!
1-
1.
0&
04
08
00
0%
#290000
1"
0!
12
0-
0.
1&
13
#295000
1!
1-
1.
0&
14
15
18
10
1%
#300000
0"
0!
02
0-
0.
1&
05
03
#305000
1!
1-
1.
0&
04
08
00
0%
#310000
1"
0!
12
0-
0.
1&
13
#315000
1!
1-
1.
0&
14
15
18
10
1%
#320000
0"
0!
02
0-
0.
1&
05
03
#325000
1!
1-
1.
0&
04
08
00
0%
#330000
1"
0!
12
0-
0.
1&
13
#335000
1!
1-
1.
0&
14
15
18
10
1%
#340000
0"
0!
02
0-
0.
1&
05
03
#345000
1!
1-
1.
0&
04
08
00
0%
#350000
1"
0!
12
0-
0.
1&
13
#355000
1!
1-
1.
0&
14
15
18
10
1%
#360000
0"
0!
02
0-
0.
1&
05
03
#365000
1!
1-
1.
0&
04
08
00
0%
#370000
1"
0!
12
0-
0.
1&
13
#375000
1!
1-
1.
0&
14
15
18
10
1%
#380000
0"
0!
02
0-
0.
1&
05
03
#385000
1!
1-
1.
0&
04
08
00
0%
#390000
1"
0!
12
0-
0.
1&
13
#395000
1!
1-
1.
0&
14
15
18
10
1%
#400000
0"
0!
02
0-
0.
1&
05
03
#405000
1!
1-
1.
0&
04
08
00
0%
#410000
1"
0!
12
0-
0.
1&
13
#415000
1!
1-
1.
0&
14
15
18
10
1%
#420000
0"
0!
02
0-
0.
1&
05
03
#425000
1!
1-
1.
0&
04
08
00
0%
#430000
1"
0!
12
0-
0.
1&
13
#435000
1!
1-
1.
0&
14
15
18
10
1%
#440000
0"
0!
02
0-
0.
1&
05
03
#445000
1!
1-
1.
0&
04
08
00
0%
#450000
1"
0!
12
0-
0.
1&
13
#455000
1!
1-
1.
0&
14
15
18
10
1%
#460000
0"
0!
02
0-
0.
1&
05
03
#465000
1!
1-
1.
0&
04
08
00
0%
#470000
1"
0!
12
0-
0.
1&
13
#475000
1!
1-
1.
0&
14
15
18
10
1%
#480000
0"
0!
02
0-
0.
1&
05
03
#485000
1!
1-
1.
0&
04
08
00
0%
#490000
1"
0!
12
0-
0.
1&
13
#495000
1!
1-
1.
0&
14
15
18
10
1%
#500000
0"
0!
02
0-
0.
1&
05
03
#505000
1!
1-
1.
0&
04
08
00
0%
#510000
1"
0!
12
0-
0.
1&
13
#515000
1!
1-
1.
0&
14
15
18
10
1%
#520000
0"
0!
02
0-
0.
1&
05
03
#525000
1!
1-
1.
0&
04
08
00
0%
#530000
1"
0!
12
0-
0.
1&
13
#535000
1!
1-
1.
0&
14
15
18
10
1%
#540000
0"
0!
02
0-
0.
1&
05
03
#545000
1!
1-
1.
0&
04
08
00
0%
#550000
1"
0!
12
0-
0.
1&
13
#555000
1!
1-
1.
0&
14
15
18
10
1%
#560000
0"
0!
02
0-
0.
1&
05
03
#565000
1!
1-
1.
0&
04
08
00
0%
#570000
1"
0!
12
0-
0.
1&
13
#575000
1!
1-
1.
0&
14
15
18
10
1%
#580000
0"
0!
02
0-
0.
1&
05
03
#585000
1!
1-
1.
0&
04
08
00
0%
#590000
1"
0!
12
0-
0.
1&
13
#595000
1!
1-
1.
0&
14
15
18
10
1%
#600000
0"
0!
02
0-
0.
1&
05
03
#605000
1!
1-
1.
0&
04
08
00
0%
#610000
1"
0!
12
0-
0.
1&
13
#615000
1!
1-
1.
0&
14
15
18
10
1%
#620000
0"
0!
02
0-
0.
1&
05
03
#625000
1!
1-
1.
0&
04
08
00
0%
#630000
1"
0!
12
0-
0.
1&
13
#635000
1!
1-
1.
0&
14
15
18
10
1%
#640000
0"
0!
02
0-
0.
1&
05
03
#645000
1!
1-
1.
0&
04
08
00
0%
#650000
1"
0!
12
0-
0.
1&
13
#655000
1!
1-
1.
0&
14
15
18
10
1%
#660000
0"
0!
02
0-
0.
1&
05
03
#665000
1!
1-
1.
0&
04
08
00
0%
#670000
1"
0!
12
0-
0.
1&
13
#675000
1!
1-
1.
0&
14
15
18
10
1%
#680000
0"
0!
02
0-
0.
1&
05
03
#685000
1!
1-
1.
0&
04
08
00
0%
#690000
1"
0!
12
0-
0.
1&
13
#695000
1!
1-
1.
0&
14
15
18
10
1%
#700000
0"
0!
02
0-
0.
1&
05
03
#705000
1!
1-
1.
0&
04
08
00
0%
#710000
1"
0!
12
0-
0.
1&
13
#715000
1!
1-
1.
0&
14
15
18
10
1%
#720000
0"
0!
02
0-
0.
1&
05
03
#725000
1!
1-
1.
0&
04
08
00
0%
#730000
1"
0!
12
0-
0.
1&
13
#735000
1!
1-
1.
0&
14
15
18
10
1%
#740000
0"
0!
02
0-
0.
1&
05
03
#745000
1!
1-
1.
0&
04
08
00
0%
#750000
1"
0!
12
0-
0.
1&
13
#755000
1!
1-
1.
0&
14
15
18
10
1%
#760000
0"
0!
02
0-
0.
1&
05
03
#765000
1!
1-
1.
0&
04
08
00
0%
#770000
1"
0!
12
0-
0.
1&
13
#775000
1!
1-
1.
0&
14
15
18
10
1%
#780000
0"
0!
02
0-
0.
1&
05
03
#785000
1!
1-
1.
0&
04
08
00
0%
#790000
1"
0!
12
0-
0.
1&
13
#795000
1!
1-
1.
0&
14
15
18
10
1%
#800000
0"
0!
02
0-
0.
1&
05
03
#805000
1!
1-
1.
0&
04
08
00
0%
#810000
1"
0!
12
0-
0.
1&
13
#815000
1!
1-
1.
0&
14
15
18
10
1%
#820000
0"
0!
02
0-
0.
1&
05
03
#825000
1!
1-
1.
0&
04
08
00
0%
#830000
1"
0!
12
0-
0.
1&
13
#835000
1!
1-
1.
0&
14
15
18
10
1%
#840000
0"
0!
02
0-
0.
1&
05
03
#845000
1!
1-
1.
0&
04
08
00
0%
#850000
1"
0!
12
0-
0.
1&
13
#855000
1!
1-
1.
0&
14
15
18
10
1%
#860000
0"
0!
02
0-
0.
1&
05
03
#865000
1!
1-
1.
0&
04
08
00
0%
#870000
1"
0!
12
0-
0.
1&
13
#875000
1!
1-
1.
0&
14
15
18
10
1%
#880000
0"
0!
02
0-
0.
1&
05
03
#885000
1!
1-
1.
0&
04
08
00
0%
#890000
1"
0!
12
0-
0.
1&
13
#895000
1!
1-
1.
0&
14
15
18
10
1%
#900000
0"
0!
02
0-
0.
1&
05
03
#905000
1!
1-
1.
0&
04
08
00
0%
#910000
1"
0!
12
0-
0.
1&
13
#915000
1!
1-
1.
0&
14
15
18
10
1%
#920000
0"
0!
02
0-
0.
1&
05
03
#925000
1!
1-
1.
0&
04
08
00
0%
#930000
1"
0!
12
0-
0.
1&
13
#935000
1!
1-
1.
0&
14
15
18
10
1%
#940000
0"
0!
02
0-
0.
1&
05
03
#945000
1!
1-
1.
0&
04
08
00
0%
#950000
1"
0!
12
0-
0.
1&
13
#955000
1!
1-
1.
0&
14
15
18
10
1%
#960000
0"
0!
02
0-
0.
1&
05
03
#965000
1!
1-
1.
0&
04
08
00
0%
#970000
1"
0!
12
0-
0.
1&
13
#975000
1!
1-
1.
0&
14
15
18
10
1%
#980000
0"
0!
02
0-
0.
1&
05
03
#985000
1!
1-
1.
0&
04
08
00
0%
#990000
1"
0!
12
0-
0.
1&
13
#995000
1!
1-
1.
0&
14
15
18
10
1%
