Clases/Contador de 4 Bits/simulation/qsim/contador_cuatro_bits.msim.vcd
$comment
	File created using the following command:
		vcd file contador_cuatro_bits.msim.vcd -direction
$end
$date
	Fri Mar 15 00:32:59 2024
$end
$version
	ModelSim Version 10.1d
$end
$timescale
	1ps
$end
$scope module contador_cuatro_bits_vlg_vec_tst $end
$var reg 1 ! clock $end
$var reg 1 " input1 $end
$var reg 1 # reset $end
$var wire 1 $ output1 $end
$var wire 1 % output2 $end
$var wire 1 & output3 $end
$var wire 1 ' output4 $end
$var wire 1 ( sampler $end
$scope module i1 $end
$var wire 1 ) gnd $end
$var wire 1 * vcc $end
$var wire 1 + unknown $end
$var tri1 1 , devclrn $end
$var tri1 1 - devpor $end
$var tri1 1 . devoe $end
$var wire 1 / clock~input_o $end
$var wire 1 0 clock~inputclkctrl_outclk $end
$var wire 1 1 output1~output_o $end
$var wire 1 2 output2~output_o $end
$var wire 1 3 output3~output_o $end
$var wire 1 4 output4~output_o $end
$var wire 1 5 reset~input_o $end
$var wire 1 6 input1~input_o $end
$var wire 1 7 reg_fstate.state11~0_combout $end
$var wire 1 8 fstate.state11~q $end
$var wire 1 9 reg_fstate.state12~0_combout $end
$var wire 1 : fstate.state12~q $end
$var wire 1 ; reg_fstate.state13~0_combout $end
$var wire 1 < fstate.state13~q $end
$var wire 1 = reg_fstate.state14~0_combout $end
$var wire 1 > fstate.state14~q $end
$var wire 1 ? reg_fstate.state15~0_combout $end
$var wire 1 @ fstate.state15~q $end
$var wire 1 A reg_fstate.state16~0_combout $end
$var wire 1 B fstate.state16~q $end
$var wire 1 C reg_fstate.state1~0_combout $end
$var wire 1 D fstate.state1~q $end
$var wire 1 E reg_fstate.state2~0_combout $end
$var wire 1 F fstate.state2~q $end
$var wire 1 G reg_fstate.state3~0_combout $end
$var wire 1 H fstate.state3~q $end
$var wire 1 I reg_fstate.state4~0_combout $end
$var wire 1 J fstate.state4~q $end
$var wire 1 K reg_fstate.state5~0_combout $end
$var wire 1 L fstate.state5~q $end
$var wire 1 M reg_fstate.state6~0_combout $end
$var wire 1 N fstate.state6~q $end
$var wire 1 O reg_fstate.state7~0_combout $end
$var wire 1 P fstate.state7~q $end
$var wire 1 Q reg_fstate.state8~0_combout $end
$var wire 1 R fstate.state8~q $end
$var wire 1 S reg_fstate.state9~0_combout $end
$var wire 1 T fstate.state9~q $end
$var wire 1 U reg_fstate.state10~0_combout $end
$var wire 1 V fstate.state10~q $end
$var wire 1 W WideOr19~0_combout $end
$var wire 1 X WideOr17~0_combout $end
$var wire 1 Y output1~0_combout $end
$var wire 1 Z WideOr16~0_combout $end
$var wire 1 [ WideOr18~0_combout $end
$var wire 1 \ output2~0_combout $end
$var wire 1 ] WideOr17~1_combout $end
$var wire 1 ^ output3~0_combout $end
$var wire 1 _ WideOr16~1_combout $end
$var wire 1 ` output4~0_combout $end
$upscope $end
$upscope $end
$enddefinitions $end
#0
$dumpvars
0!
1"
0#
0$
0%
0&
0'
x(
0)
1*
x+
1,
1-
1.
0/
00
01
02
03
04
05
16
07
08
09
0:
0;
0<
0=
0>
0?
0@
0A
0B
1C
0D
1E
0F
0G
0H
0I
0J
0K
0L
0M
0N
0O
0P
0Q
0R
0S
0T
0U
0V
0W
1X
0Y
1Z
0[
0\
0]
0^
0_
0`
$end
#5000
1!
1/
10
0(
1F
1D
1_
1G
0E
1`
14
1'
#10000
0!
0/
00
1(
#15000
1!
1/
10
0(
1H
0F
1]
1I
0_
0G
1^
0`
13
04
1&
0'
#20000
0!
0/
00
1(
#25000
1!
1/
10
0(
1J
0H
1_
1K
0I
1`
14
1'
#30000
0!
0/
00
1(
#35000
1!
1/
10
0(
1L
0J
1[
1M
0_
0]
0K
1\
0`
0^
12
04
03
1%
0'
0&
#40000
0!
0/
00
1(
#45000
1!
1/
10
0(
1N
0L
0Z
1O
0[
0M
1`
14
1'
#50000
0!
0/
00
1(
#55000
1!
1/
10
0(
1P
0N
1]
1[
1Q
1Z
0O
1^
0`
13
04
1&
0'
#60000
0!
0/
00
1(
#65000
1!
1/
10
0(
1R
0P
0Z
1S
0[
0Q
1`
14
1'
#70000
0!
0/
00
1(
#75000
1!
1/
10
0(
1T
0R
1W
1U
0]
1Z
0S
1Y
0^
0`
0\
11
03
04
02
1$
0&
0'
0%
#80000
0!
0/
00
1(
#85000
1!
1/
10
0(
1V
0T
1_
17
0U
1`
14
1'
#90000
0!
0/
00
1(
#95000
1!
1/
10
0(
0V
18
0_
0W
07
0X
19
0`
1^
04
13
0'
1&
#100000
0!
0/
00
1(
#105000
1!
1/
10
0(
1:
08
1_
1;
09
1`
14
1'
#110000
0!
0/
00
1(
#115000
1!
1/
10
0(
1<
0:
1[
1W
1=
0_
1X
0;
1\
0`
0^
12
04
03
1%
0'
0&
#120000
0!
0/
00
1(
#125000
1!
1/
10
0(
1>
0<
0Z
1?
0[
0=
1`
14
1'
#130000
0!
0/
00
1(
#135000
1!
1/
10
0(
1@
0>
1[
0X
1A
1Z
0W
0?
1^
0`
13
04
1&
0'
#140000
0!
0/
00
1(
#145000
1!
1/
10
0(
1B
0@
0Z
0C
0[
0A
1`
14
1'
#150000
0!
0/
00
1(
#155000
1!
1/
10
0(
0D
0B
1E
1Z
1X
1C
0`
0\
0^
0Y
04
02
03
01
0'
0%
0&
0$
#160000
0"
0!
06
0/
00
1(
0E
1A
#165000
1!
1/
10
0(
1D
1B
0A
0Z
0X
1?
1`
1\
1^
1Y
14
12
13
11
1'
1%
1&
1$
#170000
0!
0/
00
1(
#175000
1!
1/
10
0(
0B
1@
1Z
0?
1[
1=
0`
04
0'
#180000
0!
0/
00
1(
#185000
1!
1/
10
0(
0@
1>
0[
1X
0=
0Z
1W
1;
0^
1`
03
14
0&
1'
#190000
0!
0/
00
1(
#195000
1!
1/
10
0(
0>
1<
1Z
0;
1[
19
0`
04
0'
#200000
0!
0/
00
1(
#205000
1!
1/
10
0(
0<
1:
0[
0W
09
1_
0X
17
0\
1`
1^
02
14
13
0%
1'
1&
#210000
0!
0/
00
1(
#215000
1!
1/
10
0(
0:
18
0_
07
1U
0`
04
0'
#220000
0!
0/
00
1(
#225000
1!
1/
10
0(
1V
08
1_
1W
1S
1X
0U
1`
0^
14
03
1'
0&
#230000
0!
0/
00
1(
#235000
1!
1/
10
0(
0V
1T
0_
0S
1Q
0`
04
0'
#240000
0!
0/
00
1(
#245000
1!
1/
10
0(
0T
1R
0W
0Q
1]
0Z
1O
0Y
1^
1`
1\
01
13
14
12
0$
1&
1'
1%
#250000
0!
0/
00
1(
#255000
1!
1/
10
0(
0R
1P
1Z
0O
1[
1M
0`
04
0'
#260000
0!
0/
00
1(
#265000
1!
1/
10
0(
0P
1N
0]
0[
0M
0Z
1K
0^
1`
03
14
0&
1'
#270000
0!
0/
00
1(
#275000
1!
1/
10
0(
0N
1L
1Z
0K
1[
1I
0`
04
0'
#280000
0!
0/
00
1(
#285000
1!
1/
10
0(
0L
1J
0[
0I
1_
1]
1G
0\
1`
1^
02
14
13
0%
1'
1&
#290000
0!
0/
00
1(
#295000
1!
1/
10
0(
0J
1H
0_
0G
1E
0`
04
0'
#300000
0!
0/
00
1(
#305000
1!
1/
10
0(
0H
1F
0]
0E
1_
0C
0^
1`
03
14
0&
1'
#310000
0!
0/
00
1(
#315000
1!
1/
10
0(
0F
0D
0_
1C
1A
0`
04
0'
#320000
1"
0!
16
0/
00
1(
1E
0A
#325000
1!
1/
10
0(
1F
1D
1_
1G
0E
1`
14
1'
#330000
0!
0/
00
1(
#335000
1!
1/
10
0(
1H
0F
1]
1I
0_
0G
1^
0`
13
04
1&
0'
#340000
0!
0/
00
1(
#345000
1!
1/
10
0(
1J
0H
1_
1K
0I
1`
14
1'
#350000
0!
0/
00
1(
#355000
1!
1/
10
0(
1L
0J
1[
1M
0_
0]
0K
1\
0`
0^
12
04
03
1%
0'
0&
#360000
0!
0/
00
1(
#365000
1!
1/
10
0(
1N
0L
0Z
1O
0[
0M
1`
14
1'
#370000
0!
0/
00
1(
#375000
1!
1/
10
0(
1P
0N
1]
1[
1Q
1Z
0O
1^
0`
13
04
1&
0'
#380000
0!
0/
00
1(
#385000
1!
1/
10
0(
1R
0P
0Z
1S
0[
0Q
1`
14
1'
#390000
0!
0/
00
1(
#395000
1!
1/
10
0(
1T
0R
1W
1U
0]
1Z
0S
1Y
0^
0`
0\
11
03
04
02
1$
0&
0'
0%
#400000
0!
0/
00
1(
#405000
1!
1/
10
0(
1V
0T
1_
17
0U
1`
14
1'
#410000
0!
0/
00
1(
#415000
1!
1/
10
0(
0V
18
0_
0W
07
0X
19
0`
1^
04
13
0'
1&
#420000
0!
0/
00
1(
#425000
1!
1/
10
0(
1:
08
1_
1;
09
1`
14
1'
#430000
0!
0/
00
1(
#435000
1!
1/
10
0(
1<
0:
1[
1W
1=
0_
1X
0;
1\
0`
0^
12
04
03
1%
0'
0&
#440000
0!
0/
00
1(
#445000
1!
1/
10
0(
1>
0<
0Z
1?
0[
0=
1`
14
1'
#450000
0!
0/
00
1(
#455000
1!
1/
10
0(
1@
0>
1[
0X
1A
1Z
0W
0?
1^
0`
13
04
1&
0'
#460000
0!
0/
00
1(
#465000
1!
1/
10
0(
1B
0@
0Z
0C
0[
0A
1`
14
1'
#470000
0!
0/
00
1(
#475000
1!
1/
10
0(
0D
0B
1E
1Z
1X
1C
0`
0\
0^
0Y
04
02
03
01
0'
0%
0&
0$
#480000
0"
0!
06
0/
00
1(
0E
1A
#485000
1!
1/
10
0(
1D
1B
0A
0Z
0X
1?
1`
1\
1^
1Y
14
12
13
11
1'
1%
1&
1$
#490000
0!
0/
00
1(
#495000
1!
1/
10
0(
0B
1@
1Z
0?
1[
1=
0`
04
0'
#500000
1#
0!
15
0/
00
1(
0C
0^
0\
0Y
03
02
01
0&
0%
0$
#505000
1!
1/
10
0(
0D
0@
1A
0[
1X
0=
#510000
0#
0!
05
0/
00
1(
1C
#515000
1!
1/
10
0(
1D
1B
0A
0Z
0X
1?
1`
1\
1^
1Y
14
12
13
11
1'
1%
1&
1$
#520000
0!
0/
00
1(
#525000
1!
1/
10
0(
0B
1@
1Z
0?
1[
1=
0`
04
0'
#530000
0!
0/
00
1(
#535000
1!
1/
10
0(
0@
1>
0[
1X
0=
0Z
1W
1;
0^
1`
03
14
0&
1'
#540000
0!
0/
00
1(
#545000
1!
1/
10
0(
0>
1<
1Z
0;
1[
19
0`
04
0'
#550000
0!
0/
00
1(
#555000
1!
1/
10
0(
0<
1:
0[
0W
09
1_
0X
17
0\
1`
1^
02
14
13
0%
1'
1&
#560000
0!
0/
00
1(
#565000
1!
1/
10
0(
0:
18
0_
07
1U
0`
04
0'
#570000
0!
0/
00
1(
#575000
1!
1/
10
0(
1V
08
1_
1W
1S
1X
0U
1`
0^
14
03
1'
0&
#580000
0!
0/
00
1(
#585000
1!
1/
10
0(
0V
1T
0_
0S
1Q
0`
04
0'
#590000
0!
0/
00
1(
#595000
1!
1/
10
0(
0T
1R
0W
0Q
1]
0Z
1O
0Y
1^
1`
1\
01
13
14
12
0$
1&
1'
1%
#600000
0!
0/
00
1(
#605000
1!
1/
10
0(
0R
1P
1Z
0O
1[
1M
0`
04
0'
#610000
0!
0/
00
1(
#615000
1!
1/
10
0(
0P
1N
0]
0[
0M
0Z
1K
0^
1`
03
14
0&
1'
#620000
0!
0/
00
1(
#625000
1!
1/
10
0(
0N
1L
1Z
0K
1[
1I
0`
04
0'
#630000
0!
0/
00
1(
#635000
1!
1/
10
0(
0L
1J
0[
0I
1_
1]
1G
0\
1`
1^
02
14
13
0%
1'
1&
#640000
1"
0!
16
0/
00
1(
1K
0G
#645000
1!
1/
10
0(
1L
0J
1[
1M
0_
0]
0K
1\
0`
0^
12
04
03
1%
0'
0&
#650000
0!
0/
00
1(
#655000
1!
1/
10
0(
1N
0L
0Z
1O
0[
0M
1`
14
1'
#660000
0!
0/
00
1(
#665000
1!
1/
10
0(
1P
0N
1]
1[
1Q
1Z
0O
1^
0`
13
04
1&
0'
#670000
0!
0/
00
1(
#675000
1!
1/
10
0(
1R
0P
0Z
1S
0[
0Q
1`
14
1'
#680000
0!
0/
00
1(
#685000
1!
1/
10
0(
1T
0R
1W
1U
0]
1Z
0S
1Y
0^
0`
0\
11
03
04
02
1$
0&
0'
0%
#690000
0!
0/
00
1(
#695000
1!
1/
10
0(
1V
0T
1_
17
0U
1`
14
1'
#700000
0!
0/
00
1(
#705000
1!
1/
10
0(
0V
18
0_
0W
07
0X
19
0`
1^
04
13
0'
1&
#710000
0!
0/
00
1(
#715000
1!
1/
10
0(
1:
08
1_
1;
09
1`
14
1'
#720000
0!
0/
00
1(
#725000
1!
1/
10
0(
1<
0:
1[
1W
1=
0_
1X
0;
1\
0`
0^
12
04
03
1%
0'
0&
#730000
0!
0/
00
1(
#735000
1!
1/
10
0(
1>
0<
0Z
1?
0[
0=
1`
14
1'
#740000
0!
0/
00
1(
#745000
1!
1/
10
0(
1@
0>
1[
0X
1A
1Z
0W
0?
1^
0`
13
04
1&
0'
#750000
0!
0/
00
1(
#755000
1!
1/
10
0(
1B
0@
0Z
0C
0[
0A
1`
14
1'
#760000
0!
0/
00
1(
#765000
1!
1/
10
0(
0D
0B
1E
1Z
1X
1C
0`
0\
0^
0Y
04
02
03
01
0'
0%
0&
0$
#770000
0!
0/
00
1(
#775000
1!
1/
10
0(
1F
1D
1_
1G
0E
1`
14
1'
#780000
0!
0/
00
1(
#785000
1!
1/
10
0(
1H
0F
1]
1I
0_
0G
1^
0`
13
04
1&
0'
#790000
0!
0/
00
1(
#795000
1!
1/
10
0(
1J
0H
1_
1K
0I
1`
14
1'
#800000
0"
0!
06
0/
00
1(
0K
1G
#805000
1!
1/
10
0(
0J
1H
0_
0G
1E
0`
04
0'
#810000
0!
0/
00
1(
#815000
1!
1/
10
0(
0H
1F
0]
0E
1_
0C
0^
1`
03
14
0&
1'
#820000
0!
0/
00
1(
#825000
1!
1/
10
0(
0F
0D
0_
1C
1A
0`
04
0'
#830000
0!
0/
00
1(
#835000
1!
1/
10
0(
1D
1B
0A
0Z
0X
1?
1`
1\
1^
1Y
14
12
13
11
1'
1%
1&
1$
#840000
0!
0/
00
1(
#845000
1!
1/
10
0(
0B
1@
1Z
0?
1[
1=
0`
04
0'
#850000
0!
0/
00
1(
#855000
1!
1/
10
0(
0@
1>
0[
1X
0=
0Z
1W
1;
0^
1`
03
14
0&
1'
#860000
0!
0/
00
1(
#865000
1!
1/
10
0(
0>
1<
1Z
0;
1[
19
0`
04
0'
#870000
0!
0/
00
1(
#875000
1!
1/
10
0(
0<
1:
0[
0W
09
1_
0X
17
0\
1`
1^
02
14
13
0%
1'
1&
#880000
0!
0/
00
1(
#885000
1!
1/
10
0(
0:
18
0_
07
1U
0`
04
0'
#890000
0!
0/
00
1(
#895000
1!
1/
10
0(
1V
08
1_
1W
1S
1X
0U
1`
0^
14
03
1'
0&
#900000
0!
0/
00
1(
#905000
1!
1/
10
0(
0V
1T
0_
0S
1Q
0`
04
0'
#910000
0!
0/
00
1(
#915000
1!
1/
10
0(
0T
1R
0W
0Q
1]
0Z
1O
0Y
1^
1`
1\
01
13
14
12
0$
1&
1'
1%
#920000
0!
0/
00
1(
#925000
1!
1/
10
0(
0R
1P
1Z
0O
1[
1M
0`
04
0'
#930000
0!
0/
00
1(
#935000
1!
1/
10
0(
0P
1N
0]
0[
0M
0Z
1K
0^
1`
03
14
0&
1'
#940000
0!
0/
00
1(
#945000
1!
1/
10
0(
0N
1L
1Z
0K
1[
1I
0`
04
0'
#950000
0!
0/
00
1(
#955000
1!
1/
10
0(
0L
1J
0[
0I
1_
1]
1G
0\
1`
1^
02
14
13
0%
1'
1&
#960000
1"
0!
16
0/
00
1(
1K
0G
#965000
1!
1/
10
0(
1L
0J
1[
1M
0_
0]
0K
1\
0`
0^
12
04
03
1%
0'
0&
#970000
0!
0/
00
1(
#975000
1!
1/
10
0(
1N
0L
0Z
1O
0[
0M
1`
14
1'
#980000
0!
0/
00
1(
#985000
1!
1/
10
0(
1P
0N
1]
1[
1Q
1Z
0O
1^
0`
13
04
1&
0'
#990000
0!
0/
00
1(
#995000
1!
1/
10
0(
1R
0P
0Z
1S
0[
0Q
1`
14
1'
