Clases/Maquina de Estados/simulation/qsim/maquina_estados.msim.vcd
$comment
	File created using the following command:
		vcd file maquina_estados.msim.vcd -direction
$end
$date
	Mon Mar 11 11:01:18 2024
$end
$version
	ModelSim Version 10.1d
$end
$timescale
	1ps
$end
$scope module maquina_estados_vlg_vec_tst $end
$var reg 1 ! clock $end
$var reg 1 " reset $end
$var wire 1 # output1 $end
$var wire 1 $ output2 $end
$var wire 1 % output3 $end
$var wire 1 & sampler $end
$scope module i1 $end
$var wire 1 ' gnd $end
$var wire 1 ( vcc $end
$var wire 1 ) unknown $end
$var tri1 1 * devclrn $end
$var tri1 1 + devpor $end
$var tri1 1 , devoe $end
$var wire 1 - clock~input_o $end
$var wire 1 . clock~inputclkctrl_outclk $end
$var wire 1 / output1~output_o $end
$var wire 1 0 output2~output_o $end
$var wire 1 1 output3~output_o $end
$var wire 1 2 reset~input_o $end
$var wire 1 3 reg_fstate.state6~0_combout $end
$var wire 1 4 fstate.state6~q $end
$var wire 1 5 reg_fstate.state7~0_combout $end
$var wire 1 6 fstate.state7~q $end
$var wire 1 7 reg_fstate.state8~0_combout $end
$var wire 1 8 fstate.state8~q $end
$var wire 1 9 reg_fstate.state1~0_combout $end
$var wire 1 : fstate.state1~q $end
$var wire 1 ; reg_fstate.state2~0_combout $end
$var wire 1 < fstate.state2~q $end
$var wire 1 = reg_fstate.state3~0_combout $end
$var wire 1 > fstate.state3~q $end
$var wire 1 ? reg_fstate.state4~0_combout $end
$var wire 1 @ fstate.state4~q $end
$var wire 1 A reg_fstate.state5~0_combout $end
$var wire 1 B fstate.state5~q $end
$var wire 1 C output1~0_combout $end
$var wire 1 D output1~1_combout $end
$var wire 1 E output2~0_combout $end
$var wire 1 F output2~1_combout $end
$var wire 1 G output3~0_combout $end
$upscope $end
$upscope $end
$enddefinitions $end
#0
$dumpvars
0!
0"
0#
0$
0%
x&
0'
1(
x)
1*
1+
1,
0-
0.
0/
00
01
02
03
04
05
06
07
08
19
0:
1;
0<
0=
0>
0?
0@
0A
0B
0C
0D
1E
0F
0G
$end
#500
1!
1-
1.
0&
1<
1:
0E
1=
0;
1F
10
1$
1G
0F
11
00
1%
0$
#1000
0!
0-
0.
1&
#1500
1!
1-
1.
0&
1>
0<
1?
1E
0=
0G
1F
01
10
0%
1$
#2000
0!
0-
0.
1&
#2500
1!
1-
1.
0&
1@
0>
1A
0?
1G
11
1%
#3000
0!
0-
0.
1&
#3500
1!
1-
1.
0&
1B
0@
1C
13
0A
0F
0G
00
01
0$
0%
1D
1/
1#
#4000
0!
0-
0.
1&
#4500
1!
1-
1.
0&
0B
14
03
0E
15
1F
10
1$
1G
0F
11
00
1%
0$
#5000
0!
0-
0.
1&
#5500
1!
1-
1.
0&
16
04
17
1E
05
0G
1F
01
10
0%
1$
#6000
0!
0-
0.
1&
#6500
1!
1-
1.
0&
18
06
09
07
1G
11
1%
#7000
0!
0-
0.
1&
#7500
1!
1-
1.
0&
0:
08
1;
0C
19
0F
0G
00
01
0$
0%
0D
0/
0#
#8000
0!
0-
0.
1&
#8500
1!
1-
1.
0&
1<
1:
0E
1=
0;
1F
10
1$
1G
0F
11
00
1%
0$
#9000
0!
0-
0.
1&
#9500
1!
1-
1.
0&
1>
0<
1?
1E
0=
0G
1F
01
10
0%
1$
#10000
0!
0-
0.
1&
#10500
1!
1-
1.
0&
1@
0>
1A
0?
1G
11
1%
#11000
0!
0-
0.
1&
#11500
1!
1-
1.
0&
1B
0@
1C
13
0A
0F
0G
00
01
0$
0%
1D
1/
1#
#12000
0!
0-
0.
1&
#12500
1!
1-
1.
0&
0B
14
03
0E
15
1F
10
1$
1G
0F
11
00
1%
0$
#13000
0!
0-
0.
1&
#13500
1!
1-
1.
0&
16
04
17
1E
05
0G
1F
01
10
0%
1$
#14000
0!
0-
0.
1&
#14500
1!
1-
1.
0&
18
06
09
07
1G
11
1%
#15000
0!
0-
0.
1&
#15500
1!
1-
1.
0&
0:
08
1;
0C
19
0F
0G
00
01
0$
0%
0D
0/
0#
#16000
0!
0-
0.
1&
#16500
1!
1-
1.
0&
1<
1:
0E
1=
0;
1F
10
1$
1G
0F
11
00
1%
0$
#17000
0!
0-
0.
1&
#17500
1!
1-
1.
0&
1>
0<
1?
1E
0=
0G
1F
01
10
0%
1$
#18000
0!
0-
0.
1&
#18500
1!
1-
1.
0&
1@
0>
1A
0?
1G
11
1%
#19000
0!
0-
0.
1&
#19500
1!
1-
1.
0&
1B
0@
1C
13
0A
0F
0G
00
01
0$
0%
1D
1/
1#
#20000
0!
0-
0.
1&
#20500
1!
1-
1.
0&
0B
14
03
0E
15
1F
10
1$
1G
0F
11
00
1%
0$
#21000
0!
0-
0.
1&
#21500
1!
1-
1.
0&
16
04
17
1E
05
0G
1F
01
10
0%
1$
#22000
0!
0-
0.
1&
#22500
1!
1-
1.
0&
18
06
09
07
1G
11
1%
#23000
0!
0-
0.
1&
#23500
1!
1-
1.
0&
0:
08
1;
0C
19
0F
0G
00
01
0$
0%
0D
0/
0#
#24000
0!
0-
0.
1&
#24500
1!
1-
1.
0&
1<
1:
0E
1=
0;
1F
10
1$
1G
0F
11
00
1%
0$
#25000
0!
0-
0.
1&
#25500
1!
1-
1.
0&
1>
0<
1?
1E
0=
0G
1F
01
10
0%
1$
#26000
0!
0-
0.
1&
#26500
1!
1-
1.
0&
1@
0>
1A
0?
1G
11
1%
#27000
0!
0-
0.
1&
#27500
1!
1-
1.
0&
1B
0@
1C
13
0A
0F
0G
00
01
0$
0%
1D
1/
1#
#28000
0!
0-
0.
1&
#28500
1!
1-
1.
0&
0B
14
03
0E
15
1F
10
1$
1G
0F
11
00
1%
0$
#29000
0!
0-
0.
1&
#29500
1!
1-
1.
0&
16
04
17
1E
05
0G
1F
01
10
0%
1$
#30000
0!
0-
0.
1&
#30500
1!
1-
1.
0&
18
06
09
07
1G
11
1%
#31000
0!
0-
0.
1&
#31500
1!
1-
1.
0&
0:
08
1;
0C
19
0F
0G
00
01
0$
0%
0D
0/
0#
#32000
0!
0-
0.
1&
#32500
1!
1-
1.
0&
1<
1:
0E
1=
0;
1F
10
1$
1G
0F
11
00
1%
0$
#33000
0!
0-
0.
1&
#33500
1!
1-
1.
0&
1>
0<
1?
1E
0=
0G
1F
01
10
0%
1$
#34000
0!
0-
0.
1&
#34500
1!
1-
1.
0&
1@
0>
1A
0?
1G
11
1%
#35000
0!
0-
0.
1&
#35500
1!
1-
1.
0&
1B
0@
1C
13
0A
0F
0G
00
01
0$
0%
1D
1/
1#
#36000
0!
0-
0.
1&
#36500
1!
1-
1.
0&
0B
14
03
0E
15
1F
10
1$
1G
0F
11
00
1%
0$
#37000
0!
0-
0.
1&
#37500
1!
1-
1.
0&
16
04
17
1E
05
0G
1F
01
10
0%
1$
#38000
0!
0-
0.
1&
#38500
1!
1-
1.
0&
18
06
09
07
1G
11
1%
#39000
0!
0-
0.
1&
#39500
1!
1-
1.
0&
0:
08
1;
0C
19
0F
0G
00
01
0$
0%
0D
0/
0#
#40000
0!
0-
0.
1&
#40500
1!
1-
1.
0&
1<
1:
0E
1=
0;
1F
10
1$
1G
0F
11
00
1%
0$
#41000
0!
0-
0.
1&
#41500
1!
1-
1.
0&
1>
0<
1?
1E
0=
0G
1F
01
10
0%
1$
#42000
0!
0-
0.
1&
#42500
1!
1-
1.
0&
1@
0>
1A
0?
1G
11
1%
#43000
0!
0-
0.
1&
#43500
1!
1-
1.
0&
1B
0@
1C
13
0A
0F
0G
00
01
0$
0%
1D
1/
1#
#44000
0!
0-
0.
1&
#44500
1!
1-
1.
0&
0B
14
03
0E
15
1F
10
1$
1G
0F
11
00
1%
0$
#45000
0!
0-
0.
1&
#45500
1!
1-
1.
0&
16
04
17
1E
05
0G
1F
01
10
0%
1$
#46000
0!
0-
0.
1&
#46500
1!
1-
1.
0&
18
06
09
07
1G
11
1%
#47000
0!
0-
0.
1&
#47500
1!
1-
1.
0&
0:
08
1;
0C
19
0F
0G
00
01
0$
0%
0D
0/
0#
#48000
0!
0-
0.
1&
#48500
1!
1-
1.
0&
1<
1:
0E
1=
0;
1F
10
1$
1G
0F
11
00
1%
0$
#49000
0!
0-
0.
1&
#49500
1!
1-
1.
0&
1>
0<
1?
1E
0=
0G
1F
01
10
0%
1$
#50000
0!
0-
0.
1&
#50500
1!
1-
1.
0&
1@
0>
1A
0?
1G
11
1%
#51000
0!
0-
0.
1&
#51500
1!
1-
1.
0&
1B
0@
1C
13
0A
0F
0G
00
01
0$
0%
1D
1/
1#
#52000
0!
0-
0.
1&
#52500
1!
1-
1.
0&
0B
14
03
0E
15
1F
10
1$
1G
0F
11
00
1%
0$
#53000
0!
0-
0.
1&
#53500
1!
1-
1.
0&
16
04
17
1E
05
0G
1F
01
10
0%
1$
#54000
0!
0-
0.
1&
#54500
1!
1-
1.
0&
18
06
09
07
1G
11
1%
#55000
0!
0-
0.
1&
#55500
1!
1-
1.
0&
0:
08
1;
0C
19
0F
0G
00
01
0$
0%
0D
0/
0#
#56000
0!
0-
0.
1&
#56500
1!
1-
1.
0&
1<
1:
0E
1=
0;
1F
10
1$
1G
0F
11
00
1%
0$
#57000
0!
0-
0.
1&
#57500
1!
1-
1.
0&
1>
0<
1?
1E
0=
0G
1F
01
10
0%
1$
#58000
0!
0-
0.
1&
#58500
1!
1-
1.
0&
1@
0>
1A
0?
1G
11
1%
#59000
0!
0-
0.
1&
#59500
1!
1-
1.
0&
1B
0@
1C
13
0A
0F
0G
00
01
0$
0%
1D
1/
1#
#60000
0!
0-
0.
1&
#60500
1!
1-
1.
0&
0B
14
03
0E
15
1F
10
1$
1G
0F
11
00
1%
0$
#61000
0!
0-
0.
1&
#61500
1!
1-
1.
0&
16
04
17
1E
05
0G
1F
01
10
0%
1$
#62000
0!
0-
0.
1&
#62500
1!
1-
1.
0&
18
06
09
07
1G
11
1%
#63000
0!
0-
0.
1&
#63500
1!
1-
1.
0&
0:
08
1;
0C
19
0F
0G
00
01
0$
0%
0D
0/
0#
#64000
0!
0-
0.
1&
#64500
1!
1-
1.
0&
1<
1:
0E
1=
0;
1F
10
1$
1G
0F
11
00
1%
0$
#65000
0!
0-
0.
1&
#65500
1!
1-
1.
0&
1>
0<
1?
1E
0=
0G
1F
01
10
0%
1$
#66000
0!
0-
0.
1&
#66500
1!
1-
1.
0&
1@
0>
1A
0?
1G
11
1%
#67000
0!
0-
0.
1&
#67500
1!
1-
1.
0&
1B
0@
1C
13
0A
0F
0G
00
01
0$
0%
1D
1/
1#
#68000
0!
0-
0.
1&
#68500
1!
1-
1.
0&
0B
14
03
0E
15
1F
10
1$
1G
0F
11
00
1%
0$
#69000
0!
0-
0.
1&
#69500
1!
1-
1.
0&
16
04
17
1E
05
0G
1F
01
10
0%
1$
#70000
0!
0-
0.
1&
#70500
1!
1-
1.
0&
18
06
09
07
1G
11
1%
#71000
0!
0-
0.
1&
#71500
1!
1-
1.
0&
0:
08
1;
0C
19
0F
0G
00
01
0$
0%
0D
0/
0#
#72000
0!
0-
0.
1&
#72500
1!
1-
1.
0&
1<
1:
0E
1=
0;
1F
10
1$
1G
0F
11
00
1%
0$
#73000
0!
0-
0.
1&
#73500
1!
1-
1.
0&
1>
0<
1?
1E
0=
0G
1F
01
10
0%
1$
#74000
0!
0-
0.
1&
#74500
1!
1-
1.
0&
1@
0>
1A
0?
1G
11
1%
#75000
0!
0-
0.
1&
#75500
1!
1-
1.
0&
1B
0@
1C
13
0A
0F
0G
00
01
0$
0%
1D
1/
1#
#76000
0!
0-
0.
1&
#76500
1!
1-
1.
0&
0B
14
03
0E
15
1F
10
1$
1G
0F
11
00
1%
0$
#77000
0!
0-
0.
1&
#77500
1!
1-
1.
0&
16
04
17
1E
05
0G
1F
01
10
0%
1$
#78000
0!
0-
0.
1&
#78500
1!
1-
1.
0&
18
06
09
07
1G
11
1%
#79000
0!
0-
0.
1&
#79500
1!
1-
1.
0&
0:
08
1;
0C
19
0F
0G
00
01
0$
0%
0D
0/
0#
#80000
0!
0-
0.
1&
#80500
1!
1-
1.
0&
1<
1:
0E
1=
0;
1F
10
1$
1G
0F
11
00
1%
0$
#81000
0!
0-
0.
1&
#81500
1!
1-
1.
0&
1>
0<
1?
1E
0=
0G
1F
01
10
0%
1$
#82000
0!
0-
0.
1&
#82500
1!
1-
1.
0&
1@
0>
1A
0?
1G
11
1%
#83000
0!
0-
0.
1&
#83500
1!
1-
1.
0&
1B
0@
1C
13
0A
0F
0G
00
01
0$
0%
1D
1/
1#
#84000
0!
0-
0.
1&
#84500
1!
1-
1.
0&
0B
14
03
0E
15
1F
10
1$
1G
0F
11
00
1%
0$
#85000
0!
0-
0.
1&
#85500
1!
1-
1.
0&
16
04
17
1E
05
0G
1F
01
10
0%
1$
#86000
0!
0-
0.
1&
#86500
1!
1-
1.
0&
18
06
09
07
1G
11
1%
#87000
0!
0-
0.
1&
#87500
1!
1-
1.
0&
0:
08
1;
0C
19
0F
0G
00
01
0$
0%
0D
0/
0#
#88000
0!
0-
0.
1&
#88500
1!
1-
1.
0&
1<
1:
0E
1=
0;
1F
10
1$
1G
0F
11
00
1%
0$
#89000
0!
0-
0.
1&
#89500
1!
1-
1.
0&
1>
0<
1?
1E
0=
0G
1F
01
10
0%
1$
#90000
0!
0-
0.
1&
#90500
1!
1-
1.
0&
1@
0>
1A
0?
1G
11
1%
#91000
0!
0-
0.
1&
#91500
1!
1-
1.
0&
1B
0@
1C
13
0A
0F
0G
00
01
0$
0%
1D
1/
1#
#92000
0!
0-
0.
1&
#92500
1!
1-
1.
0&
0B
14
03
0E
15
1F
10
1$
1G
0F
11
00
1%
0$
#93000
0!
0-
0.
1&
#93500
1!
1-
1.
0&
16
04
17
1E
05
0G
1F
01
10
0%
1$
#94000
0!
0-
0.
1&
#94500
1!
1-
1.
0&
18
06
09
07
1G
11
1%
#95000
0!
0-
0.
1&
#95500
1!
1-
1.
0&
0:
08
1;
0C
19
0F
0G
00
01
0$
0%
0D
0/
0#
#96000
0!
0-
0.
1&
#96500
1!
1-
1.
0&
1<
1:
0E
1=
0;
1F
10
1$
1G
0F
11
00
1%
0$
#97000
0!
0-
0.
1&
#97500
1!
1-
1.
0&
1>
0<
1?
1E
0=
0G
1F
01
10
0%
1$
#98000
0!
0-
0.
1&
#98500
1!
1-
1.
0&
1@
0>
1A
0?
1G
11
1%
#99000
0!
0-
0.
1&
#99500
1!
1-
1.
0&
1B
0@
1C
13
0A
0F
0G
00
01
0$
0%
1D
1/
1#
#100000
0!
0-
0.
1&
#100500
1!
1-
1.
0&
0B
14
03
0E
15
1F
10
1$
1G
0F
11
00
1%
0$
#101000
0!
0-
0.
1&
#101500
1!
1-
1.
0&
16
04
17
1E
05
0G
1F
01
10
0%
1$
#102000
0!
0-
0.
1&
#102500
1!
1-
1.
0&
18
06
09
07
1G
11
1%
#103000
0!
0-
0.
1&
#103500
1!
1-
1.
0&
0:
08
1;
0C
19
0F
0G
00
01
0$
0%
0D
0/
0#
#104000
0!
0-
0.
1&
#104500
1!
1-
1.
0&
1<
1:
0E
1=
0;
1F
10
1$
1G
0F
11
00
1%
0$
#105000
0!
0-
0.
1&
#105500
1!
1-
1.
0&
1>
0<
1?
1E
0=
0G
1F
01
10
0%
1$
#106000
0!
0-
0.
1&
#106500
1!
1-
1.
0&
1@
0>
1A
0?
1G
11
1%
#107000
0!
0-
0.
1&
#107500
1!
1-
1.
0&
1B
0@
1C
13
0A
0F
0G
00
01
0$
0%
1D
1/
1#
#108000
0!
0-
0.
1&
#108500
1!
1-
1.
0&
0B
14
03
0E
15
1F
10
1$
1G
0F
11
00
1%
0$
#109000
0!
0-
0.
1&
#109500
1!
1-
1.
0&
16
04
17
1E
05
0G
1F
01
10
0%
1$
#110000
0!
0-
0.
1&
#110500
1!
1-
1.
0&
18
06
09
07
1G
11
1%
#111000
0!
0-
0.
1&
#111500
1!
1-
1.
0&
0:
08
1;
0C
19
0F
0G
00
01
0$
0%
0D
0/
0#
#112000
0!
0-
0.
1&
#112500
1!
1-
1.
0&
1<
1:
0E
1=
0;
1F
10
1$
1G
0F
11
00
1%
0$
#113000
0!
0-
0.
1&
#113500
1!
1-
1.
0&
1>
0<
1?
1E
0=
0G
1F
01
10
0%
1$
#114000
0!
0-
0.
1&
#114500
1!
1-
1.
0&
1@
0>
1A
0?
1G
11
1%
#115000
0!
0-
0.
1&
#115500
1!
1-
1.
0&
1B
0@
1C
13
0A
0F
0G
00
01
0$
0%
1D
1/
1#
#116000
0!
0-
0.
1&
#116500
1!
1-
1.
0&
0B
14
03
0E
15
1F
10
1$
1G
0F
11
00
1%
0$
#117000
0!
0-
0.
1&
#117500
1!
1-
1.
0&
16
04
17
1E
05
0G
1F
01
10
0%
1$
#118000
0!
0-
0.
1&
#118500
1!
1-
1.
0&
18
06
09
07
1G
11
1%
#119000
0!
0-
0.
1&
#119500
1!
1-
1.
0&
0:
08
1;
0C
19
0F
0G
00
01
0$
0%
0D
0/
0#
#120000
0!
0-
0.
1&
#120500
1!
1-
1.
0&
1<
1:
0E
1=
0;
1F
10
1$
1G
0F
11
00
1%
0$
#121000
0!
0-
0.
1&
#121500
1!
1-
1.
0&
1>
0<
1?
1E
0=
0G
1F
01
10
0%
1$
#122000
0!
0-
0.
1&
#122500
1!
1-
1.
0&
1@
0>
1A
0?
1G
11
1%
#123000
0!
0-
0.
1&
#123500
1!
1-
1.
0&
1B
0@
1C
13
0A
0F
0G
00
01
0$
0%
1D
1/
1#
#124000
0!
0-
0.
1&
#124500
1!
1-
1.
0&
0B
14
03
0E
15
1F
10
1$
1G
0F
11
00
1%
0$
#125000
0!
0-
0.
1&
#125500
1!
1-
1.
0&
16
04
17
1E
05
0G
1F
01
10
0%
1$
#126000
0!
0-
0.
1&
#126500
1!
1-
1.
0&
18
06
09
07
1G
11
1%
#127000
0!
0-
0.
1&
#127500
1!
1-
1.
0&
0:
08
1;
0C
19
0F
0G
00
01
0$
0%
0D
0/
0#
#128000
0!
0-
0.
1&
#128500
1!
1-
1.
0&
1<
1:
0E
1=
0;
1F
10
1$
1G
0F
11
00
1%
0$
#129000
0!
0-
0.
1&
#129500
1!
1-
1.
0&
1>
0<
1?
1E
0=
0G
1F
01
10
0%
1$
#130000
0!
0-
0.
1&
#130500
1!
1-
1.
0&
1@
0>
1A
0?
1G
11
1%
#131000
0!
0-
0.
1&
#131500
1!
1-
1.
0&
1B
0@
1C
13
0A
0F
0G
00
01
0$
0%
1D
1/
1#
#132000
0!
0-
0.
1&
#132500
1!
1-
1.
0&
0B
14
03
0E
15
1F
10
1$
1G
0F
11
00
1%
0$
#133000
0!
0-
0.
1&
#133500
1!
1-
1.
0&
16
04
17
1E
05
0G
1F
01
10
0%
1$
#134000
0!
0-
0.
1&
#134500
1!
1-
1.
0&
18
06
09
07
1G
11
1%
#135000
0!
0-
0.
1&
#135500
1!
1-
1.
0&
0:
08
1;
0C
19
0F
0G
00
01
0$
0%
0D
0/
0#
#136000
0!
0-
0.
1&
#136500
1!
1-
1.
0&
1<
1:
0E
1=
0;
1F
10
1$
1G
0F
11
00
1%
0$
#137000
0!
0-
0.
1&
#137500
1!
1-
1.
0&
1>
0<
1?
1E
0=
0G
1F
01
10
0%
1$
#138000
0!
0-
0.
1&
#138500
1!
1-
1.
0&
1@
0>
1A
0?
1G
11
1%
#139000
0!
0-
0.
1&
#139500
1!
1-
1.
0&
1B
0@
1C
13
0A
0F
0G
00
01
0$
0%
1D
1/
1#
#140000
0!
0-
0.
1&
#140500
1!
1-
1.
0&
0B
14
03
0E
15
1F
10
1$
1G
0F
11
00
1%
0$
#141000
0!
0-
0.
1&
#141500
1!
1-
1.
0&
16
04
17
1E
05
0G
1F
01
10
0%
1$
#142000
0!
0-
0.
1&
#142500
1!
1-
1.
0&
18
06
09
07
1G
11
1%
#143000
0!
0-
0.
1&
#143500
1!
1-
1.
0&
0:
08
1;
0C
19
0F
0G
00
01
0$
0%
0D
0/
0#
#144000
0!
0-
0.
1&
#144500
1!
1-
1.
0&
1<
1:
0E
1=
0;
1F
10
1$
1G
0F
11
00
1%
0$
#145000
0!
0-
0.
1&
#145500
1!
1-
1.
0&
1>
0<
1?
1E
0=
0G
1F
01
10
0%
1$
#146000
0!
0-
0.
1&
#146500
1!
1-
1.
0&
1@
0>
1A
0?
1G
11
1%
#147000
0!
0-
0.
1&
#147500
1!
1-
1.
0&
1B
0@
1C
13
0A
0F
0G
00
01
0$
0%
1D
1/
1#
#148000
0!
0-
0.
1&
#148500
1!
1-
1.
0&
0B
14
03
0E
15
1F
10
1$
1G
0F
11
00
1%
0$
#149000
0!
0-
0.
1&
#149500
1!
1-
1.
0&
16
04
17
1E
05
0G
1F
01
10
0%
1$
#150000
0!
0-
0.
1&
#150500
1!
1-
1.
0&
18
06
09
07
1G
11
1%
#151000
0!
0-
0.
1&
#151500
1!
1-
1.
0&
0:
08
1;
0C
19
0F
0G
00
01
0$
0%
0D
0/
0#
#152000
0!
0-
0.
1&
#152500
1!
1-
1.
0&
1<
1:
0E
1=
0;
1F
10
1$
1G
0F
11
00
1%
0$
#153000
0!
0-
0.
1&
#153500
1!
1-
1.
0&
1>
0<
1?
1E
0=
0G
1F
01
10
0%
1$
#154000
0!
0-
0.
1&
#154500
1!
1-
1.
0&
1@
0>
1A
0?
1G
11
1%
#155000
0!
0-
0.
1&
#155500
1!
1-
1.
0&
1B
0@
1C
13
0A
0F
0G
00
01
0$
0%
1D
1/
1#
#156000
0!
0-
0.
1&
#156500
1!
1-
1.
0&
0B
14
03
0E
15
1F
10
1$
1G
0F
11
00
1%
0$
#157000
0!
0-
0.
1&
#157500
1!
1-
1.
0&
16
04
17
1E
05
0G
1F
01
10
0%
1$
#158000
0!
0-
0.
1&
#158500
1!
1-
1.
0&
18
06
09
07
1G
11
1%
#159000
0!
0-
0.
1&
#159500
1!
1-
1.
0&
0:
08
1;
0C
19
0F
0G
00
01
0$
0%
0D
0/
0#
#160000
0!
0-
0.
1&
#160500
1!
1-
1.
0&
1<
1:
0E
1=
0;
1F
10
1$
1G
0F
11
00
1%
0$
#161000
0!
0-
0.
1&
#161500
1!
1-
1.
0&
1>
0<
1?
1E
0=
0G
1F
01
10
0%
1$
#162000
0!
0-
0.
1&
#162500
1!
1-
1.
0&
1@
0>
1A
0?
1G
11
1%
#163000
0!
0-
0.
1&
#163500
1!
1-
1.
0&
1B
0@
1C
13
0A
0F
0G
00
01
0$
0%
1D
1/
1#
#164000
0!
0-
0.
1&
#164500
1!
1-
1.
0&
0B
14
03
0E
15
1F
10
1$
1G
0F
11
00
1%
0$
#165000
0!
0-
0.
1&
#165500
1!
1-
1.
0&
16
04
17
1E
05
0G
1F
01
10
0%
1$
#166000
0!
0-
0.
1&
#166500
1!
1-
1.
0&
18
06
09
07
1G
11
1%
#167000
0!
0-
0.
1&
#167500
1!
1-
1.
0&
0:
08
1;
0C
19
0F
0G
00
01
0$
0%
0D
0/
0#
#168000
0!
0-
0.
1&
#168500
1!
1-
1.
0&
1<
1:
0E
1=
0;
1F
10
1$
1G
0F
11
00
1%
0$
#169000
0!
0-
0.
1&
#169500
1!
1-
1.
0&
1>
0<
1?
1E
0=
0G
1F
01
10
0%
1$
#170000
0!
0-
0.
1&
#170500
1!
1-
1.
0&
1@
0>
1A
0?
1G
11
1%
#171000
0!
0-
0.
1&
#171500
1!
1-
1.
0&
1B
0@
1C
13
0A
0F
0G
00
01
0$
0%
1D
1/
1#
#172000
0!
0-
0.
1&
#172500
1!
1-
1.
0&
0B
14
03
0E
15
1F
10
1$
1G
0F
11
00
1%
0$
#173000
0!
0-
0.
1&
#173500
1!
1-
1.
0&
16
04
17
1E
05
0G
1F
01
10
0%
1$
#174000
0!
0-
0.
1&
#174500
1!
1-
1.
0&
18
06
09
07
1G
11
1%
#175000
0!
0-
0.
1&
#175500
1!
1-
1.
0&
0:
08
1;
0C
19
0F
0G
00
01
0$
0%
0D
0/
0#
#176000
0!
0-
0.
1&
#176500
1!
1-
1.
0&
1<
1:
0E
1=
0;
1F
10
1$
1G
0F
11
00
1%
0$
#177000
0!
0-
0.
1&
#177500
1!
1-
1.
0&
1>
0<
1?
1E
0=
0G
1F
01
10
0%
1$
#178000
0!
0-
0.
1&
#178500
1!
1-
1.
0&
1@
0>
1A
0?
1G
11
1%
#179000
0!
0-
0.
1&
#179500
1!
1-
1.
0&
1B
0@
1C
13
0A
0F
0G
00
01
0$
0%
1D
1/
1#
#180000
0!
0-
0.
1&
#180500
1!
1-
1.
0&
0B
14
03
0E
15
1F
10
1$
1G
0F
11
00
1%
0$
#181000
0!
0-
0.
1&
#181500
1!
1-
1.
0&
16
04
17
1E
05
0G
1F
01
10
0%
1$
#182000
0!
0-
0.
1&
#182500
1!
1-
1.
0&
18
06
09
07
1G
11
1%
#183000
0!
0-
0.
1&
#183500
1!
1-
1.
0&
0:
08
1;
0C
19
0F
0G
00
01
0$
0%
0D
0/
0#
#184000
0!
0-
0.
1&
#184500
1!
1-
1.
0&
1<
1:
0E
1=
0;
1F
10
1$
1G
0F
11
00
1%
0$
#185000
0!
0-
0.
1&
#185500
1!
1-
1.
0&
1>
0<
1?
1E
0=
0G
1F
01
10
0%
1$
#186000
0!
0-
0.
1&
#186500
1!
1-
1.
0&
1@
0>
1A
0?
1G
11
1%
#187000
0!
0-
0.
1&
#187500
1!
1-
1.
0&
1B
0@
1C
13
0A
0F
0G
00
01
0$
0%
1D
1/
1#
#188000
0!
0-
0.
1&
#188500
1!
1-
1.
0&
0B
14
03
0E
15
1F
10
1$
1G
0F
11
00
1%
0$
#189000
0!
0-
0.
1&
#189500
1!
1-
1.
0&
16
04
17
1E
05
0G
1F
01
10
0%
1$
#190000
0!
0-
0.
1&
#190500
1!
1-
1.
0&
18
06
09
07
1G
11
1%
#191000
0!
0-
0.
1&
#191500
1!
1-
1.
0&
0:
08
1;
0C
19
0F
0G
00
01
0$
0%
0D
0/
0#
#192000
0!
0-
0.
1&
#192500
1!
1-
1.
0&
1<
1:
0E
1=
0;
1F
10
1$
1G
0F
11
00
1%
0$
#193000
0!
0-
0.
1&
#193500
1!
1-
1.
0&
1>
0<
1?
1E
0=
0G
1F
01
10
0%
1$
#194000
0!
0-
0.
1&
#194500
1!
1-
1.
0&
1@
0>
1A
0?
1G
11
1%
#195000
0!
0-
0.
1&
#195500
1!
1-
1.
0&
1B
0@
1C
13
0A
0F
0G
00
01
0$
0%
1D
1/
1#
#196000
0!
0-
0.
1&
#196500
1!
1-
1.
0&
0B
14
03
0E
15
1F
10
1$
1G
0F
11
00
1%
0$
#197000
0!
0-
0.
1&
#197500
1!
1-
1.
0&
16
04
17
1E
05
0G
1F
01
10
0%
1$
#198000
0!
0-
0.
1&
#198500
1!
1-
1.
0&
18
06
09
07
1G
11
1%
#199000
0!
0-
0.
1&
#199500
1!
1-
1.
0&
0:
08
1;
0C
19
0F
0G
00
01
0$
0%
0D
0/
0#
#200000
0!
0-
0.
1&
#200500
1!
1-
1.
0&
1<
1:
0E
1=
0;
1F
10
1$
1G
0F
11
00
1%
0$
#201000
0!
0-
0.
1&
#201500
1!
1-
1.
0&
1>
0<
1?
1E
0=
0G
1F
01
10
0%
1$
#202000
0!
0-
0.
1&
#202500
1!
1-
1.
0&
1@
0>
1A
0?
1G
11
1%
#203000
0!
0-
0.
1&
#203500
1!
1-
1.
0&
1B
0@
1C
13
0A
0F
0G
00
01
0$
0%
1D
1/
1#
#204000
0!
0-
0.
1&
#204500
1!
1-
1.
0&
0B
14
03
0E
15
1F
10
1$
1G
0F
11
00
1%
0$
#205000
0!
0-
0.
1&
#205500
1!
1-
1.
0&
16
04
17
1E
05
0G
1F
01
10
0%
1$
#206000
0!
0-
0.
1&
#206500
1!
1-
1.
0&
18
06
09
07
1G
11
1%
#207000
0!
0-
0.
1&
#207500
1!
1-
1.
0&
0:
08
1;
0C
19
0F
0G
00
01
0$
0%
0D
0/
0#
#208000
0!
0-
0.
1&
#208500
1!
1-
1.
0&
1<
1:
0E
1=
0;
1F
10
1$
1G
0F
11
00
1%
0$
#209000
0!
0-
0.
1&
#209500
1!
1-
1.
0&
1>
0<
1?
1E
0=
0G
1F
01
10
0%
1$
#210000
0!
0-
0.
1&
#210500
1!
1-
1.
0&
1@
0>
1A
0?
1G
11
1%
#211000
0!
0-
0.
1&
#211500
1!
1-
1.
0&
1B
0@
1C
13
0A
0F
0G
00
01
0$
0%
1D
1/
1#
#212000
0!
0-
0.
1&
#212500
1!
1-
1.
0&
0B
14
03
0E
15
1F
10
1$
1G
0F
11
00
1%
0$
#213000
0!
0-
0.
1&
#213500
1!
1-
1.
0&
16
04
17
1E
05
0G
1F
01
10
0%
1$
#214000
0!
0-
0.
1&
#214500
1!
1-
1.
0&
18
06
09
07
1G
11
1%
#215000
0!
0-
0.
1&
#215500
1!
1-
1.
0&
0:
08
1;
0C
19
0F
0G
00
01
0$
0%
0D
0/
0#
#216000
0!
0-
0.
1&
#216500
1!
1-
1.
0&
1<
1:
0E
1=
0;
1F
10
1$
1G
0F
11
00
1%
0$
#217000
0!
0-
0.
1&
#217500
1!
1-
1.
0&
1>
0<
1?
1E
0=
0G
1F
01
10
0%
1$
#218000
0!
0-
0.
1&
#218500
1!
1-
1.
0&
1@
0>
1A
0?
1G
11
1%
#219000
0!
0-
0.
1&
#219500
1!
1-
1.
0&
1B
0@
1C
13
0A
0F
0G
00
01
0$
0%
1D
1/
1#
#220000
0!
0-
0.
1&
#220500
1!
1-
1.
0&
0B
14
03
0E
15
1F
10
1$
1G
0F
11
00
1%
0$
#221000
0!
0-
0.
1&
#221500
1!
1-
1.
0&
16
04
17
1E
05
0G
1F
01
10
0%
1$
#222000
0!
0-
0.
1&
