Laboratorio/Practicas/simulation/qsim/practicas.msim.vcd
$comment
	File created using the following command:
		vcd file practicas.msim.vcd -direction
$end
$date
	Tue Apr 16 21:04:27 2024
$end
$version
	ModelSim Version 10.1d
$end
$timescale
	1ps
$end
$scope module seqdiv_vlg_vec_tst $end
$var reg 1 ! ck $end
$var wire 1 " sQ [9] $end
$var wire 1 # sQ [8] $end
$var wire 1 $ sQ [7] $end
$var wire 1 % sQ [6] $end
$var wire 1 & sQ [5] $end
$var wire 1 ' sQ [4] $end
$var wire 1 ( sQ [3] $end
$var wire 1 ) sQ [2] $end
$var wire 1 * sQ [1] $end
$var wire 1 + sQ [0] $end
$var wire 1 , sampler $end
$scope module i1 $end
$var wire 1 - gnd $end
$var wire 1 . vcc $end
$var wire 1 / unknown $end
$var tri1 1 0 devclrn $end
$var tri1 1 1 devpor $end
$var tri1 1 2 devoe $end
$var wire 1 3 dv1|Add0~0_combout $end
$var wire 1 4 dv1|Add0~1 $end
$var wire 1 5 dv1|Add0~2_combout $end
$var wire 1 6 dv1|Add0~3 $end
$var wire 1 7 dv1|Add0~4_combout $end
$var wire 1 8 dv1|Add0~5 $end
$var wire 1 9 dv1|Add0~6_combout $end
$var wire 1 : dv1|Add0~7 $end
$var wire 1 ; dv1|Add0~8_combout $end
$var wire 1 < dv1|Add0~9 $end
$var wire 1 = dv1|Add0~10_combout $end
$var wire 1 > dv1|Add0~11 $end
$var wire 1 ? dv1|Add0~12_combout $end
$var wire 1 @ dv1|Add0~13 $end
$var wire 1 A dv1|Add0~14_combout $end
$var wire 1 B dv1|Add0~15 $end
$var wire 1 C dv1|Add0~16_combout $end
$var wire 1 D dv1|Add0~17 $end
$var wire 1 E dv1|Add0~18_combout $end
$var wire 1 F dv1|Add0~19 $end
$var wire 1 G dv1|Add0~20_combout $end
$var wire 1 H dv1|Add0~21 $end
$var wire 1 I dv1|Add0~22_combout $end
$var wire 1 J dv1|Add0~23 $end
$var wire 1 K dv1|Add0~24_combout $end
$var wire 1 L dv1|Add0~25 $end
$var wire 1 M dv1|Add0~26_combout $end
$var wire 1 N dv1|Add0~27 $end
$var wire 1 O dv1|Add0~28_combout $end
$var wire 1 P dv1|Add0~29 $end
$var wire 1 Q dv1|Add0~30_combout $end
$var wire 1 R dv1|Add0~31 $end
$var wire 1 S dv1|Add0~32_combout $end
$var wire 1 T dv1|Add0~33 $end
$var wire 1 U dv1|Add0~34_combout $end
$var wire 1 V dv1|Add0~35 $end
$var wire 1 W dv1|Add0~36_combout $end
$var wire 1 X dv1|Add0~37 $end
$var wire 1 Y dv1|Add0~38_combout $end
$var wire 1 Z dv1|Add0~39 $end
$var wire 1 [ dv1|Add0~40_combout $end
$var wire 1 \ dv1|Add0~41 $end
$var wire 1 ] dv1|Add0~42_combout $end
$var wire 1 ^ dv1|Equal0~0_combout $end
$var wire 1 _ dv1|Equal0~1_combout $end
$var wire 1 ` dv1|Equal0~2_combout $end
$var wire 1 a dv1|Equal0~3_combout $end
$var wire 1 b dv1|Equal0~4_combout $end
$var wire 1 c dv1|Equal0~5_combout $end
$var wire 1 d dv1|Equal0~6_combout $end
$var wire 1 e dv1|rckd~0_combout $end
$var wire 1 f dv1|rc~0_combout $end
$var wire 1 g dv1|rc~1_combout $end
$var wire 1 h dv1|rc~2_combout $end
$var wire 1 i dv1|rc~3_combout $end
$var wire 1 j dv1|rc~4_combout $end
$var wire 1 k dv1|rc~5_combout $end
$var wire 1 l dv1|rc~6_combout $end
$var wire 1 m dv1|rc~7_combout $end
$var wire 1 n dv1|rc~8_combout $end
$var wire 1 o dv1|rc~9_combout $end
$var wire 1 p dv1|rc~10_combout $end
$var wire 1 q dv1|rc~11_combout $end
$var wire 1 r dv1|rc~12_combout $end
$var wire 1 s dv1|rc~13_combout $end
$var wire 1 t dv1|rc~14_combout $end
$var wire 1 u dv1|rc~15_combout $end
$var wire 1 v dv1|rc~16_combout $end
$var wire 1 w dv1|rc~17_combout $end
$var wire 1 x dv1|rc~18_combout $end
$var wire 1 y dv1|rc~19_combout $end
$var wire 1 z dv1|rc~20_combout $end
$var wire 1 { ck~input_o $end
$var wire 1 | ck~inputclkctrl_outclk $end
$var wire 1 } sQ[0]~output_o $end
$var wire 1 ~ sQ[1]~output_o $end
$var wire 1 !! sQ[2]~output_o $end
$var wire 1 "! sQ[3]~output_o $end
$var wire 1 #! sQ[4]~output_o $end
$var wire 1 $! sQ[5]~output_o $end
$var wire 1 %! sQ[6]~output_o $end
$var wire 1 &! sQ[7]~output_o $end
$var wire 1 '! sQ[8]~output_o $end
$var wire 1 (! sQ[9]~output_o $end
$var wire 1 )! dv1|rckd~feeder_combout $end
$var wire 1 *! dv1|rckd~q $end
$var wire 1 +! dv1|rckd~clkctrl_outclk $end
$var wire 1 ,! sq1|Ff~17_combout $end
$var wire 1 -! sq1|Ff~16_combout $end
$var wire 1 .! sq1|Ff~13_combout $end
$var wire 1 /! sq1|Ff~3_combout $end
$var wire 1 0! sq1|Ff~14_combout $end
$var wire 1 1! sq1|Ff[13]~0_combout $end
$var wire 1 2! sq1|Ff~15_combout $end
$var wire 1 3! sq1|Ff[6]~6_combout $end
$var wire 1 4! sq1|Ff~8_combout $end
$var wire 1 5! sq1|Ff~7_combout $end
$var wire 1 6! sq1|Ff~5_combout $end
$var wire 1 7! sq1|Ff~4_combout $end
$var wire 1 8! sq1|Ff~18_combout $end
$var wire 1 9! sq1|Ff~10_combout $end
$var wire 1 :! sq1|Ff~9_combout $end
$var wire 1 ;! sq1|Ff~11_combout $end
$var wire 1 <! sq1|Ff~12_combout $end
$var wire 1 =! dv1|rc [21] $end
$var wire 1 >! dv1|rc [20] $end
$var wire 1 ?! dv1|rc [19] $end
$var wire 1 @! dv1|rc [18] $end
$var wire 1 A! dv1|rc [17] $end
$var wire 1 B! dv1|rc [16] $end
$var wire 1 C! dv1|rc [15] $end
$var wire 1 D! dv1|rc [14] $end
$var wire 1 E! dv1|rc [13] $end
$var wire 1 F! dv1|rc [12] $end
$var wire 1 G! dv1|rc [11] $end
$var wire 1 H! dv1|rc [10] $end
$var wire 1 I! dv1|rc [9] $end
$var wire 1 J! dv1|rc [8] $end
$var wire 1 K! dv1|rc [7] $end
$var wire 1 L! dv1|rc [6] $end
$var wire 1 M! dv1|rc [5] $end
$var wire 1 N! dv1|rc [4] $end
$var wire 1 O! dv1|rc [3] $end
$var wire 1 P! dv1|rc [2] $end
$var wire 1 Q! dv1|rc [1] $end
$var wire 1 R! dv1|rc [0] $end
$var wire 1 S! sq1|Ff [16] $end
$var wire 1 T! sq1|Ff [15] $end
$var wire 1 U! sq1|Ff [14] $end
$var wire 1 V! sq1|Ff [13] $end
$var wire 1 W! sq1|Ff [12] $end
$var wire 1 X! sq1|Ff [11] $end
$var wire 1 Y! sq1|Ff [10] $end
$var wire 1 Z! sq1|Ff [9] $end
$var wire 1 [! sq1|Ff [8] $end
$var wire 1 \! sq1|Ff [7] $end
$var wire 1 ]! sq1|Ff [6] $end
$var wire 1 ^! sq1|Ff [5] $end
$var wire 1 _! sq1|Ff [4] $end
$var wire 1 `! sq1|Ff [3] $end
$var wire 1 a! sq1|Ff [2] $end
$var wire 1 b! sq1|Ff [1] $end
$var wire 1 c! sq1|Ff [0] $end
$upscope $end
$upscope $end
$enddefinitions $end
#0
$dumpvars
0!
1+
0*
0)
0(
0'
0&
0%
0$
0#
0"
x,
0-
1.
x/
10
11
12
13
04
15
16
17
08
19
1:
1;
0<
1=
1>
1?
0@
1A
1B
1C
0D
1E
1F
1G
0H
1I
1J
1K
0L
1M
1N
1O
0P
1Q
1R
1S
0T
1U
1V
1W
0X
1Y
1Z
1[
0\
1]
1^
1_
1`
1a
1b
1c
1d
1e
0f
0g
0h
0i
0j
0k
0l
0m
0n
0o
0p
0q
0r
0s
0t
0u
0v
0w
0x
0y
0z
0{
0|
1}
0~
0!!
0"!
0#!
0$!
0%!
0&!
0'!
0(!
1)!
0*!
0+!
0,!
0-!
0.!
1/!
00!
01!
02!
03!
04!
05!
16!
07!
18!
09!
0:!
0;!
0<!
0R!
0Q!
0P!
0O!
0N!
0M!
0L!
0K!
0J!
0I!
0H!
0G!
0F!
0E!
0D!
0C!
0B!
0A!
0@!
0?!
0>!
0=!
zc!
zb!
za!
0`!
0_!
0^!
0]!
0\!
0[!
0Z!
0Y!
0X!
0W!
0V!
0U!
zT!
zS!
$end
#500
1!
1{
1|
0,
#1000
0!
0{
0|
1,
1P!
1*!
1+!
0_
18
07
0e
0b
0:
09
0)!
0d
1<
0;
1z
1y
1x
1w
1v
1u
1t
1s
1r
1q
1p
1o
1n
1m
1l
1k
1j
1g
1f
1e
0>
0=
1)!
1@
0?
0g
0B
0A
0f
1D
0C
0l
0F
0E
0m
1H
0G
0n
0J
0I
0o
1L
0K
0p
0N
0M
0q
1P
0O
0r
0R
0Q
0s
1T
0S
0t
0V
0U
0u
1X
0W
0v
0Z
0Y
0w
1\
0[
0x
0]
0y
0z
#1500
1!
1{
1|
0,
#2000
0!
0{
0|
1,
0P!
1Q!
1R!
08
17
06
05
14
03
1:
19
18
07
0j
15
0k
0<
1;
1i
0:
09
1j
1>
1=
1h
1<
0;
0i
0@
1?
1g
0>
0=
0h
1B
1A
1f
1@
0?
0g
0D
1C
1l
0B
0A
0f
1F
1E
1m
1D
0C
0l
0H
1G
1n
0F
0E
0m
1J
1I
1o
1H
0G
0n
0L
1K
1p
0J
0I
0o
1N
1M
1q
1L
0K
0p
0P
1O
1r
0N
0M
0q
1R
1Q
1s
1P
0O
0r
0T
1S
1t
0R
0Q
0s
1V
1U
1u
1T
0S
0t
0X
1W
1v
0V
0U
0u
1Z
1Y
1w
1X
0W
0v
0\
1[
1x
0Z
0Y
0w
1]
1y
1\
0[
0x
1z
0]
0y
0z
#2500
1!
1{
1|
0,
#3000
0!
0{
0|
1,
0R!
04
13
05
1k
0j
#3500
1!
1{
1|
0,
#4000
0!
0{
0|
1,
0Q!
1R!
16
15
14
03
08
17
1j
06
05
0k
1:
19
18
07
0j
0<
1;
1i
0:
09
1>
1=
1h
1<
0;
0i
0@
1?
1g
0>
0=
0h
1B
1A
1f
1@
0?
0g
0D
1C
1l
0B
0A
0f
1F
1E
1m
1D
0C
0l
0H
1G
1n
0F
0E
0m
1J
1I
1o
1H
0G
0n
0L
1K
1p
0J
0I
0o
1N
1M
1q
1L
0K
0p
0P
1O
1r
0N
0M
0q
1R
1Q
1s
1P
0O
0r
0T
1S
1t
0R
0Q
0s
1V
1U
1u
1T
0S
0t
0X
1W
1v
0V
0U
0u
1Z
1Y
1w
1X
0W
0v
0\
1[
1x
0Z
0Y
0w
1]
1y
1\
0[
0x
1z
0]
0y
0z
#4500
1!
1{
1|
0,
#5000
0!
0{
0|
1,
0R!
1_
04
13
1b
16
15
1k
1d
08
17
1j
0k
0j
0e
1:
19
0)!
0<
1;
1>
1=
0@
1?
1B
1A
0D
1C
1F
1E
0H
1G
1J
1I
0L
1K
1N
1M
0P
1O
1R
1Q
0T
1S
1V
1U
0X
1W
1Z
1Y
0\
1[
1]
#5500
1!
1{
1|
0,
#6000
0!
0{
0|
1,
1P!
0*!
0+!
0_
18
07
1e
0b
0:
09
1)!
0d
1<
0;
1z
1y
1x
1w
1v
1u
1t
1s
1r
1q
1p
1o
1n
1m
1l
1k
1j
1g
1f
0e
0>
0=
0)!
1@
0?
0g
0B
0A
0f
1D
0C
0l
0F
0E
0m
1H
0G
0n
0J
0I
0o
1L
0K
0p
0N
0M
0q
1P
0O
0r
0R
0Q
0s
1T
0S
0t
0V
0U
0u
1X
0W
0v
0Z
0Y
0w
1\
0[
0x
0]
0y
0z
1_!
1^!
06!
15!
0}
1~
0+
1*
#6500
1!
1{
1|
0,
#7000
0!
0{
0|
1,
0P!
1Q!
1R!
08
17
06
05
14
03
1:
19
18
07
0j
15
0k
0<
1;
1i
0:
09
1j
1>
1=
1h
1<
0;
0i
0@
1?
1g
0>
0=
0h
1B
1A
1f
1@
0?
0g
0D
1C
1l
0B
0A
0f
1F
1E
1m
1D
0C
0l
0H
1G
1n
0F
0E
0m
1J
1I
1o
1H
0G
0n
0L
1K
1p
0J
0I
0o
1N
1M
1q
1L
0K
0p
0P
1O
1r
0N
0M
0q
1R
1Q
1s
1P
0O
0r
0T
1S
1t
0R
0Q
0s
1V
1U
1u
1T
0S
0t
0X
1W
1v
0V
0U
0u
1Z
1Y
1w
1X
0W
0v
0\
1[
1x
0Z
0Y
0w
1]
1y
1\
0[
0x
1z
0]
0y
0z
#7500
1!
1{
1|
0,
#8000
0!
0{
0|
1,
0R!
04
13
05
1k
0j
#8500
1!
1{
1|
0,
#9000
0!
0{
0|
1,
0Q!
1R!
16
15
14
03
08
17
1j
06
05
0k
1:
19
18
07
0j
0<
1;
1i
0:
09
1>
1=
1h
1<
0;
0i
0@
1?
1g
0>
0=
0h
1B
1A
1f
1@
0?
0g
0D
1C
1l
0B
0A
0f
1F
1E
1m
1D
0C
0l
0H
1G
1n
0F
0E
0m
1J
1I
1o
1H
0G
0n
0L
1K
1p
0J
0I
0o
1N
1M
1q
1L
0K
0p
0P
1O
1r
0N
0M
0q
1R
1Q
1s
1P
0O
0r
0T
1S
1t
0R
0Q
0s
1V
1U
1u
1T
0S
0t
0X
1W
1v
0V
0U
0u
1Z
1Y
1w
1X
0W
0v
0\
1[
1x
0Z
0Y
0w
1]
1y
1\
0[
0x
1z
0]
0y
0z
#9500
1!
1{
1|
0,
#10000
0!
0{
0|
1,
0R!
1_
04
13
1b
16
15
1k
1d
08
17
1j
0k
0j
1e
1:
19
1)!
0<
1;
1>
1=
0@
1?
1B
1A
0D
1C
1F
1E
0H
1G
1J
1I
0L
1K
1N
1M
0P
1O
1R
1Q
0T
1S
1V
1U
0X
1W
1Z
1Y
0\
1[
1]
#10500
1!
1{
1|
0,
#11000
0!
0{
0|
1,
1P!
1*!
1+!
0_
18
07
0e
0b
0:
09
0)!
0d
1<
0;
1z
1y
1x
1w
1v
1u
1t
1s
1r
1q
1p
1o
1n
1m
1l
1k
1j
1g
1f
1e
0>
0=
1)!
1@
0?
0g
0B
0A
0f
1D
0C
0l
0F
0E
0m
1H
0G
0n
0J
0I
0o
1L
0K
0p
0N
0M
0q
1P
0O
0r
0R
0Q
0s
1T
0S
0t
0V
0U
0u
1X
0W
0v
0Z
0Y
0w
1\
0[
0x
0]
0y
0z
#11500
1!
1{
1|
0,
#12000
0!
0{
0|
1,
0P!
1Q!
1R!
08
17
06
05
14
03
1:
19
18
07
0j
15
0k
0<
1;
1i
0:
09
1j
1>
1=
1h
1<
0;
0i
0@
1?
1g
0>
0=
0h
1B
1A
1f
1@
0?
0g
0D
1C
1l
0B
0A
0f
1F
1E
1m
1D
0C
0l
0H
1G
1n
0F
0E
0m
1J
1I
1o
1H
0G
0n
0L
1K
1p
0J
0I
0o
1N
1M
1q
1L
0K
0p
0P
1O
1r
0N
0M
0q
1R
1Q
1s
1P
0O
0r
0T
1S
1t
0R
0Q
0s
1V
1U
1u
1T
0S
0t
0X
1W
1v
0V
0U
0u
1Z
1Y
1w
1X
0W
0v
0\
1[
1x
0Z
0Y
0w
1]
1y
1\
0[
0x
1z
0]
0y
0z
#12500
1!
1{
1|
0,
#13000
0!
0{
0|
1,
0R!
04
13
05
1k
0j
#13500
1!
1{
1|
0,
#14000
0!
0{
0|
1,
0Q!
1R!
16
15
14
03
08
17
1j
06
05
0k
1:
19
18
07
0j
0<
1;
1i
0:
09
1>
1=
1h
1<
0;
0i
0@
1?
1g
0>
0=
0h
1B
1A
1f
1@
0?
0g
0D
1C
1l
0B
0A
0f
1F
1E
1m
1D
0C
0l
0H
1G
1n
0F
0E
0m
1J
1I
1o
1H
0G
0n
0L
1K
1p
0J
0I
0o
1N
1M
1q
1L
0K
0p
0P
1O
1r
0N
0M
0q
1R
1Q
1s
1P
0O
0r
0T
1S
1t
0R
0Q
0s
1V
1U
1u
1T
0S
0t
0X
1W
1v
0V
0U
0u
1Z
1Y
1w
1X
0W
0v
0\
1[
1x
0Z
0Y
0w
1]
1y
1\
0[
0x
1z
0]
0y
0z
#14500
1!
1{
1|
0,
#15000
0!
0{
0|
1,
0R!
1_
04
13
1b
16
15
1k
1d
08
17
1j
0k
0j
0e
1:
19
0)!
0<
1;
1>
1=
0@
1?
1B
1A
0D
1C
1F
1E
0H
1G
1J
1I
0L
1K
1N
1M
0P
1O
1R
1Q
0T
1S
1V
1U
0X
1W
1Z
1Y
0\
1[
1]
#15500
1!
1{
1|
0,
#16000
0!
0{
0|
1,
1P!
0*!
0+!
0_
18
07
1e
0b
0:
09
1)!
0d
1<
0;
1z
1y
1x
1w
1v
1u
1t
1s
1r
1q
1p
1o
1n
1m
1l
1k
1j
1g
1f
0e
0>
0=
0)!
1@
0?
0g
0B
0A
0f
1D
0C
0l
0F
0E
0m
1H
0G
0n
0J
0I
0o
1L
0K
0p
0N
0M
0q
1P
0O
0r
0R
0Q
0s
1T
0S
0t
0V
0U
0u
1X
0W
0v
0Z
0Y
0w
1\
0[
0x
0]
0y
0z
1]!
0^!
14!
05!
1!!
0~
1)
0*
#16500
1!
1{
1|
0,
#17000
0!
0{
0|
1,
0P!
1Q!
1R!
08
17
06
05
14
03
1:
19
18
07
0j
15
0k
0<
1;
1i
0:
09
1j
1>
1=
1h
1<
0;
0i
0@
1?
1g
0>
0=
0h
1B
1A
1f
1@
0?
0g
0D
1C
1l
0B
0A
0f
1F
1E
1m
1D
0C
0l
0H
1G
1n
0F
0E
0m
1J
1I
1o
1H
0G
0n
0L
1K
1p
0J
0I
0o
1N
1M
1q
1L
0K
0p
0P
1O
1r
0N
0M
0q
1R
1Q
1s
1P
0O
0r
0T
1S
1t
0R
0Q
0s
1V
1U
1u
1T
0S
0t
0X
1W
1v
0V
0U
0u
1Z
1Y
1w
1X
0W
0v
0\
1[
1x
0Z
0Y
0w
1]
1y
1\
0[
0x
1z
0]
0y
0z
#17500
1!
1{
1|
0,
#18000
0!
0{
0|
1,
0R!
04
13
05
1k
0j
#18500
1!
1{
1|
0,
#19000
0!
0{
0|
1,
0Q!
1R!
16
15
14
03
08
17
1j
06
05
0k
1:
19
18
07
0j
0<
1;
1i
0:
09
1>
1=
1h
1<
0;
0i
0@
1?
1g
0>
0=
0h
1B
1A
1f
1@
0?
0g
0D
1C
1l
0B
0A
0f
1F
1E
1m
1D
0C
0l
0H
1G
1n
0F
0E
0m
1J
1I
1o
1H
0G
0n
0L
1K
1p
0J
0I
0o
1N
1M
1q
1L
0K
0p
0P
1O
1r
0N
0M
0q
1R
1Q
1s
1P
0O
0r
0T
1S
1t
0R
0Q
0s
1V
1U
1u
1T
0S
0t
0X
1W
1v
0V
0U
0u
1Z
1Y
1w
1X
0W
0v
0\
1[
1x
0Z
0Y
0w
1]
1y
1\
0[
0x
1z
0]
0y
0z
#19500
1!
1{
1|
0,
#20000
0!
0{
0|
1,
0R!
1_
04
13
1b
16
15
1k
1d
08
17
1j
0k
0j
1e
1:
19
1)!
0<
1;
1>
1=
0@
1?
1B
1A
0D
1C
1F
1E
0H
1G
1J
1I
0L
1K
1N
1M
0P
1O
1R
1Q
0T
1S
1V
1U
0X
1W
1Z
1Y
0\
1[
1]
#20500
1!
1{
1|
0,
#21000
0!
0{
0|
1,
1P!
1*!
1+!
0_
18
07
0e
0b
0:
09
0)!
0d
1<
0;
1z
1y
1x
1w
1v
1u
1t
1s
1r
1q
1p
1o
1n
1m
1l
1k
1j
1g
1f
1e
0>
0=
1)!
1@
0?
0g
0B
0A
0f
1D
0C
0l
0F
0E
0m
1H
0G
0n
0J
0I
0o
1L
0K
0p
0N
0M
0q
1P
0O
0r
0R
0Q
0s
1T
0S
0t
0V
0U
0u
1X
0W
0v
0Z
0Y
0w
1\
0[
0x
0]
0y
0z
#21500
1!
1{
1|
0,
#22000
0!
0{
0|
1,
0P!
1Q!
1R!
08
17
06
05
14
03
1:
19
18
07
0j
15
0k
0<
1;
1i
0:
09
1j
1>
1=
1h
1<
0;
0i
0@
1?
1g
0>
0=
0h
1B
1A
1f
1@
0?
0g
0D
1C
1l
0B
0A
0f
1F
1E
1m
1D
0C
0l
0H
1G
1n
0F
0E
0m
1J
1I
1o
1H
0G
0n
0L
1K
1p
0J
0I
0o
1N
1M
1q
1L
0K
0p
0P
1O
1r
0N
0M
0q
1R
1Q
1s
1P
0O
0r
0T
1S
1t
0R
0Q
0s
1V
1U
1u
1T
0S
0t
0X
1W
1v
0V
0U
0u
1Z
1Y
1w
1X
0W
0v
0\
1[
1x
0Z
0Y
0w
1]
1y
1\
0[
0x
1z
0]
0y
0z
#22500
1!
1{
1|
0,
#23000
0!
0{
0|
1,
0R!
04
13
05
1k
0j
#23500
1!
1{
1|
0,
#24000
0!
0{
0|
1,
0Q!
1R!
16
15
14
03
08
17
1j
06
05
0k
1:
19
18
07
0j
0<
1;
1i
0:
09
1>
1=
1h
1<
0;
0i
0@
1?
1g
0>
0=
0h
1B
1A
1f
1@
0?
0g
0D
1C
1l
0B
0A
0f
1F
1E
1m
1D
0C
0l
0H
1G
1n
0F
0E
0m
1J
1I
1o
1H
0G
0n
0L
1K
1p
0J
0I
0o
1N
1M
1q
1L
0K
0p
0P
1O
1r
0N
0M
0q
1R
1Q
1s
1P
0O
0r
0T
1S
1t
0R
0Q
0s
1V
1U
1u
1T
0S
0t
0X
1W
1v
0V
0U
0u
1Z
1Y
1w
1X
0W
0v
0\
1[
1x
0Z
0Y
0w
1]
1y
1\
0[
0x
1z
0]
0y
0z
#24500
1!
1{
1|
0,
#25000
0!
0{
0|
1,
0R!
1_
04
13
1b
16
15
1k
1d
08
17
1j
0k
0j
0e
1:
19
0)!
0<
1;
1>
1=
0@
1?
1B
1A
0D
1C
1F
1E
0H
1G
1J
1I
0L
1K
1N
1M
0P
1O
1R
1Q
0T
1S
1V
1U
0X
1W
1Z
1Y
0\
1[
1]
#25500
1!
1{
1|
0,
#26000
0!
0{
0|
1,
1P!
0*!
0+!
0_
18
07
1e
0b
0:
09
1)!
0d
1<
0;
1z
1y
1x
1w
1v
1u
1t
1s
1r
1q
1p
1o
1n
1m
1l
1k
1j
1g
1f
0e
0>
0=
0)!
1@
0?
0g
0B
0A
0f
1D
0C
0l
0F
0E
0m
1H
0G
0n
0J
0I
0o
1L
0K
0p
0N
0M
0q
1P
0O
0r
0R
0Q
0s
1T
0S
0t
0V
0U
0u
1X
0W
0v
0Z
0Y
0w
1\
0[
0x
0]
0y
0z
1\!
0]!
1:!
04!
1"!
0!!
1(
0)
#26500
1!
1{
1|
0,
#27000
0!
0{
0|
1,
0P!
1Q!
1R!
08
17
06
05
14
03
1:
19
18
07
0j
15
0k
0<
1;
1i
0:
09
1j
1>
1=
1h
1<
0;
0i
0@
1?
1g
0>
0=
0h
1B
1A
1f
1@
0?
0g
0D
1C
1l
0B
0A
0f
1F
1E
1m
1D
0C
0l
0H
1G
1n
0F
0E
0m
1J
1I
1o
1H
0G
0n
0L
1K
1p
0J
0I
0o
1N
1M
1q
1L
0K
0p
0P
1O
1r
0N
0M
0q
1R
1Q
1s
1P
0O
0r
0T
1S
1t
0R
0Q
0s
1V
1U
1u
1T
0S
0t
0X
1W
1v
0V
0U
0u
1Z
1Y
1w
1X
0W
0v
0\
1[
1x
0Z
0Y
0w
1]
1y
1\
0[
0x
1z
0]
0y
0z
#27500
1!
1{
1|
0,
#28000
0!
0{
0|
1,
0R!
04
13
05
1k
0j
#28500
1!
1{
1|
0,
#29000
0!
0{
0|
1,
0Q!
1R!
16
15
14
03
08
17
1j
06
05
0k
1:
19
18
07
0j
0<
1;
1i
0:
09
1>
1=
1h
1<
0;
0i
0@
1?
1g
0>
0=
0h
1B
1A
1f
1@
0?
0g
0D
1C
1l
0B
0A
0f
1F
1E
1m
1D
0C
0l
0H
1G
1n
0F
0E
0m
1J
1I
1o
1H
0G
0n
0L
1K
1p
0J
0I
0o
1N
1M
1q
1L
0K
0p
0P
1O
1r
0N
0M
0q
1R
1Q
1s
1P
0O
0r
0T
1S
1t
0R
0Q
0s
1V
1U
1u
1T
0S
0t
0X
1W
1v
0V
0U
0u
1Z
1Y
1w
1X
0W
0v
0\
1[
1x
0Z
0Y
0w
1]
1y
1\
0[
0x
1z
0]
0y
0z
#29500
1!
1{
1|
0,
#30000
0!
0{
0|
1,
0R!
1_
04
13
1b
16
15
1k
1d
08
17
1j
0k
0j
1e
1:
19
1)!
0<
1;
1>
1=
0@
1?
1B
1A
0D
1C
1F
1E
0H
1G
1J
1I
0L
1K
1N
1M
0P
1O
1R
1Q
0T
1S
1V
1U
0X
1W
1Z
1Y
0\
1[
1]
#30500
1!
1{
1|
0,
#31000
0!
0{
0|
1,
1P!
1*!
1+!
0_
18
07
0e
0b
0:
09
0)!
0d
1<
0;
1z
1y
1x
1w
1v
1u
1t
1s
1r
1q
1p
1o
1n
1m
1l
1k
1j
1g
1f
1e
0>
0=
1)!
1@
0?
0g
0B
0A
0f
1D
0C
0l
0F
0E
0m
1H
0G
0n
0J
0I
0o
1L
0K
0p
0N
0M
0q
1P
0O
0r
0R
0Q
0s
1T
0S
0t
0V
0U
0u
1X
0W
0v
0Z
0Y
0w
1\
0[
0x
0]
0y
0z
#31500
1!
1{
1|
0,
#32000
0!
0{
0|
1,
0P!
1Q!
1R!
08
17
06
05
14
03
1:
19
18
07
0j
15
0k
0<
1;
1i
0:
09
1j
1>
1=
1h
1<
0;
0i
0@
1?
1g
0>
0=
0h
1B
1A
1f
1@
0?
0g
0D
1C
1l
0B
0A
0f
1F
1E
1m
1D
0C
0l
0H
1G
1n
0F
0E
0m
1J
1I
1o
1H
0G
0n
0L
1K
1p
0J
0I
0o
1N
1M
1q
1L
0K
0p
0P
1O
1r
0N
0M
0q
1R
1Q
1s
1P
0O
0r
0T
1S
1t
0R
0Q
0s
1V
1U
1u
1T
0S
0t
0X
1W
1v
0V
0U
0u
1Z
1Y
1w
1X
0W
0v
0\
1[
1x
0Z
0Y
0w
1]
1y
1\
0[
0x
1z
0]
0y
0z
#32500
1!
1{
1|
0,
#33000
0!
0{
0|
1,
0R!
04
13
05
1k
0j
#33500
1!
1{
1|
0,
#34000
0!
0{
0|
1,
0Q!
1R!
16
15
14
03
08
17
1j
06
05
0k
1:
19
18
07
0j
0<
1;
1i
0:
09
1>
1=
1h
1<
0;
0i
0@
1?
1g
0>
0=
0h
1B
1A
1f
1@
0?
0g
0D
1C
1l
0B
0A
0f
1F
1E
1m
1D
0C
0l
0H
1G
1n
0F
0E
0m
1J
1I
1o
1H
0G
0n
0L
1K
1p
0J
0I
0o
1N
1M
1q
1L
0K
0p
0P
1O
1r
0N
0M
0q
1R
1Q
1s
1P
0O
0r
0T
1S
1t
0R
0Q
0s
1V
1U
1u
1T
0S
0t
0X
1W
1v
0V
0U
0u
1Z
1Y
1w
1X
0W
0v
0\
1[
1x
0Z
0Y
0w
1]
1y
1\
0[
0x
1z
0]
0y
0z
#34500
1!
1{
1|
0,
#35000
0!
0{
0|
1,
0R!
1_
04
13
1b
16
15
1k
1d
08
17
1j
0k
0j
0e
1:
19
0)!
0<
1;
1>
1=
0@
1?
1B
1A
0D
1C
1F
1E
0H
1G
1J
1I
0L
1K
1N
1M
0P
1O
1R
1Q
0T
1S
1V
1U
0X
1W
1Z
1Y
0\
1[
1]
#35500
1!
1{
1|
0,
#36000
0!
0{
0|
1,
1P!
0*!
0+!
0_
18
07
1e
0b
0:
09
1)!
0d
1<
0;
1z
1y
1x
1w
1v
1u
1t
1s
1r
1q
1p
1o
1n
1m
1l
1k
1j
1g
1f
0e
0>
0=
0)!
1@
0?
0g
0B
0A
0f
1D
0C
0l
0F
0E
0m
1H
0G
0n
0J
0I
0o
1L
0K
0p
0N
0M
0q
1P
0O
0r
0R
0Q
0s
1T
0S
0t
0V
0U
0u
1X
0W
0v
0Z
0Y
0w
1\
0[
0x
0]
0y
0z
0\!
1[!
0:!
19!
0"!
1#!
0(
1'
#36500
1!
1{
1|
0,
#37000
0!
0{
0|
1,
0P!
1Q!
1R!
08
17
06
05
14
03
1:
19
18
07
0j
15
0k
0<
1;
1i
0:
09
1j
1>
1=
1h
1<
0;
0i
0@
1?
1g
0>
0=
0h
1B
1A
1f
1@
0?
0g
0D
1C
1l
0B
0A
0f
1F
1E
1m
1D
0C
0l
0H
1G
1n
0F
0E
0m
1J
1I
1o
1H
0G
0n
0L
1K
1p
0J
0I
0o
1N
1M
1q
1L
0K
0p
0P
1O
1r
0N
0M
0q
1R
1Q
1s
1P
0O
0r
0T
1S
1t
0R
0Q
0s
1V
1U
1u
1T
0S
0t
0X
1W
1v
0V
0U
0u
1Z
1Y
1w
1X
0W
0v
0\
1[
1x
0Z
0Y
0w
1]
1y
1\
0[
0x
1z
0]
0y
0z
#37500
1!
1{
1|
0,
#38000
0!
0{
0|
1,
0R!
04
13
05
1k
0j
#38500
1!
1{
1|
0,
#39000
0!
0{
0|
1,
0Q!
1R!
16
15
14
03
08
17
1j
06
05
0k
1:
19
18
07
0j
0<
1;
1i
0:
09
1>
1=
1h
1<
0;
0i
0@
1?
1g
0>
0=
0h
1B
1A
1f
1@
0?
0g
0D
1C
1l
0B
0A
0f
1F
1E
1m
1D
0C
0l
0H
1G
1n
0F
0E
0m
1J
1I
1o
1H
0G
0n
0L
1K
1p
0J
0I
0o
1N
1M
1q
1L
0K
0p
0P
1O
1r
0N
0M
0q
1R
1Q
1s
1P
0O
0r
0T
1S
1t
0R
0Q
0s
1V
1U
1u
1T
0S
0t
0X
1W
1v
0V
0U
0u
1Z
1Y
1w
1X
0W
0v
0\
1[
1x
0Z
0Y
0w
1]
1y
1\
0[
0x
1z
0]
0y
0z
#39500
1!
1{
1|
0,
