Laboratorio/Practicas/simulation/qsim/practicas.msim.vcd
$comment
	File created using the following command:
		vcd file practicas.msim.vcd -direction
$end
$date
	Sat Mar 09 15:43:13 2024
$end
$version
	ModelSim Version 10.1d
$end
$timescale
	1ps
$end
$scope module contador_vlg_vec_tst $end
$var reg 1 ! clk $end
$var wire 1 " sQ [16] $end
$var wire 1 # sQ [15] $end
$var wire 1 $ sQ [14] $end
$var wire 1 % sQ [13] $end
$var wire 1 & sQ [12] $end
$var wire 1 ' sQ [11] $end
$var wire 1 ( sQ [10] $end
$var wire 1 ) sQ [9] $end
$var wire 1 * sQ [8] $end
$var wire 1 + sQ [7] $end
$var wire 1 , sQ [6] $end
$var wire 1 - sQ [5] $end
$var wire 1 . sQ [4] $end
$var wire 1 / sQ [3] $end
$var wire 1 0 sQ [2] $end
$var wire 1 1 sQ [1] $end
$var wire 1 2 sQ [0] $end
$var wire 1 3 sampler $end
$scope module i1 $end
$var wire 1 4 gnd $end
$var wire 1 5 vcc $end
$var wire 1 6 unknown $end
$var tri1 1 7 devclrn $end
$var tri1 1 8 devpor $end
$var tri1 1 9 devoe $end
$var wire 1 : Ff~5_combout $end
$var wire 1 ; Ff~8_combout $end
$var wire 1 < Ff~15_combout $end
$var wire 1 = sQ[0]~output_o $end
$var wire 1 > sQ[1]~output_o $end
$var wire 1 ? sQ[2]~output_o $end
$var wire 1 @ sQ[3]~output_o $end
$var wire 1 A sQ[4]~output_o $end
$var wire 1 B sQ[5]~output_o $end
$var wire 1 C sQ[6]~output_o $end
$var wire 1 D sQ[7]~output_o $end
$var wire 1 E sQ[8]~output_o $end
$var wire 1 F sQ[9]~output_o $end
$var wire 1 G sQ[10]~output_o $end
$var wire 1 H sQ[11]~output_o $end
$var wire 1 I sQ[12]~output_o $end
$var wire 1 J sQ[13]~output_o $end
$var wire 1 K sQ[14]~output_o $end
$var wire 1 L sQ[15]~output_o $end
$var wire 1 M sQ[16]~output_o $end
$var wire 1 N clk~input_o $end
$var wire 1 O clk~inputclkctrl_outclk $end
$var wire 1 P Ff~4_combout $end
$var wire 1 Q Ff~1_combout $end
$var wire 1 R Ff~6_combout $end
$var wire 1 S Ff~16_combout $end
$var wire 1 T Ff~18_combout $end
$var wire 1 U Ff~17_combout $end
$var wire 1 V Ff~21_combout $end
$var wire 1 W Ff[14]~23_combout $end
$var wire 1 X Ff~3_combout $end
$var wire 1 Y Ff~19_combout $end
$var wire 1 Z Ff~20_combout $end
$var wire 1 [ Ff~12_combout $end
$var wire 1 \ Ff~13_combout $end
$var wire 1 ] Ff~14_combout $end
$var wire 1 ^ Ff~10_combout $end
$var wire 1 _ Ff~11_combout $end
$var wire 1 ` Ff~7_combout $end
$var wire 1 a Ff~9_combout $end
$var wire 1 b Ff[6]~feeder_combout $end
$var wire 1 c Ff~2_combout $end
$var wire 1 d Ff~22_combout $end
$var wire 1 e Ff[3]~0_combout $end
$var wire 1 f Ff [16] $end
$var wire 1 g Ff [15] $end
$var wire 1 h Ff [14] $end
$var wire 1 i Ff [13] $end
$var wire 1 j Ff [12] $end
$var wire 1 k Ff [11] $end
$var wire 1 l Ff [10] $end
$var wire 1 m Ff [9] $end
$var wire 1 n Ff [8] $end
$var wire 1 o Ff [7] $end
$var wire 1 p Ff [6] $end
$var wire 1 q Ff [5] $end
$var wire 1 r Ff [4] $end
$var wire 1 s Ff [3] $end
$var wire 1 t Ff [2] $end
$var wire 1 u Ff [1] $end
$var wire 1 v Ff [0] $end
$upscope $end
$upscope $end
$enddefinitions $end
#0
$dumpvars
0!
02
01
00
1/
0.
0-
0,
0+
0*
0)
0(
0'
0&
0%
0$
0#
0"
x3
04
15
x6
17
18
19
0:
0;
0<
0=
0>
0?
1@
0A
0B
0C
0D
0E
0F
0G
0H
0I
0J
0K
0L
0M
0N
0O
0P
0Q
0R
0S
0T
1U
0V
0W
1X
0Y
0Z
0[
0\
0]
0^
0_
0`
0a
0b
0c
0d
0e
zv
zu
zt
0s
0r
0q
0p
0o
0n
0m
0l
0k
0j
0i
0h
zg
zf
$end
#5000
1!
1N
1O
03
#10000
0!
0N
0O
13
#15000
1!
1N
1O
03
#20000
0!
0N
0O
13
#25000
1!
1N
1O
03
#30000
0!
0N
0O
13
#35000
1!
1N
1O
03
#40000
0!
0N
0O
13
#45000
1!
1N
1O
03
#50000
0!
0N
0O
13
#55000
1!
1N
1O
03
#60000
0!
0N
0O
13
#65000
1!
1N
1O
03
#70000
0!
0N
0O
13
#75000
1!
1N
1O
03
#80000
0!
0N
0O
13
#85000
1!
1N
1O
03
#90000
0!
0N
0O
13
#95000
1!
1N
1O
03
#100000
0!
0N
0O
13
#105000
1!
1N
1O
03
#110000
0!
0N
0O
13
#115000
1!
1N
1O
03
#120000
0!
0N
0O
13
#125000
1!
1N
1O
03
#130000
0!
0N
0O
13
#135000
1!
1N
1O
03
#140000
0!
0N
0O
13
#145000
1!
1N
1O
03
#150000
0!
0N
0O
13
#155000
1!
1N
1O
03
#160000
0!
0N
0O
13
#165000
1!
1N
1O
03
#170000
0!
0N
0O
13
#175000
1!
1N
1O
03
#180000
0!
0N
0O
13
#185000
1!
1N
1O
03
#190000
0!
0N
0O
13
#195000
1!
1N
1O
03
#200000
0!
0N
0O
13
#205000
1!
1N
1O
03
#210000
0!
0N
0O
13
#215000
1!
1N
1O
03
#220000
0!
0N
0O
13
#225000
1!
1N
1O
03
#230000
0!
0N
0O
13
#235000
1!
1N
1O
03
#240000
0!
0N
0O
13
#245000
1!
1N
1O
03
#250000
0!
0N
0O
13
#255000
1!
1N
1O
03
#260000
0!
0N
0O
13
#265000
1!
1N
1O
03
#270000
0!
0N
0O
13
#275000
1!
1N
1O
03
#280000
0!
0N
0O
13
#285000
1!
1N
1O
03
#290000
0!
0N
0O
13
#295000
1!
1N
1O
03
#300000
0!
0N
0O
13
#305000
1!
1N
1O
03
#310000
0!
0N
0O
13
#315000
1!
1N
1O
03
#320000
0!
0N
0O
13
#325000
1!
1N
1O
03
#330000
0!
0N
0O
13
#335000
1!
1N
1O
03
#340000
0!
0N
0O
13
#345000
1!
1N
1O
03
#350000
0!
0N
0O
13
#355000
1!
1N
1O
03
#360000
0!
0N
0O
13
#365000
1!
1N
1O
03
#370000
0!
0N
0O
13
#375000
1!
1N
1O
03
#380000
0!
0N
0O
13
#385000
1!
1N
1O
03
#390000
0!
0N
0O
13
#395000
1!
1N
1O
03
#400000
0!
0N
0O
13
#405000
1!
1N
1O
03
#410000
0!
0N
0O
13
#415000
1!
1N
1O
03
#420000
0!
0N
0O
13
#425000
1!
1N
1O
03
#430000
0!
0N
0O
13
#435000
1!
1N
1O
03
#440000
0!
0N
0O
13
#445000
1!
1N
1O
03
#450000
0!
0N
0O
13
#455000
1!
1N
1O
03
#460000
0!
0N
0O
13
#465000
1!
1N
1O
03
#470000
0!
0N
0O
13
#475000
1!
1N
1O
03
#480000
0!
0N
0O
13
#485000
1!
1N
1O
03
#490000
0!
0N
0O
13
#495000
1!
1N
1O
03
#500000
0!
0N
0O
13
#505000
1!
1N
1O
03
#510000
0!
0N
0O
13
#515000
1!
1N
1O
03
#520000
0!
0N
0O
13
#525000
1!
1N
1O
03
#530000
0!
0N
0O
13
#535000
1!
1N
1O
03
#540000
0!
0N
0O
13
#545000
1!
1N
1O
03
#550000
0!
0N
0O
13
#555000
1!
1N
1O
03
#560000
0!
0N
0O
13
#565000
1!
1N
1O
03
#570000
0!
0N
0O
13
#575000
1!
1N
1O
03
#580000
0!
0N
0O
13
#585000
1!
1N
1O
03
#590000
0!
0N
0O
13
#595000
1!
1N
1O
03
#600000
0!
0N
0O
13
#605000
1!
1N
1O
03
#610000
0!
0N
0O
13
#615000
1!
1N
1O
03
#620000
0!
0N
0O
13
#625000
1!
1N
1O
03
#630000
0!
0N
0O
13
#635000
1!
1N
1O
03
#640000
0!
0N
0O
13
#645000
1!
1N
1O
03
#650000
0!
0N
0O
13
#655000
1!
1N
1O
03
#660000
0!
0N
0O
13
#665000
1!
1N
1O
03
#670000
0!
0N
0O
13
#675000
1!
1N
1O
03
#680000
0!
0N
0O
13
#685000
1!
1N
1O
03
#690000
0!
0N
0O
13
#695000
1!
1N
1O
03
#700000
0!
0N
0O
13
#705000
1!
1N
1O
03
#710000
0!
0N
0O
13
#715000
1!
1N
1O
03
#720000
0!
0N
0O
13
#725000
1!
1N
1O
03
#730000
0!
0N
0O
13
#735000
1!
1N
1O
03
#740000
0!
0N
0O
13
#745000
1!
1N
1O
03
#750000
0!
0N
0O
13
#755000
1!
1N
1O
03
#760000
0!
0N
0O
13
#765000
1!
1N
1O
03
#770000
0!
0N
0O
13
#775000
1!
1N
1O
03
#780000
0!
0N
0O
13
#785000
1!
1N
1O
03
#790000
0!
0N
0O
13
#795000
1!
1N
1O
03
#800000
0!
0N
0O
13
#805000
1!
1N
1O
03
#810000
0!
0N
0O
13
#815000
1!
1N
1O
03
#820000
0!
0N
0O
13
#825000
1!
1N
1O
03
#830000
0!
0N
0O
13
#835000
1!
1N
1O
03
#840000
0!
0N
0O
13
#845000
1!
1N
1O
03
#850000
0!
0N
0O
13
#855000
1!
1N
1O
03
#860000
0!
0N
0O
13
#865000
1!
1N
1O
03
#870000
0!
0N
0O
13
#875000
1!
1N
1O
03
#880000
0!
0N
0O
13
#885000
1!
1N
1O
03
#890000
0!
0N
0O
13
#895000
1!
1N
1O
03
#900000
0!
0N
0O
13
#905000
1!
1N
1O
03
#910000
0!
0N
0O
13
#915000
1!
1N
1O
03
#920000
0!
0N
0O
13
#925000
1!
1N
1O
03
#930000
0!
0N
0O
13
#935000
1!
1N
1O
03
#940000
0!
0N
0O
13
#945000
1!
1N
1O
03
#950000
0!
0N
0O
13
#955000
1!
1N
1O
03
#960000
0!
0N
0O
13
#965000
1!
1N
1O
03
#970000
0!
0N
0O
13
#975000
1!
1N
1O
03
#980000
0!
0N
0O
13
#985000
1!
1N
1O
03
#990000
0!
0N
0O
13
#995000
1!
1N
1O
03
