Laboratorio/Practicas/simulation/qsim/practicas.msim.vcd
$comment
	File created using the following command:
		vcd file practicas.msim.vcd -direction
$end
$date
	Fri Mar 01 20:48:55 2024
$end
$version
	ModelSim Version 10.1d
$end
$timescale
	1ps
$end
$scope module flipflop_d_vlg_vec_tst $end
$var reg 1 ! clk $end
$var wire 1 " sQ [16] $end
$var wire 1 # sQ [15] $end
$var wire 1 $ sQ [14] $end
$var wire 1 % sQ [13] $end
$var wire 1 & sQ [12] $end
$var wire 1 ' sQ [11] $end
$var wire 1 ( sQ [10] $end
$var wire 1 ) sQ [9] $end
$var wire 1 * sQ [8] $end
$var wire 1 + sQ [7] $end
$var wire 1 , sQ [6] $end
$var wire 1 - sQ [5] $end
$var wire 1 . sQ [4] $end
$var wire 1 / sQ [3] $end
$var wire 1 0 sQ [2] $end
$var wire 1 1 sQ [1] $end
$var wire 1 2 sQ [0] $end
$var wire 1 3 sampler $end
$scope module i1 $end
$var wire 1 4 gnd $end
$var wire 1 5 vcc $end
$var wire 1 6 unknown $end
$var tri1 1 7 devclrn $end
$var tri1 1 8 devpor $end
$var tri1 1 9 devoe $end
$var wire 1 : clk~input_o $end
$var wire 1 ; sQ[0]~output_o $end
$var wire 1 < sQ[1]~output_o $end
$var wire 1 = sQ[2]~output_o $end
$var wire 1 > sQ[3]~output_o $end
$var wire 1 ? sQ[4]~output_o $end
$var wire 1 @ sQ[5]~output_o $end
$var wire 1 A sQ[6]~output_o $end
$var wire 1 B sQ[7]~output_o $end
$var wire 1 C sQ[8]~output_o $end
$var wire 1 D sQ[9]~output_o $end
$var wire 1 E sQ[10]~output_o $end
$var wire 1 F sQ[11]~output_o $end
$var wire 1 G sQ[12]~output_o $end
$var wire 1 H sQ[13]~output_o $end
$var wire 1 I sQ[14]~output_o $end
$var wire 1 J sQ[15]~output_o $end
$var wire 1 K sQ[16]~output_o $end
$upscope $end
$upscope $end
$enddefinitions $end
#0
$dumpvars
0!
02
01
00
0/
0.
0-
0,
0+
0*
0)
0(
0'
0&
0%
0$
0#
1"
x3
04
15
x6
17
18
19
0:
0;
0<
0=
0>
0?
0@
0A
0B
0C
0D
0E
0F
0G
0H
0I
0J
1K
$end
#500
1!
1:
03
#1000
0!
0:
13
#1500
1!
1:
03
#2000
0!
0:
13
#2500
1!
1:
03
#3000
0!
0:
13
#3500
1!
1:
03
#4000
0!
0:
13
#4500
1!
1:
03
#5000
0!
0:
13
#5500
1!
1:
03
#6000
0!
0:
13
#6500
1!
1:
03
#7000
0!
0:
13
#7500
1!
1:
03
#8000
0!
0:
13
#8500
1!
1:
03
#9000
0!
0:
13
#9500
1!
1:
03
#10000
0!
0:
13
#10500
1!
1:
03
#11000
0!
0:
13
#11500
1!
1:
03
#12000
0!
0:
13
#12500
1!
1:
03
#13000
0!
0:
13
#13500
1!
1:
03
#14000
0!
0:
13
#14500
1!
1:
03
#15000
0!
0:
13
#15500
1!
1:
03
#16000
0!
0:
13
#16500
1!
1:
03
#17000
0!
0:
13
#17500
1!
1:
03
#18000
0!
0:
13
#18500
1!
1:
03
#19000
0!
0:
13
#19500
1!
1:
03
#20000
0!
0:
13
#20500
1!
1:
03
#21000
0!
0:
13
#21500
1!
1:
03
#22000
0!
0:
13
#22500
1!
1:
03
#23000
0!
0:
13
#23500
1!
1:
03
#24000
0!
0:
13
#24500
1!
1:
03
#25000
0!
0:
13
#25500
1!
1:
03
#26000
0!
0:
13
#26500
1!
1:
03
#27000
0!
0:
13
#27500
1!
1:
03
#28000
0!
0:
13
#28500
1!
1:
03
#29000
0!
0:
13
#29500
1!
1:
03
#30000
0!
0:
13
#30500
1!
1:
03
#31000
0!
0:
13
#31500
1!
1:
03
#32000
0!
0:
13
#32500
1!
1:
03
#33000
0!
0:
13
#33500
1!
1:
03
#34000
0!
0:
13
#34500
1!
1:
03
#35000
0!
0:
13
#35500
1!
1:
03
#36000
0!
0:
13
#36500
1!
1:
03
#37000
0!
0:
13
#37500
1!
1:
03
#38000
0!
0:
13
#38500
1!
1:
03
#39000
0!
0:
13
#39500
1!
1:
03
#40000
0!
0:
13
#40500
1!
1:
03
#41000
0!
0:
13
#41500
1!
1:
03
#42000
0!
0:
13
#42500
1!
1:
03
#43000
0!
0:
13
#43500
1!
1:
03
#44000
0!
0:
13
#44500
1!
1:
03
#45000
0!
0:
13
#45500
1!
1:
03
#46000
0!
0:
13
#46500
1!
1:
03
#47000
0!
0:
13
#47500
1!
1:
03
#48000
0!
0:
13
#48500
1!
1:
03
#49000
0!
0:
13
#49500
1!
1:
03
#50000
0!
0:
13
#50500
1!
1:
03
#51000
0!
0:
13
#51500
1!
1:
03
#52000
0!
0:
13
#52500
1!
1:
03
#53000
0!
0:
13
#53500
1!
1:
03
#54000
0!
0:
13
#54500
1!
1:
03
#55000
0!
0:
13
#55500
1!
1:
03
#56000
0!
0:
13
#56500
1!
1:
03
#57000
0!
0:
13
#57500
1!
1:
03
#58000
0!
0:
13
#58500
1!
1:
03
#59000
0!
0:
13
#59500
1!
1:
03
#60000
0!
0:
13
#60500
1!
1:
03
#61000
0!
0:
13
#61500
1!
1:
03
#62000
0!
0:
13
#62500
1!
1:
03
#63000
0!
0:
13
#63500
1!
1:
03
#64000
0!
0:
13
#64500
1!
1:
03
#65000
0!
0:
13
#65500
1!
1:
03
#66000
0!
0:
13
#66500
1!
1:
03
#67000
0!
0:
13
#67500
1!
1:
03
#68000
0!
0:
13
#68500
1!
1:
03
#69000
0!
0:
13
#69500
1!
1:
03
#70000
0!
0:
13
#70500
1!
1:
03
#71000
0!
0:
13
#71500
1!
1:
03
#72000
0!
0:
13
#72500
1!
1:
03
#73000
0!
0:
13
#73500
1!
1:
03
#74000
0!
0:
13
#74500
1!
1:
03
#75000
0!
0:
13
#75500
1!
1:
03
#76000
0!
0:
13
#76500
1!
1:
03
#77000
0!
0:
13
#77500
1!
1:
03
#78000
0!
0:
13
#78500
1!
1:
03
#79000
0!
0:
13
#79500
1!
1:
03
#80000
0!
0:
13
#80500
1!
1:
03
#81000
0!
0:
13
#81500
1!
1:
03
#82000
0!
0:
13
#82500
1!
1:
03
#83000
0!
0:
13
#83500
1!
1:
03
#84000
0!
0:
13
#84500
1!
1:
03
#85000
0!
0:
13
#85500
1!
1:
03
#86000
0!
0:
13
#86500
1!
1:
03
#87000
0!
0:
13
#87500
1!
1:
03
#88000
0!
0:
13
#88500
1!
1:
03
#89000
0!
0:
13
#89500
1!
1:
03
#90000
0!
0:
13
#90500
1!
1:
03
#91000
0!
0:
13
#91500
1!
1:
03
#92000
0!
0:
13
#92500
1!
1:
03
#93000
0!
0:
13
#93500
1!
1:
03
#94000
0!
0:
13
#94500
1!
1:
03
#95000
0!
0:
13
#95500
1!
1:
03
#96000
0!
0:
13
#96500
1!
1:
03
#97000
0!
0:
13
#97500
1!
1:
03
#98000
0!
0:
13
#98500
1!
1:
03
#99000
0!
0:
13
#99500
1!
1:
03
#100000
0!
0:
13
#100500
1!
1:
03
#101000
0!
0:
13
#101500
1!
1:
03
#102000
0!
0:
13
#102500
1!
1:
03
#103000
0!
0:
13
#103500
1!
1:
03
#104000
0!
0:
13
#104500
1!
1:
03
#105000
0!
0:
13
#105500
1!
1:
03
#106000
0!
0:
13
#106500
1!
1:
03
#107000
0!
0:
13
#107500
1!
1:
03
#108000
0!
0:
13
#108500
1!
1:
03
#109000
0!
0:
13
#109500
1!
1:
03
#110000
0!
0:
13
#110500
1!
1:
03
#111000
0!
0:
13
#111500
1!
1:
03
#112000
0!
0:
13
#112500
1!
1:
03
#113000
0!
0:
13
#113500
1!
1:
03
#114000
0!
0:
13
#114500
1!
1:
03
#115000
0!
0:
13
#115500
1!
1:
03
#116000
0!
0:
13
#116500
1!
1:
03
#117000
0!
0:
13
#117500
1!
1:
03
#118000
0!
0:
13
#118500
1!
1:
03
#119000
0!
0:
13
#119500
1!
1:
03
#120000
0!
0:
13
#120500
1!
1:
03
#121000
0!
0:
13
#121500
1!
1:
03
#122000
0!
0:
13
#122500
1!
1:
03
#123000
0!
0:
13
#123500
1!
1:
03
#124000
0!
0:
13
#124500
1!
1:
03
#125000
0!
0:
13
#125500
1!
1:
03
#126000
0!
0:
13
#126500
1!
1:
03
#127000
0!
0:
13
#127500
1!
1:
03
#128000
0!
0:
13
#128500
1!
1:
03
#129000
0!
0:
13
#129500
1!
1:
03
#130000
0!
0:
13
#130500
1!
1:
03
#131000
0!
0:
13
#131500
1!
1:
03
#132000
0!
0:
13
#132500
1!
1:
03
#133000
0!
0:
13
#133500
1!
1:
03
#134000
0!
0:
13
#134500
1!
1:
03
#135000
0!
0:
13
#135500
1!
1:
03
#136000
0!
0:
13
#136500
1!
1:
03
#137000
0!
0:
13
#137500
1!
1:
03
#138000
0!
0:
13
#138500
1!
1:
03
#139000
0!
0:
13
#139500
1!
1:
03
#140000
0!
0:
13
#140500
1!
1:
03
#141000
0!
0:
13
#141500
1!
1:
03
#142000
0!
0:
13
#142500
1!
1:
03
#143000
0!
0:
13
#143500
1!
1:
03
#144000
0!
0:
13
#144500
1!
1:
03
#145000
0!
0:
13
#145500
1!
1:
03
#146000
0!
0:
13
#146500
1!
1:
03
#147000
0!
0:
13
#147500
1!
1:
03
#148000
0!
0:
13
#148500
1!
1:
03
#149000
0!
0:
13
#149500
1!
1:
03
#150000
0!
0:
13
#150500
1!
1:
03
#151000
0!
0:
13
#151500
1!
1:
03
#152000
0!
0:
13
#152500
1!
1:
03
#153000
0!
0:
13
#153500
1!
1:
03
#154000
0!
0:
13
#154500
1!
1:
03
#155000
0!
0:
13
#155500
1!
1:
03
#156000
0!
0:
13
#156500
1!
1:
03
#157000
0!
0:
13
#157500
1!
1:
03
#158000
0!
0:
13
#158500
1!
1:
03
#159000
0!
0:
13
#159500
1!
1:
03
#160000
0!
0:
13
#160500
1!
1:
03
#161000
0!
0:
13
#161500
1!
1:
03
#162000
0!
0:
13
#162500
1!
1:
03
#163000
0!
0:
13
#163500
1!
1:
03
#164000
0!
0:
13
#164500
1!
1:
03
#165000
0!
0:
13
#165500
1!
1:
03
#166000
0!
0:
13
#166500
1!
1:
03
#167000
0!
0:
13
#167500
1!
1:
03
#168000
0!
0:
13
#168500
1!
1:
03
#169000
0!
0:
13
#169500
1!
1:
03
#170000
0!
0:
13
#170500
1!
1:
03
#171000
0!
0:
13
#171500
1!
1:
03
#172000
0!
0:
13
#172500
1!
1:
03
#173000
0!
0:
13
#173500
1!
1:
03
#174000
0!
0:
13
#174500
1!
1:
03
#175000
0!
0:
13
#175500
1!
1:
03
#176000
0!
0:
13
#176500
1!
1:
03
#177000
0!
0:
13
#177500
1!
1:
03
#178000
0!
0:
13
#178500
1!
1:
03
#179000
0!
0:
13
#179500
1!
1:
03
#180000
0!
0:
13
#180500
1!
1:
03
#181000
0!
0:
13
#181500
1!
1:
03
#182000
0!
0:
13
#182500
1!
1:
03
#183000
0!
0:
13
#183500
1!
1:
03
#184000
0!
0:
13
#184500
1!
1:
03
#185000
0!
0:
13
#185500
1!
1:
03
#186000
0!
0:
13
#186500
1!
1:
03
#187000
0!
0:
13
#187500
1!
1:
03
#188000
0!
0:
13
#188500
1!
1:
03
#189000
0!
0:
13
#189500
1!
1:
03
#190000
0!
0:
13
#190500
1!
1:
03
#191000
0!
0:
13
#191500
1!
1:
03
#192000
0!
0:
13
#192500
1!
1:
03
#193000
0!
0:
13
#193500
1!
1:
03
#194000
0!
0:
13
#194500
1!
1:
03
#195000
0!
0:
13
#195500
1!
1:
03
#196000
0!
0:
13
#196500
1!
1:
03
#197000
0!
0:
13
#197500
1!
1:
03
#198000
0!
0:
13
#198500
1!
1:
03
#199000
0!
0:
13
#199500
1!
1:
03
#200000
0!
0:
13
#200500
1!
1:
03
#201000
0!
0:
13
#201500
1!
1:
03
#202000
0!
0:
13
#202500
1!
1:
03
#203000
0!
0:
13
#203500
1!
1:
03
#204000
0!
0:
13
#204500
1!
1:
03
#205000
0!
0:
13
#205500
1!
1:
03
#206000
0!
0:
13
#206500
1!
1:
03
#207000
0!
0:
13
#207500
1!
1:
03
#208000
0!
0:
13
#208500
1!
1:
03
#209000
0!
0:
13
#209500
1!
1:
03
#210000
0!
0:
13
#210500
1!
1:
03
#211000
0!
0:
13
#211500
1!
1:
03
#212000
0!
0:
13
#212500
1!
1:
03
#213000
0!
0:
13
#213500
1!
1:
03
#214000
0!
0:
13
#214500
1!
1:
03
#215000
0!
0:
13
#215500
1!
1:
03
#216000
0!
0:
13
#216500
1!
1:
03
#217000
0!
0:
13
#217500
1!
1:
03
#218000
0!
0:
13
#218500
1!
1:
03
#219000
0!
0:
13
#219500
1!
1:
03
#220000
0!
0:
13
#220500
1!
1:
03
#221000
0!
0:
13
#221500
1!
1:
03
#222000
0!
0:
13
#222500
1!
1:
03
#223000
0!
0:
13
#223500
1!
1:
03
#224000
0!
0:
13
#224500
1!
1:
03
#225000
0!
0:
13
#225500
1!
1:
03
#226000
0!
0:
13
#226500
1!
1:
03
#227000
0!
0:
13
#227500
1!
1:
03
#228000
0!
0:
13
#228500
1!
1:
03
#229000
0!
0:
13
#229500
1!
1:
03
#230000
0!
0:
13
#230500
1!
1:
03
#231000
0!
0:
13
#231500
1!
1:
03
#232000
0!
0:
13
#232500
1!
1:
03
#233000
0!
0:
13
#233500
1!
1:
03
#234000
0!
0:
13
#234500
1!
1:
03
#235000
0!
0:
13
#235500
1!
1:
03
#236000
0!
0:
13
#236500
1!
1:
03
#237000
0!
0:
13
#237500
1!
1:
03
#238000
0!
0:
13
#238500
1!
1:
03
#239000
0!
0:
13
#239500
1!
1:
03
#240000
0!
0:
13
#240500
1!
1:
03
#241000
0!
0:
13
#241500
1!
1:
03
#242000
0!
0:
13
#242500
1!
1:
03
#243000
0!
0:
13
#243500
1!
1:
03
#244000
0!
0:
13
#244500
1!
1:
03
#245000
0!
0:
13
#245500
1!
1:
03
#246000
0!
0:
13
#246500
1!
1:
03
#247000
0!
0:
13
#247500
1!
1:
03
#248000
0!
0:
13
#248500
1!
1:
03
#249000
0!
0:
13
#249500
1!
1:
03
#250000
0!
0:
13
#250500
1!
1:
03
#251000
0!
0:
13
#251500
1!
1:
03
#252000
0!
0:
13
#252500
1!
1:
03
#253000
0!
0:
13
#253500
1!
1:
03
#254000
0!
0:
13
#254500
1!
1:
03
#255000
0!
0:
13
#255500
1!
1:
03
#256000
0!
0:
13
#256500
1!
1:
03
#257000
0!
0:
13
#257500
1!
1:
03
#258000
0!
0:
13
#258500
1!
1:
03
#259000
0!
0:
13
#259500
1!
1:
03
#260000
0!
0:
13
#260500
1!
1:
03
#261000
0!
0:
13
#261500
1!
1:
03
#262000
0!
0:
13
#262500
1!
1:
03
#263000
0!
0:
13
#263500
1!
1:
03
#264000
0!
0:
13
#264500
1!
1:
03
#265000
0!
0:
13
#265500
1!
1:
03
#266000
0!
0:
13
#266500
1!
1:
03
#267000
0!
0:
13
#267500
1!
1:
03
#268000
0!
0:
13
#268500
1!
1:
03
#269000
0!
0:
13
#269500
1!
1:
03
#270000
0!
0:
13
#270500
1!
1:
03
#271000
0!
0:
13
#271500
1!
1:
03
#272000
0!
0:
13
#272500
1!
1:
03
#273000
0!
0:
13
#273500
1!
1:
03
#274000
0!
0:
13
#274500
1!
1:
03
#275000
0!
0:
13
#275500
1!
1:
03
#276000
0!
0:
13
#276500
1!
1:
03
#277000
0!
0:
13
#277500
1!
1:
03
#278000
0!
0:
13
#278500
1!
1:
03
#279000
0!
0:
13
#279500
1!
1:
03
#280000
0!
0:
13
#280500
1!
1:
03
#281000
0!
0:
13
#281500
1!
1:
03
#282000
0!
0:
13
#282500
1!
1:
03
#283000
0!
0:
13
#283500
1!
1:
03
#284000
0!
0:
13
#284500
1!
1:
03
#285000
0!
0:
13
#285500
1!
1:
03
#286000
0!
0:
13
#286500
1!
1:
03
#287000
0!
0:
13
#287500
1!
1:
03
#288000
0!
0:
13
#288500
1!
1:
03
#289000
0!
0:
13
#289500
1!
1:
03
#290000
0!
0:
13
#290500
1!
1:
03
#291000
0!
0:
13
#291500
1!
1:
03
#292000
0!
0:
13
#292500
1!
1:
03
#293000
0!
0:
13
#293500
1!
1:
03
#294000
0!
0:
13
#294500
1!
1:
03
#295000
0!
0:
13
#295500
1!
1:
03
#296000
0!
0:
13
#296500
1!
1:
03
#297000
0!
0:
13
#297500
1!
1:
03
#298000
0!
0:
13
#298500
1!
1:
03
#299000
0!
0:
13
#299500
1!
1:
03
#300000
0!
0:
13
#300500
1!
1:
03
#301000
0!
0:
13
#301500
1!
1:
03
#302000
0!
0:
13
#302500
1!
1:
03
#303000
0!
0:
13
#303500
1!
1:
03
#304000
0!
0:
13
#304500
1!
1:
03
#305000
0!
0:
13
#305500
1!
1:
03
#306000
0!
0:
13
#306500
1!
1:
03
#307000
0!
0:
13
#307500
1!
1:
03
#308000
0!
0:
13
#308500
1!
1:
03
#309000
0!
0:
13
#309500
1!
1:
03
#310000
0!
0:
13
#310500
1!
1:
03
#311000
0!
0:
13
#311500
1!
1:
03
#312000
0!
0:
13
#312500
1!
1:
03
#313000
0!
0:
13
#313500
1!
1:
03
#314000
0!
0:
13
#314500
1!
1:
03
#315000
0!
0:
13
#315500
1!
1:
03
#316000
0!
0:
13
#316500
1!
1:
03
#317000
0!
0:
13
#317500
1!
1:
03
#318000
0!
0:
13
#318500
1!
1:
03
#319000
0!
0:
13
#319500
1!
1:
03
#320000
0!
0:
13
#320500
1!
1:
03
#321000
0!
0:
13
#321500
1!
1:
03
#322000
0!
0:
13
#322500
1!
1:
03
#323000
0!
0:
13
#323500
1!
1:
03
#324000
0!
0:
13
#324500
1!
1:
03
#325000
0!
0:
13
#325500
1!
1:
03
#326000
0!
0:
13
#326500
1!
1:
03
#327000
0!
0:
13
#327500
1!
1:
03
#328000
0!
0:
13
#328500
1!
1:
03
#329000
0!
0:
13
#329500
1!
1:
03
#330000
0!
0:
13
#330500
1!
1:
03
#331000
0!
0:
13
#331500
1!
1:
03
#332000
0!
0:
13
#332500
1!
1:
03
#333000
0!
0:
13
#333500
1!
1:
03
#334000
0!
0:
13
#334500
1!
1:
03
#335000
0!
0:
13
#335500
1!
1:
03
#336000
0!
0:
13
#336500
1!
1:
03
#337000
0!
0:
13
#337500
1!
1:
03
#338000
0!
0:
13
#338500
1!
1:
03
#339000
0!
0:
13
#339500
1!
1:
03
#340000
0!
0:
13
#340500
1!
1:
03
#341000
0!
0:
13
#341500
1!
1:
03
#342000
0!
0:
13
#342500
1!
1:
03
#343000
0!
0:
13
#343500
1!
1:
03
#344000
0!
0:
13
#344500
1!
1:
03
#345000
0!
0:
13
#345500
1!
1:
03
#346000
0!
0:
13
#346500
1!
1:
03
#347000
0!
0:
13
#347500
1!
1:
03
#348000
0!
0:
13
#348500
1!
1:
03
#349000
0!
0:
13
#349500
1!
1:
03
#350000
0!
0:
13
#350500
1!
1:
03
#351000
0!
0:
13
#351500
1!
1:
03
#352000
0!
0:
13
#352500
1!
1:
03
#353000
0!
0:
13
#353500
1!
1:
03
#354000
0!
0:
13
#354500
1!
1:
03
#355000
0!
0:
13
#355500
1!
1:
03
#356000
0!
0:
13
#356500
1!
1:
03
#357000
0!
0:
13
#357500
1!
1:
03
#358000
0!
0:
13
#358500
1!
1:
03
#359000
0!
0:
13
#359500
1!
1:
03
#360000
0!
0:
13
#360500
1!
1:
03
#361000
0!
0:
13
#361500
1!
1:
03
#362000
0!
0:
13
#362500
1!
1:
03
#363000
0!
0:
13
#363500
1!
1:
03
#364000
0!
0:
13
#364500
1!
1:
03
#365000
0!
0:
13
#365500
1!
1:
03
#366000
0!
0:
13
#366500
1!
1:
03
#367000
0!
0:
13
#367500
1!
1:
03
#368000
0!
0:
13
#368500
1!
1:
03
#369000
0!
0:
13
#369500
1!
1:
03
#370000
0!
0:
13
#370500
1!
1:
03
#371000
0!
0:
13
#371500
1!
1:
03
#372000
0!
0:
13
#372500
1!
1:
03
#373000
0!
0:
13
#373500
1!
1:
03
#374000
0!
0:
13
#374500
1!
1:
03
#375000
0!
0:
13
#375500
1!
1:
03
#376000
0!
0:
13
#376500
1!
1:
03
#377000
0!
0:
13
#377500
1!
1:
03
#378000
0!
0:
13
#378500
1!
1:
03
#379000
0!
0:
13
#379500
1!
1:
03
#380000
0!
0:
13
#380500
1!
1:
03
#381000
0!
0:
13
#381500
1!
1:
03
#382000
0!
0:
13
#382500
1!
1:
03
#383000
0!
0:
13
#383500
1!
1:
03
#384000
0!
0:
13
#384500
1!
1:
03
#385000
0!
0:
13
#385500
1!
1:
03
#386000
0!
0:
13
#386500
1!
1:
03
#387000
0!
0:
13
#387500
1!
1:
03
#388000
0!
0:
13
#388500
1!
1:
03
#389000
0!
0:
13
#389500
1!
1:
03
#390000
0!
0:
13
#390500
1!
1:
03
#391000
0!
0:
13
#391500
1!
1:
03
#392000
0!
0:
13
#392500
1!
1:
03
#393000
0!
0:
13
#393500
1!
1:
03
#394000
0!
0:
13
#394500
1!
1:
03
#395000
0!
0:
13
#395500
1!
1:
03
#396000
0!
0:
13
#396500
1!
1:
03
#397000
0!
0:
13
#397500
1!
1:
03
#398000
0!
0:
13
#398500
1!
1:
03
#399000
0!
0:
13
#399500
1!
1:
03
#400000
0!
0:
13
#400500
1!
1:
03
#401000
0!
0:
13
#401500
1!
1:
03
#402000
0!
0:
13
#402500
1!
1:
03
#403000
0!
0:
13
#403500
1!
1:
03
#404000
0!
0:
13
#404500
1!
1:
03
#405000
0!
0:
13
#405500
1!
1:
03
#406000
0!
0:
13
#406500
1!
1:
03
#407000
0!
0:
13
#407500
1!
1:
03
#408000
0!
0:
13
#408500
1!
1:
03
#409000
0!
0:
13
#409500
1!
1:
03
#410000
0!
0:
13
#410500
1!
1:
03
#411000
0!
0:
13
#411500
1!
1:
03
#412000
0!
0:
13
#412500
1!
1:
03
#413000
0!
0:
13
#413500
1!
1:
03
#414000
0!
0:
13
#414500
1!
1:
03
#415000
0!
0:
13
#415500
1!
1:
03
#416000
0!
0:
13
#416500
1!
1:
03
#417000
0!
0:
13
#417500
1!
1:
03
#418000
0!
0:
13
#418500
1!
1:
03
#419000
0!
0:
13
#419500
1!
1:
03
#420000
0!
0:
13
#420500
1!
1:
03
#421000
0!
0:
13
#421500
1!
1:
03
#422000
0!
0:
13
#422500
1!
1:
03
#423000
0!
0:
13
#423500
1!
1:
03
#424000
0!
0:
13
#424500
1!
1:
03
#425000
0!
0:
13
#425500
1!
1:
03
#426000
0!
0:
13
#426500
1!
1:
03
#427000
0!
0:
13
#427500
1!
1:
03
#428000
0!
0:
13
#428500
1!
1:
03
#429000
0!
0:
13
#429500
1!
1:
03
#430000
0!
0:
13
#430500
1!
1:
03
#431000
0!
0:
13
#431500
1!
1:
03
#432000
0!
0:
13
#432500
1!
1:
03
#433000
0!
0:
13
#433500
1!
1:
03
#434000
0!
0:
13
#434500
1!
1:
03
#435000
0!
0:
13
#435500
1!
1:
03
#436000
0!
0:
13
#436500
1!
1:
03
#437000
0!
0:
13
#437500
1!
1:
03
#438000
0!
0:
13
#438500
1!
1:
03
#439000
0!
0:
13
#439500
1!
1:
03
#440000
0!
0:
13
#440500
1!
1:
03
#441000
0!
0:
13
#441500
1!
1:
03
#442000
0!
0:
13
#442500
1!
1:
03
#443000
0!
0:
13
#443500
1!
1:
03
#444000
0!
0:
13
#444500
1!
1:
03
#445000
0!
0:
13
#445500
1!
1:
03
#446000
0!
0:
13
#446500
1!
1:
03
#447000
0!
0:
13
#447500
1!
1:
03
#448000
0!
0:
13
#448500
1!
1:
03
#449000
0!
0:
13
#449500
1!
1:
03
#450000
0!
0:
13
#450500
1!
1:
03
#451000
0!
0:
13
#451500
1!
1:
03
#452000
0!
0:
13
#452500
1!
1:
03
#453000
0!
0:
13
#453500
1!
1:
03
#454000
0!
0:
13
#454500
1!
1:
03
#455000
0!
0:
13
#455500
1!
1:
03
#456000
0!
0:
13
#456500
1!
1:
03
#457000
0!
0:
13
#457500
1!
1:
03
#458000
0!
0:
13
#458500
1!
1:
03
#459000
0!
0:
13
#459500
1!
1:
03
#460000
0!
0:
13
#460500
1!
1:
03
#461000
0!
0:
13
#461500
1!
1:
03
#462000
0!
0:
13
#462500
1!
1:
03
#463000
0!
0:
13
#463500
1!
1:
03
#464000
0!
0:
13
#464500
1!
1:
03
#465000
0!
0:
13
#465500
1!
1:
03
#466000
0!
0:
13
#466500
1!
1:
03
#467000
0!
0:
13
#467500
1!
1:
03
#468000
0!
0:
13
#468500
1!
1:
03
#469000
0!
0:
13
#469500
1!
1:
03
#470000
0!
0:
13
#470500
1!
1:
03
#471000
0!
0:
13
#471500
1!
1:
03
#472000
0!
0:
13
#472500
1!
1:
03
#473000
0!
0:
13
#473500
1!
1:
03
#474000
0!
0:
13
#474500
1!
1:
03
#475000
0!
0:
13
#475500
1!
1:
03
#476000
0!
0:
13
#476500
1!
1:
03
#477000
0!
0:
13
#477500
1!
1:
03
#478000
0!
0:
13
#478500
1!
1:
03
#479000
0!
0:
13
#479500
1!
1:
03
#480000
0!
0:
13
#480500
1!
1:
03
#481000
0!
0:
13
#481500
1!
1:
03
#482000
0!
0:
13
#482500
1!
1:
03
#483000
0!
0:
13
#483500
1!
1:
03
#484000
0!
0:
13
#484500
1!
1:
03
#485000
0!
0:
13
#485500
1!
1:
03
#486000
0!
0:
13
#486500
1!
1:
03
#487000
0!
0:
13
#487500
1!
1:
03
#488000
0!
0:
13
#488500
1!
1:
03
#489000
0!
0:
13
#489500
1!
1:
03
#490000
0!
0:
13
#490500
1!
1:
03
#491000
0!
0:
13
#491500
1!
1:
03
#492000
0!
0:
13
#492500
1!
1:
03
#493000
0!
0:
13
#493500
1!
1:
03
#494000
0!
0:
13
#494500
1!
1:
03
#495000
0!
0:
13
#495500
1!
1:
03
#496000
0!
0:
13
#496500
1!
1:
03
#497000
0!
0:
13
#497500
1!
1:
03
#498000
0!
0:
13
#498500
1!
1:
03
#499000
0!
0:
13
#499500
1!
1:
03
#500000
0!
0:
13
#500500
1!
1:
03
#501000
0!
0:
13
#501500
1!
1:
03
#502000
0!
0:
13
#502500
1!
1:
03
#503000
0!
0:
13
#503500
1!
1:
03
#504000
0!
0:
13
#504500
1!
1:
03
#505000
0!
0:
13
#505500
1!
1:
03
#506000
0!
0:
13
#506500
1!
1:
03
#507000
0!
0:
13
#507500
1!
1:
03
#508000
0!
0:
13
#508500
1!
1:
03
#509000
0!
0:
13
#509500
1!
1:
03
#510000
0!
0:
13
#510500
1!
1:
03
#511000
0!
0:
13
#511500
1!
1:
03
#512000
0!
0:
13
#512500
1!
1:
03
#513000
0!
0:
13
#513500
1!
1:
03
#514000
0!
0:
13
#514500
1!
1:
03
#515000
0!
0:
13
#515500
1!
1:
03
#516000
0!
0:
13
#516500
1!
1:
03
#517000
0!
0:
13
#517500
1!
1:
03
#518000
0!
0:
13
#518500
1!
1:
03
#519000
0!
0:
13
#519500
1!
1:
03
#520000
0!
0:
13
#520500
1!
1:
03
#521000
0!
0:
13
#521500
1!
1:
03
#522000
0!
0:
13
#522500
1!
1:
03
#523000
0!
0:
13
#523500
1!
1:
03
#524000
0!
0:
13
#524500
1!
1:
03
#525000
0!
0:
13
#525500
1!
1:
03
#526000
0!
0:
13
#526500
1!
1:
03
#527000
0!
0:
13
#527500
1!
1:
03
#528000
0!
0:
13
#528500
1!
1:
03
#529000
0!
0:
13
#529500
1!
1:
03
#530000
0!
0:
13
#530500
1!
1:
03
#531000
0!
0:
13
#531500
1!
1:
03
#532000
0!
0:
13
#532500
1!
1:
03
#533000
0!
0:
13
#533500
1!
1:
03
#534000
0!
0:
13
#534500
1!
1:
03
#535000
0!
0:
13
#535500
1!
1:
03
#536000
0!
0:
13
#536500
1!
1:
03
#537000
0!
0:
13
#537500
1!
1:
03
#538000
0!
0:
13
#538500
1!
1:
03
#539000
0!
0:
13
#539500
1!
1:
03
#540000
0!
0:
13
#540500
1!
1:
03
#541000
0!
0:
13
#541500
1!
1:
03
#542000
0!
0:
13
#542500
1!
1:
03
#543000
0!
0:
13
#543500
1!
1:
03
#544000
0!
0:
13
#544500
1!
1:
03
#545000
0!
0:
13
#545500
1!
1:
03
#546000
0!
0:
13
#546500
1!
1:
03
#547000
0!
0:
13
#547500
1!
1:
03
#548000
0!
0:
13
#548500
1!
1:
03
#549000
0!
0:
13
#549500
1!
1:
03
#550000
0!
0:
13
#550500
1!
1:
03
#551000
0!
0:
13
#551500
1!
1:
03
#552000
0!
0:
13
#552500
1!
1:
03
#553000
0!
0:
13
#553500
1!
1:
03
#554000
0!
0:
13
#554500
1!
1:
03
#555000
0!
0:
13
#555500
1!
1:
03
#556000
0!
0:
13
#556500
1!
1:
03
#557000
0!
0:
13
#557500
1!
1:
03
#558000
0!
0:
13
#558500
1!
1:
03
#559000
0!
0:
13
#559500
1!
1:
03
#560000
0!
0:
13
#560500
1!
1:
03
#561000
0!
0:
13
#561500
1!
1:
03
#562000
0!
0:
13
#562500
1!
1:
03
#563000
0!
0:
13
#563500
1!
1:
03
#564000
0!
0:
13
#564500
1!
1:
03
#565000
0!
0:
13
#565500
1!
1:
03
#566000
0!
0:
13
#566500
1!
1:
03
#567000
0!
0:
13
#567500
1!
1:
03
#568000
0!
0:
13
#568500
1!
1:
03
#569000
0!
0:
13
#569500
1!
1:
03
#570000
0!
0:
13
#570500
1!
1:
03
#571000
0!
0:
13
#571500
1!
1:
03
#572000
0!
0:
13
#572500
1!
1:
03
#573000
0!
0:
13
#573500
1!
1:
03
#574000
0!
0:
13
#574500
1!
1:
03
#575000
0!
0:
13
#575500
1!
1:
03
#576000
0!
0:
13
#576500
1!
1:
03
#577000
0!
0:
13
#577500
1!
1:
03
#578000
0!
0:
13
#578500
1!
1:
03
