Laboratorio/Practicas/simulation/qsim/practicas.msim.vcd
$comment
	File created using the following command:
		vcd file practicas.msim.vcd -direction
$end
$date
	Tue Apr 30 20:15:33 2024
$end
$version
	ModelSim Version 10.1d
$end
$timescale
	1ps
$end
$scope module prot_vlg_vec_tst $end
$var reg 1 ! Rx $end
$var reg 1 " ck $end
$var reg 4 # cmd [3:0] $end
$var wire 1 $ MF $end
$var wire 1 % Mtbt $end
$var wire 1 & Tx $end
$var wire 1 ' sampler $end
$scope module i1 $end
$var wire 1 ( gnd $end
$var wire 1 ) vcc $end
$var wire 1 * unknown $end
$var tri1 1 + devclrn $end
$var tri1 1 , devpor $end
$var tri1 1 - devoe $end
$var wire 1 . igtb1|rc[0]~24_combout $end
$var wire 1 / igtb1|rc[6]~37_combout $end
$var wire 1 0 igtb1|rc[10]~45_combout $end
$var wire 1 1 igtb1|rc[14]~53_combout $end
$var wire 1 2 igtb1|rc[17]~59_combout $end
$var wire 1 3 igtb1|rc[20]~65_combout $end
$var wire 1 4 rtx[3]~10_combout $end
$var wire 1 5 igtb1|Equal0~1_combout $end
$var wire 1 6 Rx~input_o $end
$var wire 1 7 MF~output_o $end
$var wire 1 8 Mtbt~output_o $end
$var wire 1 9 Tx~output_o $end
$var wire 1 : cmd[3]~input_o $end
$var wire 1 ; cmd[0]~input_o $end
$var wire 1 < cmd[1]~input_o $end
$var wire 1 = rbuff~10_combout $end
$var wire 1 > cmd[2]~input_o $end
$var wire 1 ? Equal0~0_combout $end
$var wire 1 @ rtx~3_combout $end
$var wire 1 A rcnt[1]~3_combout $end
$var wire 1 B rcnt[0]~4_combout $end
$var wire 1 C rcnt[2]~2_combout $end
$var wire 1 D Add1~0_combout $end
$var wire 1 E rcnt[3]~1_combout $end
$var wire 1 F wf~2_combout $end
$var wire 1 G rtx[8]~2_combout $end
$var wire 1 H rtx[8]~4_combout $end
$var wire 1 I rtx[7]~5_combout $end
$var wire 1 J rtx[6]~6_combout $end
$var wire 1 K rtx~0_combout $end
$var wire 1 L rbuff~11_combout $end
$var wire 1 M rtx[4]~8_combout $end
$var wire 1 N rtx[4]~9_combout $end
$var wire 1 O rtx[5]~7_combout $end
$var wire 1 P rtx[2]~11_combout $end
$var wire 1 Q rtx~1_combout $end
$var wire 1 R wf~3_combout $end
$var wire 1 S rcnt[2]~0_combout $end
$var wire 1 T rtx[1]~12_combout $end
$var wire 1 U WideOr1~combout $end
$var wire 1 V rcByt~3_combout $end
$var wire 1 W rcByt~2_combout $end
$var wire 1 X rcByt~0_combout $end
$var wire 1 Y rcByt~1_combout $end
$var wire 1 Z wf~4_combout $end
$var wire 1 [ rbuff~12_combout $end
$var wire 1 \ rbuff~13_combout $end
$var wire 1 ] wf~0_combout $end
$var wire 1 ^ wf~1_combout $end
$var wire 1 _ wf~combout $end
$var wire 1 ` ck~input_o $end
$var wire 1 a ck~inputclkctrl_outclk $end
$var wire 1 b igtb1|rc[0]~25 $end
$var wire 1 c igtb1|rc[1]~28 $end
$var wire 1 d igtb1|rc[2]~29_combout $end
$var wire 1 e igtb1|rc[21]~69_combout $end
$var wire 1 f igtb1|rc[21]~26_combout $end
$var wire 1 g igtb1|rc[2]~30 $end
$var wire 1 h igtb1|rc[3]~31_combout $end
$var wire 1 i ~GND~combout $end
$var wire 1 j igtb1|rc[3]~32 $end
$var wire 1 k igtb1|rc[4]~33_combout $end
$var wire 1 l igtb1|rc[4]~34 $end
$var wire 1 m igtb1|rc[5]~35_combout $end
$var wire 1 n igtb1|rc[5]~36 $end
$var wire 1 o igtb1|rc[6]~38 $end
$var wire 1 p igtb1|rc[7]~39_combout $end
$var wire 1 q igtb1|rc[7]~40 $end
$var wire 1 r igtb1|rc[8]~42 $end
$var wire 1 s igtb1|rc[9]~43_combout $end
$var wire 1 t igtb1|rc[9]~44 $end
$var wire 1 u igtb1|rc[10]~46 $end
$var wire 1 v igtb1|rc[11]~47_combout $end
$var wire 1 w igtb1|rc[11]~48 $end
$var wire 1 x igtb1|rc[12]~49_combout $end
$var wire 1 y igtb1|rc[12]~50 $end
$var wire 1 z igtb1|rc[13]~52 $end
$var wire 1 { igtb1|rc[14]~54 $end
$var wire 1 | igtb1|rc[15]~56 $end
$var wire 1 } igtb1|rc[16]~57_combout $end
$var wire 1 ~ igtb1|rc[16]~58 $end
$var wire 1 !! igtb1|rc[17]~60 $end
$var wire 1 "! igtb1|rc[18]~61_combout $end
$var wire 1 #! igtb1|rc[18]~62 $end
$var wire 1 $! igtb1|rc[19]~63_combout $end
$var wire 1 %! igtb1|Equal0~5_combout $end
$var wire 1 &! igtb1|rc[19]~64 $end
$var wire 1 '! igtb1|rc[20]~66 $end
$var wire 1 (! igtb1|rc[21]~67_combout $end
$var wire 1 )! igtb1|rc[1]~27_combout $end
$var wire 1 *! igtb1|Equal0~0_combout $end
$var wire 1 +! igtb1|rc[8]~41_combout $end
$var wire 1 ,! igtb1|Equal0~2_combout $end
$var wire 1 -! igtb1|rc[13]~51_combout $end
$var wire 1 .! igtb1|rc[15]~55_combout $end
$var wire 1 /! igtb1|Equal0~3_combout $end
$var wire 1 0! igtb1|Equal0~4_combout $end
$var wire 1 1! igtb1|Equal0~6_combout $end
$var wire 1 2! igtb1|rckd~0_combout $end
$var wire 1 3! igtb1|rckd~q $end
$var wire 1 4! igtb1|rckd~clkctrl_outclk $end
$var wire 1 5! rtx~13_combout $end
$var wire 1 6! rtx~14_combout $end
$var wire 1 7! rtx [9] $end
$var wire 1 8! rtx [8] $end
$var wire 1 9! rtx [7] $end
$var wire 1 :! rtx [6] $end
$var wire 1 ;! rtx [5] $end
$var wire 1 <! rtx [4] $end
$var wire 1 =! rtx [3] $end
$var wire 1 >! rtx [2] $end
$var wire 1 ?! rtx [1] $end
$var wire 1 @! rtx [0] $end
$var wire 1 A! rcnt [3] $end
$var wire 1 B! rcnt [2] $end
$var wire 1 C! rcnt [1] $end
$var wire 1 D! rcnt [0] $end
$var wire 1 E! rcByt [2] $end
$var wire 1 F! rcByt [1] $end
$var wire 1 G! rcByt [0] $end
$var wire 1 H! rbuff [47] $end
$var wire 1 I! rbuff [46] $end
$var wire 1 J! rbuff [45] $end
$var wire 1 K! rbuff [44] $end
$var wire 1 L! rbuff [43] $end
$var wire 1 M! rbuff [42] $end
$var wire 1 N! rbuff [41] $end
$var wire 1 O! rbuff [40] $end
$var wire 1 P! rbuff [39] $end
$var wire 1 Q! rbuff [38] $end
$var wire 1 R! rbuff [37] $end
$var wire 1 S! rbuff [36] $end
$var wire 1 T! rbuff [35] $end
$var wire 1 U! rbuff [34] $end
$var wire 1 V! rbuff [33] $end
$var wire 1 W! rbuff [32] $end
$var wire 1 X! rbuff [31] $end
$var wire 1 Y! rbuff [30] $end
$var wire 1 Z! rbuff [29] $end
$var wire 1 [! rbuff [28] $end
$var wire 1 \! rbuff [27] $end
$var wire 1 ]! rbuff [26] $end
$var wire 1 ^! rbuff [25] $end
$var wire 1 _! rbuff [24] $end
$var wire 1 `! rbuff [23] $end
$var wire 1 a! rbuff [22] $end
$var wire 1 b! rbuff [21] $end
$var wire 1 c! rbuff [20] $end
$var wire 1 d! rbuff [19] $end
$var wire 1 e! rbuff [18] $end
$var wire 1 f! rbuff [17] $end
$var wire 1 g! rbuff [16] $end
$var wire 1 h! rbuff [15] $end
$var wire 1 i! rbuff [14] $end
$var wire 1 j! rbuff [13] $end
$var wire 1 k! rbuff [12] $end
$var wire 1 l! rbuff [11] $end
$var wire 1 m! rbuff [10] $end
$var wire 1 n! rbuff [9] $end
$var wire 1 o! rbuff [8] $end
$var wire 1 p! rbuff [7] $end
$var wire 1 q! rbuff [6] $end
$var wire 1 r! rbuff [5] $end
$var wire 1 s! rbuff [4] $end
$var wire 1 t! rbuff [3] $end
$var wire 1 u! rbuff [2] $end
$var wire 1 v! rbuff [1] $end
$var wire 1 w! rbuff [0] $end
$var wire 1 x! igtb1|rc [21] $end
$var wire 1 y! igtb1|rc [20] $end
$var wire 1 z! igtb1|rc [19] $end
$var wire 1 {! igtb1|rc [18] $end
$var wire 1 |! igtb1|rc [17] $end
$var wire 1 }! igtb1|rc [16] $end
$var wire 1 ~! igtb1|rc [15] $end
$var wire 1 !" igtb1|rc [14] $end
$var wire 1 "" igtb1|rc [13] $end
$var wire 1 #" igtb1|rc [12] $end
$var wire 1 $" igtb1|rc [11] $end
$var wire 1 %" igtb1|rc [10] $end
$var wire 1 &" igtb1|rc [9] $end
$var wire 1 '" igtb1|rc [8] $end
$var wire 1 (" igtb1|rc [7] $end
$var wire 1 )" igtb1|rc [6] $end
$var wire 1 *" igtb1|rc [5] $end
$var wire 1 +" igtb1|rc [4] $end
$var wire 1 ," igtb1|rc [3] $end
$var wire 1 -" igtb1|rc [2] $end
$var wire 1 ." igtb1|rc [1] $end
$var wire 1 /" igtb1|rc [0] $end
$upscope $end
$upscope $end
$enddefinitions $end
#0
$dumpvars
0!
0"
b0 #
0$
0%
1&
x'
0(
1)
x*
1+
1,
1-
1.
1/
10
11
12
13
04
05
06
07
08
19
0:
0;
0<
0=
0>
0?
0@
0A
0B
0C
0D
0E
1F
0G
0H
0I
0J
1K
0L
0M
0N
0O
0P
1Q
1R
0S
0T
0U
0V
0W
0X
0Y
1Z
0[
0\
0]
0^
0_
0`
0a
0b
1c
1d
0e
1f
0g
1h
0i
1j
1k
0l
1m
1n
0o
1p
1q
0r
1s
1t
0u
1v
1w
1x
0y
1z
0{
1|
1}
0~
1!!
1"!
0#!
1$!
0%!
1&!
0'!
1(!
1)!
0*!
1+!
0,!
1-!
1.!
0/!
00!
01!
12!
03!
04!
15!
06!
0@!
0?!
0>!
0=!
0<!
0;!
0:!
09!
08!
07!
0D!
0C!
0B!
0A!
0G!
0F!
0E!
zw!
zv!
zu!
zt!
zs!
zr!
zq!
zp!
zo!
zn!
zm!
zl!
zk!
zj!
zi!
zh!
zg!
zf!
ze!
zd!
zc!
zb!
za!
z`!
z_!
z^!
z]!
z\!
z[!
zZ!
zY!
zX!
0W!
zV!
zU!
zT!
zS!
zR!
zQ!
zP!
0O!
zN!
zM!
0L!
zK!
zJ!
zI!
zH!
0/"
0."
0-"
0,"
0+"
0*"
0)"
0("
0'"
0&"
0%"
0$"
0#"
0""
0!"
0~!
0}!
0|!
0{!
0z!
0y!
0x!
$end
#250
1"
1`
1a
0'
#500
0"
0`
0a
1'
13!
14!
18
1%
#750
1"
1`
1a
0'
#1000
0"
0`
0a
1'
#1250
1"
1`
1a
0'
#1500
0"
0`
0a
1'
#1750
1"
1`
1a
0'
#2000
0"
0`
0a
1'
#2250
1"
1`
1a
0'
#2500
0"
0`
0a
1'
#2750
1"
1`
1a
0'
#3000
0"
0`
0a
1'
#3250
1"
1`
1a
0'
#3500
0"
0`
0a
1'
#3750
1"
1`
1a
0'
#4000
0"
0`
0a
1'
#4250
1"
1`
1a
0'
#4500
0"
0`
0a
1'
#4750
1"
1`
1a
0'
#5000
0"
0`
0a
1'
#5250
1"
1`
1a
0'
#5500
0"
0`
0a
1'
#5750
1"
1`
1a
0'
#6000
0"
0`
0a
1'
#6250
1"
1`
1a
0'
#6500
0"
0`
0a
1'
#6750
1"
1`
1a
0'
#7000
0"
0`
0a
1'
#7250
1"
1`
1a
0'
#7500
0"
0`
0a
1'
#7750
1"
1`
1a
0'
#8000
0"
0`
0a
1'
#8250
1"
1`
1a
0'
#8500
0"
0`
0a
1'
#8750
1"
1`
1a
0'
#9000
0"
0`
0a
1'
#9250
1"
1`
1a
0'
#9500
0"
0`
0a
1'
#9750
1"
1`
1a
0'
#10000
0"
0`
0a
1'
#10250
1"
1`
1a
0'
#10500
0"
0`
0a
1'
#10750
1"
1`
1a
0'
#11000
0"
0`
0a
1'
#11250
1"
1`
1a
0'
#11500
0"
0`
0a
1'
#11750
1"
1`
1a
0'
#12000
0"
0`
0a
1'
#12250
1"
1`
1a
0'
#12500
0"
0`
0a
1'
#12750
1"
1`
1a
0'
#13000
0"
0`
0a
1'
#13250
1"
1`
1a
0'
#13500
0"
0`
0a
1'
#13750
1"
1`
1a
0'
#14000
0"
0`
0a
1'
#14250
1"
1`
1a
0'
#14500
0"
0`
0a
1'
#14750
1"
1`
1a
0'
#15000
0"
0`
0a
1'
#15250
1"
1`
1a
0'
#15500
0"
0`
0a
1'
#15750
1"
1`
1a
0'
#16000
0"
0`
0a
1'
#16250
1"
1`
1a
0'
#16500
0"
0`
0a
1'
#16750
1"
1`
1a
0'
#17000
0"
0`
0a
1'
#17250
1"
1`
1a
0'
#17500
0"
0`
0a
1'
#17750
1"
1`
1a
0'
#18000
0"
0`
0a
1'
#18250
1"
1`
1a
0'
#18500
0"
0`
0a
1'
#18750
1"
1`
1a
0'
#19000
0"
0`
0a
1'
#19250
1"
1`
1a
0'
#19500
0"
0`
0a
1'
#19750
1"
1`
1a
0'
#20000
0"
0`
0a
1'
#20250
1"
1`
1a
0'
#20500
0"
0`
0a
1'
#20750
1"
1`
1a
0'
#21000
0"
0`
0a
1'
#21250
1"
1`
1a
0'
#21500
0"
0`
0a
1'
#21750
1"
1`
1a
0'
#22000
0"
0`
0a
1'
#22250
1"
1`
1a
0'
#22500
0"
0`
0a
1'
#22750
1"
1`
1a
0'
#23000
0"
0`
0a
1'
#23250
1"
1`
1a
0'
#23500
0"
0`
0a
1'
#23750
1"
1`
1a
0'
#24000
0"
0`
0a
1'
#24250
1"
1`
1a
0'
#24500
0"
0`
0a
1'
#24750
1"
1`
1a
0'
#25000
0"
0`
0a
1'
#25250
1"
1`
1a
0'
#25500
0"
0`
0a
1'
#25750
1"
1`
1a
0'
#26000
0"
0`
0a
1'
#26250
1"
1`
1a
0'
#26500
0"
0`
0a
1'
#26750
1"
1`
1a
0'
#27000
0"
0`
0a
1'
#27250
1"
1`
1a
0'
#27500
0"
0`
0a
1'
#27750
1"
1`
1a
0'
#28000
0"
0`
0a
1'
#28250
1"
1`
1a
0'
#28500
0"
0`
0a
1'
#28750
1"
1`
1a
0'
#29000
0"
0`
0a
1'
#29250
1"
1`
1a
0'
#29500
0"
0`
0a
1'
#29750
1"
1`
1a
0'
#30000
0"
0`
0a
1'
#30250
1"
1`
1a
0'
#30500
0"
0`
0a
1'
#30750
1"
1`
1a
0'
#31000
0"
0`
0a
1'
#31250
1"
1`
1a
0'
#31500
0"
0`
0a
1'
#31750
1"
1`
1a
0'
#32000
0"
0`
0a
1'
#32250
1"
1`
1a
0'
#32500
0"
0`
0a
1'
#32750
1"
1`
1a
0'
#33000
0"
0`
0a
1'
#33250
1"
1`
1a
0'
#33500
0"
0`
0a
1'
#33750
1"
1`
1a
0'
#34000
0"
0`
0a
1'
#34250
1"
1`
1a
0'
#34500
0"
0`
0a
1'
#34750
1"
1`
1a
0'
#35000
0"
0`
0a
1'
#35250
1"
1`
1a
0'
#35500
0"
0`
0a
1'
#35750
1"
1`
1a
0'
#36000
0"
0`
0a
1'
#36250
1"
1`
1a
0'
#36500
0"
0`
0a
1'
#36750
1"
1`
1a
0'
#37000
0"
0`
0a
1'
#37250
1"
1`
1a
0'
#37500
0"
0`
0a
1'
#37750
1"
1`
1a
0'
#38000
0"
0`
0a
1'
#38250
1"
1`
1a
0'
#38500
0"
0`
0a
1'
#38750
1"
1`
1a
0'
#39000
0"
0`
0a
1'
#39250
1"
1`
1a
0'
#39500
0"
0`
0a
1'
#39750
1"
1`
1a
0'
#40000
0"
0`
0a
1'
#40250
1"
1`
1a
0'
#40500
0"
0`
0a
1'
#40750
1"
1`
1a
0'
#41000
0"
0`
0a
1'
#41250
1"
1`
1a
0'
#41500
0"
0`
0a
1'
#41750
1"
1`
1a
0'
#42000
0"
0`
0a
1'
#42250
1"
1`
1a
0'
#42500
0"
0`
0a
1'
#42750
1"
1`
1a
0'
#43000
0"
0`
0a
1'
#43250
1"
1`
1a
0'
#43500
0"
0`
0a
1'
#43750
1"
1`
1a
0'
#44000
0"
0`
0a
1'
#44250
1"
1`
1a
0'
#44500
0"
0`
0a
1'
#44750
1"
1`
1a
0'
#45000
0"
0`
0a
1'
#45250
1"
1`
1a
0'
#45500
0"
0`
0a
1'
#45750
1"
1`
1a
0'
#46000
0"
0`
0a
1'
#46250
1"
1`
1a
0'
#46500
0"
0`
0a
1'
#46750
1"
1`
1a
0'
#47000
0"
0`
0a
1'
#47250
1"
1`
1a
0'
#47500
0"
0`
0a
1'
#47750
1"
1`
1a
0'
#48000
0"
0`
0a
1'
#48250
1"
1`
1a
0'
#48500
0"
0`
0a
1'
#48750
1"
1`
1a
0'
#49000
0"
0`
0a
1'
#49250
1"
1`
1a
0'
#49500
0"
0`
0a
1'
#49750
1"
1`
1a
0'
#50000
0"
0`
0a
1'
#50250
1"
1`
1a
0'
#50500
0"
0`
0a
1'
#50750
1"
1`
1a
0'
#51000
0"
0`
0a
1'
#51250
1"
1`
1a
0'
#51500
0"
0`
0a
1'
#51750
1"
1`
1a
0'
#52000
0"
0`
0a
1'
#52250
1"
1`
1a
0'
#52500
0"
0`
0a
1'
#52750
1"
1`
1a
0'
#53000
0"
0`
0a
1'
#53250
1"
1`
1a
0'
#53500
0"
0`
0a
1'
#53750
1"
1`
1a
0'
#54000
0"
0`
0a
1'
#54250
1"
1`
1a
0'
#54500
0"
0`
0a
1'
#54750
1"
1`
1a
0'
#55000
0"
0`
0a
1'
#55250
1"
1`
1a
0'
#55500
0"
0`
0a
1'
#55750
1"
1`
1a
0'
#56000
0"
0`
0a
1'
#56250
1"
1`
1a
0'
#56500
0"
0`
0a
1'
#56750
1"
1`
1a
0'
#57000
0"
0`
0a
1'
#57250
1"
1`
1a
0'
#57500
0"
0`
0a
1'
#57750
1"
1`
1a
0'
#58000
0"
0`
0a
1'
#58250
1"
1`
1a
0'
#58500
0"
0`
0a
1'
#58750
1"
1`
1a
0'
#59000
0"
0`
0a
1'
#59250
1"
1`
1a
0'
#59500
0"
0`
0a
1'
#59750
1"
1`
1a
0'
#60000
0"
0`
0a
1'
#60250
1"
1`
1a
0'
#60500
0"
0`
0a
1'
#60750
1"
1`
1a
0'
#61000
0"
0`
0a
1'
#61250
1"
1`
1a
0'
#61500
0"
0`
0a
1'
#61750
1"
1`
1a
0'
#62000
0"
0`
0a
1'
#62250
1"
1`
1a
0'
#62500
0"
0`
0a
1'
#62750
1"
1`
1a
0'
#63000
0"
0`
0a
1'
#63250
1"
1`
1a
0'
#63500
0"
0`
0a
1'
#63750
1"
1`
1a
0'
#64000
0"
0`
0a
1'
#64250
1"
1`
1a
0'
#64500
0"
0`
0a
1'
#64750
1"
1`
1a
0'
#65000
0"
0`
0a
1'
#65250
1"
1`
1a
0'
#65500
0"
0`
0a
1'
#65750
1"
1`
1a
0'
#66000
0"
0`
0a
1'
#66250
1"
1`
1a
0'
#66500
0"
0`
0a
1'
#66750
1"
1`
1a
0'
#67000
0"
0`
0a
1'
#67250
1"
1`
1a
0'
#67500
0"
0`
0a
1'
#67750
1"
1`
1a
0'
#68000
0"
0`
0a
1'
#68250
1"
1`
1a
0'
#68500
0"
0`
0a
1'
#68750
1"
1`
1a
0'
#69000
0"
0`
0a
1'
#69250
1"
1`
1a
0'
#69500
0"
0`
0a
1'
#69750
1"
1`
1a
0'
#70000
0"
0`
0a
1'
#70250
1"
1`
1a
0'
#70500
0"
0`
0a
1'
#70750
1"
1`
1a
0'
#71000
0"
0`
0a
1'
#71250
1"
1`
1a
0'
#71500
0"
0`
0a
1'
#71750
1"
1`
1a
0'
#72000
0"
0`
0a
1'
#72250
1"
1`
1a
0'
#72500
0"
0`
0a
1'
#72750
1"
1`
1a
0'
#73000
0"
0`
0a
1'
#73250
1"
1`
1a
0'
#73500
0"
0`
0a
1'
#73750
1"
1`
1a
0'
#74000
0"
0`
0a
1'
#74250
1"
1`
1a
0'
#74500
0"
0`
0a
1'
#74750
1"
1`
1a
0'
#75000
0"
0`
0a
1'
#75250
1"
1`
1a
0'
#75500
0"
0`
0a
1'
#75750
1"
1`
1a
0'
#76000
0"
0`
0a
1'
#76250
1"
1`
1a
0'
#76500
0"
0`
0a
1'
#76750
1"
1`
1a
0'
#77000
0"
0`
0a
1'
#77250
1"
1`
1a
0'
#77500
0"
0`
0a
1'
#77750
1"
1`
1a
0'
#78000
0"
0`
0a
1'
#78250
1"
1`
1a
0'
#78500
0"
0`
0a
1'
#78750
1"
1`
1a
0'
#79000
0"
0`
0a
1'
#79250
1"
1`
1a
0'
#79500
0"
0`
0a
1'
#79750
1"
1`
1a
0'
#80000
0"
0`
0a
1'
#80250
1"
1`
1a
0'
#80500
0"
0`
0a
1'
#80750
1"
1`
1a
0'
#81000
0"
0`
0a
1'
#81250
1"
1`
1a
0'
#81500
0"
0`
0a
1'
#81750
1"
1`
1a
0'
#82000
0"
0`
0a
1'
#82250
1"
1`
1a
0'
#82500
0"
0`
0a
1'
#82750
1"
1`
1a
0'
#83000
0"
0`
0a
1'
#83250
1"
1`
1a
0'
#83500
0"
0`
0a
1'
#83750
1"
1`
1a
0'
#84000
0"
0`
0a
1'
#84250
1"
1`
1a
0'
#84500
0"
0`
0a
1'
#84750
1"
1`
1a
0'
#85000
0"
0`
0a
1'
#85250
1"
1`
1a
0'
#85500
0"
0`
0a
1'
#85750
1"
1`
1a
0'
#86000
0"
0`
0a
1'
#86250
1"
1`
1a
0'
#86500
0"
0`
0a
1'
#86750
1"
1`
1a
0'
#87000
0"
0`
0a
1'
#87250
1"
1`
1a
0'
#87500
0"
0`
0a
1'
#87750
1"
1`
1a
0'
#88000
0"
0`
0a
1'
#88250
1"
1`
1a
0'
#88500
0"
0`
0a
1'
#88750
1"
1`
1a
0'
#89000
0"
0`
0a
1'
#89250
1"
1`
1a
0'
#89500
0"
0`
0a
1'
#89750
1"
1`
1a
0'
#90000
0"
0`
0a
1'
#90250
1"
1`
1a
0'
#90500
0"
0`
0a
1'
#90750
1"
1`
1a
0'
#91000
0"
0`
0a
1'
#91250
1"
1`
1a
0'
#91500
0"
0`
0a
1'
#91750
1"
1`
1a
0'
#92000
0"
0`
0a
1'
#92250
1"
1`
1a
0'
#92500
0"
0`
0a
1'
#92750
1"
1`
1a
0'
#93000
0"
0`
0a
1'
#93250
1"
1`
1a
0'
#93500
0"
0`
0a
1'
#93750
1"
1`
1a
0'
#94000
0"
0`
0a
1'
#94250
1"
1`
1a
0'
#94500
0"
0`
0a
1'
#94750
1"
1`
1a
0'
#95000
0"
0`
0a
1'
#95250
1"
1`
1a
0'
#95500
0"
0`
0a
1'
#95750
1"
1`
1a
0'
#96000
0"
0`
0a
1'
#96250
1"
1`
1a
0'
#96500
0"
0`
0a
1'
#96750
1"
1`
1a
0'
#97000
0"
0`
0a
1'
#97250
1"
1`
1a
0'
#97500
0"
0`
0a
1'
#97750
1"
1`
1a
0'
#98000
0"
0`
0a
1'
#98250
1"
1`
1a
0'
#98500
0"
0`
0a
1'
#98750
1"
1`
1a
0'
#99000
0"
0`
0a
1'
#99250
1"
1`
1a
0'
#99500
0"
0`
0a
1'
#99750
1"
1`
1a
0'
#100000
b1000 #
b1001 #
0"
1;
1:
0`
0a
1'
1^
1?
1Y
1W
1V
1M
1L
1G
1@
1_
1N
1P
1J
1H
16!
1\
0W
1E
1A
02!
17
1$
#100250
1"
1`
1a
0'
#100500
0"
0`
0a
1'
1-"
03!
04!
1*!
1g
0d
12!
08
0%
10!
0j
0h
11!
1l
0k
02!
0f
0n
0m
1o
0/
0q
0p
1r
0+!
0t
0s
1u
00
0w
0v
1y
0x
0z
0-!
1{
01
0|
0.!
1~
0}
0!!
02
1#!
0"!
0&!
0$!
1'!
03
0(!
1C!
1A!
18!
1:!
17!
1L!
1<!
1>!
1G!
1E!
1O!
1@!
0F
0K
1]
0Q
1e
0Z
1X
05!
09
0&
0R
1U
1S
1[
0V
0@
1T
0P
1O
0N
0J
1I
1B
14
0\
1W
0A
#100750
1"
1`
1a
0'
#101000
0"
0`
0a
1'
1/"
0-"
1."
1b
0.
0g
1d
0c
0)!
1)!
1j
1h
1g
0d
0l
1k
0j
0h
1n
1m
1l
0k
0o
1/
0n
0m
1q
1p
1o
0/
0r
1+!
0q
0p
1t
1s
1r
0+!
0u
10
0t
0s
1w
1v
1u
00
0y
1x
0w
0v
1z
1-!
1y
0x
0{
11
0z
0-!
1|
1.!
1{
01
0~
1}
0|
0.!
1!!
12
1~
0}
0#!
1"!
0!!
02
1&!
1$!
1#!
0"!
0'!
13
0&!
0$!
1(!
1'!
03
0(!
#101250
1"
1`
1a
0'
#101500
0"
0`
0a
1'
0/"
0b
1.
0)!
#101750
1"
1`
1a
0'
#102000
0"
0`
0a
1'
1/"
0."
1b
0.
1c
1)!
0c
0)!
0g
1d
1g
0d
1j
1h
0j
0h
0l
1k
1l
0k
1n
1m
0n
0m
0o
1/
1o
0/
1q
1p
0q
0p
0r
1+!
1r
0+!
1t
1s
0t
0s
0u
10
1u
00
1w
1v
0w
0v
0y
1x
1y
0x
1z
1-!
0z
0-!
0{
11
1{
01
1|
1.!
0|
0.!
0~
1}
1~
0}
1!!
12
0!!
02
0#!
1"!
1#!
0"!
1&!
1$!
0&!
0$!
0'!
13
1'!
03
1(!
0(!
#102250
1"
1`
1a
0'
#102500
0"
0`
0a
1'
0/"
0*!
0b
1.
00!
1c
1)!
01!
0g
1d
12!
1f
1j
1h
0l
1k
1n
1m
0o
1/
1q
1p
0r
1+!
1t
1s
0u
10
1w
1v
0y
1x
1z
1-!
0{
11
1|
1.!
0~
1}
1!!
12
0#!
1"!
1&!
1$!
0'!
13
1(!
#102750
1"
1`
1a
0'
#103000
0"
0`
0a
1'
1-"
13!
14!
1*!
1g
0d
02!
18
1%
10!
0j
0h
11!
1l
0k
12!
0f
0n
0m
1o
0/
0q
0p
1r
0+!
0t
0s
1u
00
0w
0v
1y
0x
0z
0-!
1{
01
0|
0.!
1~
0}
0!!
02
1#!
0"!
0&!
0$!
1'!
03
0(!
#103250
1"
1`
1a
0'
#103500
0"
0`
0a
1'
1/"
0-"
1."
1b
0.
0g
1d
0c
0)!
1)!
1j
1h
1g
0d
0l
1k
0j
0h
1n
1m
1l
0k
0o
1/
0n
0m
1q
1p
1o
0/
0r
1+!
0q
0p
1t
1s
1r
0+!
0u
10
0t
0s
1w
1v
1u
00
0y
1x
0w
0v
1z
1-!
1y
0x
0{
11
0z
0-!
1|
1.!
1{
01
0~
1}
0|
0.!
1!!
12
1~
0}
0#!
1"!
0!!
02
1&!
1$!
1#!
0"!
0'!
13
0&!
0$!
1(!
1'!
03
0(!
#103750
1"
1`
1a
0'
#104000
0"
0`
0a
1'
0/"
0b
1.
0)!
#104250
1"
1`
1a
0'
#104500
0"
0`
0a
1'
1/"
0."
1b
0.
1c
1)!
0c
0)!
0g
1d
1g
0d
1j
1h
0j
0h
0l
1k
1l
0k
1n
1m
0n
0m
0o
1/
1o
0/
1q
1p
0q
0p
0r
1+!
1r
0+!
1t
1s
0t
0s
0u
10
1u
00
1w
1v
0w
0v
0y
1x
1y
0x
1z
1-!
0z
0-!
0{
11
1{
01
1|
1.!
0|
0.!
0~
1}
1~
0}
1!!
12
0!!
02
0#!
1"!
1#!
0"!
1&!
1$!
0&!
0$!
0'!
13
1'!
03
1(!
0(!
#104750
1"
1`
1a
0'
#105000
b1 #
b0 #
0"
0;
0:
0`
0a
1'
0?
1\
0[
0W
1V
0G
1=
0/"
0*!
0b
1.
00!
1c
1)!
01!
0g
1d
02!
1f
1j
1h
0l
1k
1n
1m
0o
1/
1q
1p
0r
1+!
1t
1s
0u
10
1w
1v
0y
1x
1z
1-!
0{
11
1|
1.!
0~
1}
1!!
12
0#!
1"!
1&!
1$!
0'!
13
1(!
#105250
1"
1`
1a
0'
#105500
0"
0`
0a
1'
1-"
03!
04!
1*!
1g
0d
12!
08
0%
10!
0j
0h
11!
1l
0k
02!
0f
0n
0m
1o
0/
0q
0p
1r
0+!
0t
0s
1u
00
0w
0v
1y
0x
0z
0-!
1{
01
0|
0.!
1~
0}
0!!
02
1#!
0"!
0&!
0$!
1'!
03
0(!
1=!
0C!
1D!
19!
0:!
07!
0<!
1;!
0>!
1?!
1P
0B
1J
0O
0H
04
1N
0T
06!
#105750
1"
1`
1a
0'
#106000
0"
0`
0a
1'
1/"
0-"
1."
1b
0.
0g
1d
0c
0)!
1)!
1j
1h
1g
0d
0l
1k
0j
0h
1n
1m
1l
0k
0o
1/
0n
0m
1q
1p
1o
0/
0r
1+!
0q
0p
1t
1s
1r
0+!
0u
10
0t
0s
1w
1v
1u
00
0y
1x
0w
0v
1z
1-!
1y
0x
0{
11
0z
0-!
1|
1.!
1{
01
0~
1}
0|
0.!
1!!
12
1~
0}
0#!
1"!
0!!
02
1&!
1$!
1#!
0"!
0'!
13
0&!
0$!
1(!
1'!
03
0(!
#106250
1"
1`
1a
0'
#106500
0"
0`
0a
1'
0/"
0b
1.
0)!
#106750
1"
1`
1a
0'
#107000
0"
0`
0a
1'
1/"
0."
1b
0.
1c
1)!
0c
0)!
0g
1d
1g
0d
1j
1h
0j
0h
0l
1k
1l
0k
1n
1m
0n
0m
0o
1/
1o
0/
1q
1p
0q
0p
0r
1+!
1r
0+!
1t
1s
0t
0s
0u
10
1u
00
1w
1v
0w
0v
0y
1x
1y
0x
1z
1-!
0z
0-!
0{
11
1{
01
1|
1.!
0|
0.!
0~
1}
1~
0}
1!!
12
0!!
02
0#!
1"!
1#!
0"!
1&!
1$!
0&!
0$!
0'!
13
1'!
03
1(!
0(!
#107250
1"
1`
1a
0'
