Laboratorio/Practicas/simulation/qsim/practicas.msim.vcd
$comment
	File created using the following command:
		vcd file practicas.msim.vcd -direction
$end
$date
	Sun Mar 03 12:17:57 2024
$end
$version
	ModelSim Version 10.1d
$end
$timescale
	1ps
$end
$scope module flipflop_d_vlg_vec_tst $end
$var reg 1 ! clk $end
$var reg 17 " data [16:0] $end
$var wire 1 # sQ [16] $end
$var wire 1 $ sQ [15] $end
$var wire 1 % sQ [14] $end
$var wire 1 & sQ [13] $end
$var wire 1 ' sQ [12] $end
$var wire 1 ( sQ [11] $end
$var wire 1 ) sQ [10] $end
$var wire 1 * sQ [9] $end
$var wire 1 + sQ [8] $end
$var wire 1 , sQ [7] $end
$var wire 1 - sQ [6] $end
$var wire 1 . sQ [5] $end
$var wire 1 / sQ [4] $end
$var wire 1 0 sQ [3] $end
$var wire 1 1 sQ [2] $end
$var wire 1 2 sQ [1] $end
$var wire 1 3 sQ [0] $end
$var wire 1 4 sampler $end
$scope module i1 $end
$var wire 1 5 gnd $end
$var wire 1 6 vcc $end
$var wire 1 7 unknown $end
$var tri1 1 8 devclrn $end
$var tri1 1 9 devpor $end
$var tri1 1 : devoe $end
$var wire 1 ; sQ[0]~output_o $end
$var wire 1 < sQ[1]~output_o $end
$var wire 1 = sQ[2]~output_o $end
$var wire 1 > sQ[3]~output_o $end
$var wire 1 ? sQ[4]~output_o $end
$var wire 1 @ sQ[5]~output_o $end
$var wire 1 A sQ[6]~output_o $end
$var wire 1 B sQ[7]~output_o $end
$var wire 1 C sQ[8]~output_o $end
$var wire 1 D sQ[9]~output_o $end
$var wire 1 E sQ[10]~output_o $end
$var wire 1 F sQ[11]~output_o $end
$var wire 1 G sQ[12]~output_o $end
$var wire 1 H sQ[13]~output_o $end
$var wire 1 I sQ[14]~output_o $end
$var wire 1 J sQ[15]~output_o $end
$var wire 1 K sQ[16]~output_o $end
$var wire 1 L clk~input_o $end
$var wire 1 M clk~inputclkctrl_outclk $end
$var wire 1 N data[0]~input_o $end
$var wire 1 O sQ[0]~reg0feeder_combout $end
$var wire 1 P sQ[0]~reg0_q $end
$var wire 1 Q data[1]~input_o $end
$var wire 1 R sQ[1]~reg0feeder_combout $end
$var wire 1 S sQ[1]~reg0_q $end
$var wire 1 T data[2]~input_o $end
$var wire 1 U sQ[2]~reg0feeder_combout $end
$var wire 1 V sQ[2]~reg0_q $end
$var wire 1 W data[3]~input_o $end
$var wire 1 X sQ[3]~reg0feeder_combout $end
$var wire 1 Y sQ[3]~reg0_q $end
$var wire 1 Z data[4]~input_o $end
$var wire 1 [ sQ[4]~reg0_q $end
$var wire 1 \ data[5]~input_o $end
$var wire 1 ] sQ[5]~reg0feeder_combout $end
$var wire 1 ^ sQ[5]~reg0_q $end
$var wire 1 _ data[6]~input_o $end
$var wire 1 ` sQ[6]~reg0feeder_combout $end
$var wire 1 a sQ[6]~reg0_q $end
$var wire 1 b data[7]~input_o $end
$var wire 1 c sQ[7]~reg0feeder_combout $end
$var wire 1 d sQ[7]~reg0_q $end
$var wire 1 e data[8]~input_o $end
$var wire 1 f sQ[8]~reg0feeder_combout $end
$var wire 1 g sQ[8]~reg0_q $end
$var wire 1 h data[9]~input_o $end
$var wire 1 i sQ[9]~reg0feeder_combout $end
$var wire 1 j sQ[9]~reg0_q $end
$var wire 1 k data[10]~input_o $end
$var wire 1 l sQ[10]~reg0_q $end
$var wire 1 m data[11]~input_o $end
$var wire 1 n sQ[11]~reg0_q $end
$var wire 1 o data[12]~input_o $end
$var wire 1 p sQ[12]~reg0_q $end
$var wire 1 q data[13]~input_o $end
$var wire 1 r sQ[13]~reg0feeder_combout $end
$var wire 1 s sQ[13]~reg0_q $end
$var wire 1 t data[14]~input_o $end
$var wire 1 u sQ[14]~reg0feeder_combout $end
$var wire 1 v sQ[14]~reg0_q $end
$var wire 1 w data[15]~input_o $end
$var wire 1 x sQ[15]~reg0_q $end
$var wire 1 y data[16]~input_o $end
$var wire 1 z sQ[16]~reg0feeder_combout $end
$var wire 1 { sQ[16]~reg0_q $end
$upscope $end
$upscope $end
$enddefinitions $end
#0
$dumpvars
0!
b11100101011001101 "
03
02
01
00
0/
0.
0-
0,
0+
0*
0)
0(
0'
0&
0%
0$
0#
x4
05
16
x7
18
19
1:
0;
0<
0=
0>
0?
0@
0A
0B
0C
0D
0E
0F
0G
0H
0I
0J
0K
0L
0M
1N
1O
0P
0Q
0R
0S
1T
1U
0V
1W
1X
0Y
0Z
0[
0\
0]
0^
1_
1`
0a
1b
1c
0d
0e
0f
0g
1h
1i
0j
0k
0l
1m
0n
0o
0p
0q
0r
0s
1t
1u
0v
1w
0x
1y
1z
0{
$end
#500
1!
1L
1M
04
#1000
0!
0L
0M
14
1P
1V
1Y
1a
1d
1j
1n
1v
1x
1{
1;
1=
1>
1A
1B
1D
1F
1I
1J
1K
13
11
10
1-
1,
1*
1(
1%
1$
1#
#1500
1!
1L
1M
04
#2000
0!
0L
0M
14
#2500
1!
1L
1M
04
#3000
0!
0L
0M
14
#3500
1!
1L
1M
04
#4000
0!
0L
0M
14
#4500
1!
1L
1M
04
#5000
0!
0L
0M
14
#5500
1!
1L
1M
04
#6000
0!
0L
0M
14
#6500
1!
1L
1M
04
#7000
0!
0L
0M
14
#7500
1!
1L
1M
04
#8000
0!
0L
0M
14
#8500
1!
1L
1M
04
#9000
0!
0L
0M
14
#9500
1!
1L
1M
04
#10000
0!
0L
0M
14
#10500
1!
1L
1M
04
#11000
0!
0L
0M
14
#11500
1!
1L
1M
04
#12000
0!
0L
0M
14
#12500
1!
1L
1M
04
#13000
0!
0L
0M
14
#13500
1!
1L
1M
04
#14000
0!
0L
0M
14
#14500
1!
1L
1M
04
#15000
0!
0L
0M
14
#15500
1!
1L
1M
04
#16000
0!
0L
0M
14
#16500
1!
1L
1M
04
#17000
0!
0L
0M
14
#17500
1!
1L
1M
04
#18000
0!
0L
0M
14
#18500
1!
1L
1M
04
#19000
0!
0L
0M
14
#19500
1!
1L
1M
04
#20000
0!
0L
0M
14
#20500
1!
1L
1M
04
#21000
0!
0L
0M
14
#21500
1!
1L
1M
04
#22000
0!
0L
0M
14
#22500
1!
1L
1M
04
#23000
0!
0L
0M
14
#23500
1!
1L
1M
04
#24000
0!
0L
0M
14
#24500
1!
1L
1M
04
#25000
0!
0L
0M
14
#25500
1!
1L
1M
04
#26000
0!
0L
0M
14
#26500
1!
1L
1M
04
#27000
0!
0L
0M
14
#27500
1!
1L
1M
04
#28000
0!
0L
0M
14
#28500
1!
1L
1M
04
#29000
0!
0L
0M
14
#29500
1!
1L
1M
04
#30000
0!
0L
0M
14
#30500
1!
1L
1M
04
#31000
0!
0L
0M
14
#31500
1!
1L
1M
04
#32000
0!
0L
0M
14
#32500
1!
1L
1M
04
#33000
0!
0L
0M
14
#33500
1!
1L
1M
04
#34000
0!
0L
0M
14
#34500
1!
1L
1M
04
#35000
0!
0L
0M
14
#35500
1!
1L
1M
04
#36000
0!
0L
0M
14
#36500
1!
1L
1M
04
#37000
0!
0L
0M
14
#37500
1!
1L
1M
04
#38000
0!
0L
0M
14
#38500
1!
1L
1M
04
#39000
0!
0L
0M
14
#39500
1!
1L
1M
04
#40000
0!
0L
0M
14
#40500
1!
1L
1M
04
#41000
0!
0L
0M
14
#41500
1!
1L
1M
04
#42000
0!
0L
0M
14
#42500
1!
1L
1M
04
#43000
0!
0L
0M
14
#43500
1!
1L
1M
04
#44000
0!
0L
0M
14
#44500
1!
1L
1M
04
#45000
0!
0L
0M
14
#45500
1!
1L
1M
04
#46000
0!
0L
0M
14
#46500
1!
1L
1M
04
#47000
0!
0L
0M
14
#47500
1!
1L
1M
04
#48000
0!
0L
0M
14
#48500
1!
1L
1M
04
#49000
0!
0L
0M
14
#49500
1!
1L
1M
04
#50000
0!
0L
0M
14
#50500
1!
1L
1M
04
#51000
0!
0L
0M
14
#51500
1!
1L
1M
04
#52000
0!
0L
0M
14
#52500
1!
1L
1M
04
#53000
0!
0L
0M
14
#53500
1!
1L
1M
04
#54000
0!
0L
0M
14
#54500
1!
1L
1M
04
#55000
0!
0L
0M
14
#55500
1!
1L
1M
04
#56000
0!
0L
0M
14
#56500
1!
1L
1M
04
#57000
0!
0L
0M
14
#57500
1!
1L
1M
04
#58000
0!
0L
0M
14
#58500
1!
1L
1M
04
#59000
0!
0L
0M
14
#59500
1!
1L
1M
04
#60000
0!
0L
0M
14
#60500
1!
1L
1M
04
#61000
0!
0L
0M
14
#61500
1!
1L
1M
04
#62000
0!
0L
0M
14
#62500
1!
1L
1M
04
#63000
0!
0L
0M
14
#63500
1!
1L
1M
04
#64000
0!
0L
0M
14
#64500
1!
1L
1M
04
#65000
0!
0L
0M
14
#65500
1!
1L
1M
04
#66000
0!
0L
0M
14
#66500
1!
1L
1M
04
#67000
0!
0L
0M
14
#67500
1!
1L
1M
04
#68000
0!
0L
0M
14
#68500
1!
1L
1M
04
#69000
0!
0L
0M
14
#69500
1!
1L
1M
04
#70000
0!
0L
0M
14
#70500
1!
1L
1M
04
#71000
0!
0L
0M
14
#71500
1!
1L
1M
04
#72000
0!
0L
0M
14
#72500
1!
1L
1M
04
#73000
0!
0L
0M
14
#73500
1!
1L
1M
04
#74000
0!
0L
0M
14
#74500
1!
1L
1M
04
#75000
0!
0L
0M
14
#75500
1!
1L
1M
04
#76000
0!
0L
0M
14
#76500
1!
1L
1M
04
#77000
0!
0L
0M
14
#77500
1!
1L
1M
04
#78000
0!
0L
0M
14
#78500
1!
1L
1M
04
#79000
0!
0L
0M
14
#79500
1!
1L
1M
04
#80000
0!
0L
0M
14
#80500
1!
1L
1M
04
#81000
0!
0L
0M
14
#81500
1!
1L
1M
04
#82000
0!
0L
0M
14
#82500
1!
1L
1M
04
#83000
0!
0L
0M
14
#83500
1!
1L
1M
04
#84000
0!
0L
0M
14
#84500
1!
1L
1M
04
#85000
0!
0L
0M
14
#85500
1!
1L
1M
04
#86000
0!
0L
0M
14
#86500
1!
1L
1M
04
#87000
0!
0L
0M
14
#87500
1!
1L
1M
04
#88000
0!
0L
0M
14
#88500
1!
1L
1M
04
#89000
0!
0L
0M
14
#89500
1!
1L
1M
04
#90000
0!
0L
0M
14
#90500
1!
1L
1M
04
#91000
0!
0L
0M
14
#91500
1!
1L
1M
04
#92000
0!
0L
0M
14
#92500
1!
1L
1M
04
#93000
0!
0L
0M
14
#93500
1!
1L
1M
04
#94000
0!
0L
0M
14
#94500
1!
1L
1M
04
#95000
0!
0L
0M
14
#95500
1!
1L
1M
04
#96000
0!
0L
0M
14
#96500
1!
1L
1M
04
#97000
0!
0L
0M
14
#97500
1!
1L
1M
04
#98000
0!
0L
0M
14
#98500
1!
1L
1M
04
#99000
0!
0L
0M
14
#99500
1!
1L
1M
04
#100000
0!
0L
0M
14
#100500
1!
1L
1M
04
#101000
0!
0L
0M
14
#101500
1!
1L
1M
04
#102000
0!
0L
0M
14
#102500
1!
1L
1M
04
#103000
0!
0L
0M
14
#103500
1!
1L
1M
04
#104000
0!
0L
0M
14
#104500
1!
1L
1M
04
#105000
0!
0L
0M
14
#105500
1!
1L
1M
04
#106000
0!
0L
0M
14
#106500
1!
1L
1M
04
#107000
0!
0L
0M
14
#107500
1!
1L
1M
04
#108000
0!
0L
0M
14
#108500
1!
1L
1M
04
#109000
0!
0L
0M
14
#109500
1!
1L
1M
04
#110000
0!
0L
0M
14
#110500
1!
1L
1M
04
#111000
0!
0L
0M
14
#111500
1!
1L
1M
04
#112000
0!
0L
0M
14
#112500
1!
1L
1M
04
#113000
0!
0L
0M
14
#113500
1!
1L
1M
04
#114000
0!
0L
0M
14
#114500
1!
1L
1M
04
#115000
0!
0L
0M
14
#115500
1!
1L
1M
04
#116000
0!
0L
0M
14
#116500
1!
1L
1M
04
#117000
0!
0L
0M
14
#117500
1!
1L
1M
04
#118000
0!
0L
0M
14
#118500
1!
1L
1M
04
#119000
0!
0L
0M
14
#119500
1!
1L
1M
04
#120000
0!
0L
0M
14
#120500
1!
1L
1M
04
#121000
0!
0L
0M
14
#121500
1!
1L
1M
04
#122000
0!
0L
0M
14
#122500
1!
1L
1M
04
#123000
0!
0L
0M
14
#123500
1!
1L
1M
04
#124000
0!
0L
0M
14
#124500
1!
1L
1M
04
#125000
0!
0L
0M
14
#125500
1!
1L
1M
04
#126000
0!
0L
0M
14
#126500
1!
1L
1M
04
#127000
0!
0L
0M
14
#127500
1!
1L
1M
04
#128000
0!
0L
0M
14
#128500
1!
1L
1M
04
#129000
0!
0L
0M
14
#129500
1!
1L
1M
04
#130000
0!
0L
0M
14
#130500
1!
1L
1M
04
#131000
0!
0L
0M
14
#131500
1!
1L
1M
04
#132000
0!
0L
0M
14
#132500
1!
1L
1M
04
#133000
0!
0L
0M
14
#133500
1!
1L
1M
04
#134000
0!
0L
0M
14
#134500
1!
1L
1M
04
#135000
0!
0L
0M
14
#135500
1!
1L
1M
04
#136000
0!
0L
0M
14
#136500
1!
1L
1M
04
#137000
0!
0L
0M
14
#137500
1!
1L
1M
04
#138000
0!
0L
0M
14
#138500
1!
1L
1M
04
#139000
0!
0L
0M
14
#139500
1!
1L
1M
04
#140000
0!
0L
0M
14
#140500
1!
1L
1M
04
#141000
0!
0L
0M
14
#141500
1!
1L
1M
04
#142000
0!
0L
0M
14
#142500
1!
1L
1M
04
#143000
0!
0L
0M
14
#143500
1!
1L
1M
04
#144000
0!
0L
0M
14
#144500
1!
1L
1M
04
#145000
0!
0L
0M
14
#145500
1!
1L
1M
04
#146000
0!
0L
0M
14
#146500
1!
1L
1M
04
#147000
0!
0L
0M
14
#147500
1!
1L
1M
04
#148000
0!
0L
0M
14
#148500
1!
1L
1M
04
#149000
0!
0L
0M
14
#149500
1!
1L
1M
04
#150000
0!
0L
0M
14
#150500
1!
1L
1M
04
#151000
0!
0L
0M
14
#151500
1!
1L
1M
04
#152000
0!
0L
0M
14
#152500
1!
1L
1M
04
#153000
0!
0L
0M
14
#153500
1!
1L
1M
04
#154000
0!
0L
0M
14
#154500
1!
1L
1M
04
#155000
0!
0L
0M
14
#155500
1!
1L
1M
04
#156000
0!
0L
0M
14
#156500
1!
1L
1M
04
#157000
0!
0L
0M
14
#157500
1!
1L
1M
04
#158000
0!
0L
0M
14
#158500
1!
1L
1M
04
#159000
0!
0L
0M
14
#159500
1!
1L
1M
04
#160000
0!
0L
0M
14
#160500
1!
1L
1M
04
#161000
0!
0L
0M
14
#161500
1!
1L
1M
04
#162000
0!
0L
0M
14
#162500
1!
1L
1M
04
#163000
0!
0L
0M
14
#163500
1!
1L
1M
04
#164000
0!
0L
0M
14
#164500
1!
1L
1M
04
#165000
0!
0L
0M
14
#165500
1!
1L
1M
04
#166000
0!
0L
0M
14
#166500
1!
1L
1M
04
#167000
0!
0L
0M
14
#167500
1!
1L
1M
04
#168000
0!
0L
0M
14
#168500
1!
1L
1M
04
#169000
0!
0L
0M
14
#169500
1!
1L
1M
04
#170000
0!
0L
0M
14
#170500
1!
1L
1M
04
#171000
0!
0L
0M
14
#171500
1!
1L
1M
04
#172000
0!
0L
0M
14
#172500
1!
1L
1M
04
#173000
0!
0L
0M
14
#173500
1!
1L
1M
04
#174000
0!
0L
0M
14
#174500
1!
1L
1M
04
#175000
0!
0L
0M
14
#175500
1!
1L
1M
04
#176000
0!
0L
0M
14
#176500
1!
1L
1M
04
#177000
0!
0L
0M
14
#177500
1!
1L
1M
04
#178000
0!
0L
0M
14
#178500
1!
1L
1M
04
#179000
0!
0L
0M
14
#179500
1!
1L
1M
04
#180000
0!
0L
0M
14
#180500
1!
1L
1M
04
#181000
0!
0L
0M
14
#181500
1!
1L
1M
04
#182000
0!
0L
0M
14
#182500
1!
1L
1M
04
#183000
0!
0L
0M
14
#183500
1!
1L
1M
04
#184000
0!
0L
0M
14
#184500
1!
1L
1M
04
#185000
0!
0L
0M
14
#185500
1!
1L
1M
04
#186000
0!
0L
0M
14
#186500
1!
1L
1M
04
#187000
0!
0L
0M
14
#187500
1!
1L
1M
04
#188000
0!
0L
0M
14
#188500
1!
1L
1M
04
#189000
0!
0L
0M
14
#189500
1!
1L
1M
04
#190000
0!
0L
0M
14
#190500
1!
1L
1M
04
#191000
0!
0L
0M
14
#191500
1!
1L
1M
04
#192000
0!
0L
0M
14
#192500
1!
1L
1M
04
#193000
0!
0L
0M
14
#193500
1!
1L
1M
04
#194000
0!
0L
0M
14
#194500
1!
1L
1M
04
#195000
0!
0L
0M
14
#195500
1!
1L
1M
04
#196000
0!
0L
0M
14
#196500
1!
1L
1M
04
#197000
0!
0L
0M
14
#197500
1!
1L
1M
04
#198000
0!
0L
0M
14
#198500
1!
1L
1M
04
#199000
0!
0L
0M
14
#199500
1!
1L
1M
04
#200000
0!
0L
0M
14
#200500
1!
1L
1M
04
#201000
0!
0L
0M
14
#201500
1!
1L
1M
04
#202000
0!
0L
0M
14
#202500
1!
1L
1M
04
#203000
0!
0L
0M
14
#203500
1!
1L
1M
04
#204000
0!
0L
0M
14
#204500
1!
1L
1M
04
#205000
0!
0L
0M
14
#205500
1!
1L
1M
04
#206000
0!
0L
0M
14
#206500
1!
1L
1M
04
#207000
0!
0L
0M
14
#207500
1!
1L
1M
04
#208000
0!
0L
0M
14
#208500
1!
1L
1M
04
#209000
0!
0L
0M
14
#209500
1!
1L
1M
04
#210000
0!
0L
0M
14
#210500
1!
1L
1M
04
#211000
0!
0L
0M
14
#211500
1!
1L
1M
04
#212000
0!
0L
0M
14
#212500
1!
1L
1M
04
#213000
0!
0L
0M
14
#213500
1!
1L
1M
04
#214000
0!
0L
0M
14
#214500
1!
1L
1M
04
#215000
0!
0L
0M
14
#215500
1!
1L
1M
04
#216000
0!
0L
0M
14
#216500
1!
1L
1M
04
#217000
0!
0L
0M
14
#217500
1!
1L
1M
04
#218000
0!
0L
0M
14
#218500
1!
1L
1M
04
#219000
0!
0L
0M
14
#219500
1!
1L
1M
04
#220000
0!
0L
0M
14
#220500
1!
1L
1M
04
#221000
0!
0L
0M
14
#221500
1!
1L
1M
04
#222000
0!
0L
0M
14
#222500
1!
1L
1M
04
#223000
0!
0L
0M
14
#223500
1!
1L
1M
04
#224000
0!
0L
0M
14
#224500
1!
1L
1M
04
#225000
0!
0L
0M
14
#225500
1!
1L
1M
04
#226000
0!
0L
0M
14
#226500
1!
1L
1M
04
#227000
0!
0L
0M
14
#227500
1!
1L
1M
04
#228000
0!
0L
0M
14
#228500
1!
1L
1M
04
#229000
0!
0L
0M
14
#229500
1!
1L
1M
04
#230000
0!
0L
0M
14
#230500
1!
1L
1M
04
#231000
0!
0L
0M
14
#231500
1!
1L
1M
04
#232000
0!
0L
0M
14
#232500
1!
1L
1M
04
#233000
0!
0L
0M
14
#233500
1!
1L
1M
04
#234000
0!
0L
0M
14
#234500
1!
1L
1M
04
#235000
0!
0L
0M
14
#235500
1!
1L
1M
04
#236000
0!
0L
0M
14
#236500
1!
1L
1M
04
#237000
0!
0L
0M
14
#237500
1!
1L
1M
04
#238000
0!
0L
0M
14
#238500
1!
1L
1M
04
#239000
0!
0L
0M
14
#239500
1!
1L
1M
04
#240000
0!
0L
0M
14
#240500
1!
1L
1M
04
#241000
0!
0L
0M
14
#241500
1!
1L
1M
04
#242000
0!
0L
0M
14
#242500
1!
1L
1M
04
#243000
0!
0L
0M
14
#243500
1!
1L
1M
04
#244000
0!
0L
0M
14
#244500
1!
1L
1M
04
#245000
0!
0L
0M
14
#245500
1!
1L
1M
04
#246000
0!
0L
0M
14
#246500
1!
1L
1M
04
#247000
0!
0L
0M
14
#247500
1!
1L
1M
04
#248000
0!
0L
0M
14
#248500
1!
1L
1M
04
#249000
0!
0L
0M
14
#249500
1!
1L
1M
04
#250000
0!
0L
0M
14
#250500
1!
1L
1M
04
#251000
0!
0L
0M
14
#251500
1!
1L
1M
04
#252000
0!
0L
0M
14
#252500
1!
1L
1M
04
#253000
0!
0L
0M
14
#253500
1!
1L
1M
04
#254000
0!
0L
0M
14
#254500
1!
1L
1M
04
#255000
0!
0L
0M
14
#255500
1!
1L
1M
04
#256000
0!
0L
0M
14
#256500
1!
1L
1M
04
#257000
0!
0L
0M
14
#257500
1!
1L
1M
04
#258000
0!
0L
0M
14
#258500
1!
1L
1M
04
#259000
0!
0L
0M
14
#259500
1!
1L
1M
04
#260000
0!
0L
0M
14
#260500
1!
1L
1M
04
#261000
0!
0L
0M
14
#261500
1!
1L
1M
04
#262000
0!
0L
0M
14
#262500
1!
1L
1M
04
#263000
0!
0L
0M
14
#263500
1!
1L
1M
04
#264000
0!
0L
0M
14
#264500
1!
1L
1M
04
#265000
0!
0L
0M
14
#265500
1!
1L
1M
04
#266000
0!
0L
0M
14
#266500
1!
1L
1M
04
#267000
0!
0L
0M
14
#267500
1!
1L
1M
04
#268000
0!
0L
0M
14
#268500
1!
1L
1M
04
#269000
0!
0L
0M
14
#269500
1!
1L
1M
04
#270000
0!
0L
0M
14
#270500
1!
1L
1M
04
#271000
0!
0L
0M
14
#271500
1!
1L
1M
04
#272000
0!
0L
0M
14
#272500
1!
1L
1M
04
#273000
0!
0L
0M
14
#273500
1!
1L
1M
04
#274000
0!
0L
0M
14
#274500
1!
1L
1M
04
#275000
0!
0L
0M
14
#275500
1!
1L
1M
04
#276000
0!
0L
0M
14
#276500
1!
1L
1M
04
#277000
0!
0L
0M
14
#277500
1!
1L
1M
04
#278000
0!
0L
0M
14
#278500
1!
1L
1M
04
#279000
0!
0L
0M
14
#279500
1!
1L
1M
04
#280000
0!
0L
0M
14
#280500
1!
1L
1M
04
#281000
0!
0L
0M
14
#281500
1!
1L
1M
04
#282000
0!
0L
0M
14
#282500
1!
1L
1M
04
#283000
0!
0L
0M
14
#283500
1!
1L
1M
04
#284000
0!
0L
0M
14
#284500
1!
1L
1M
04
#285000
0!
0L
0M
14
#285500
1!
1L
1M
04
#286000
0!
0L
0M
14
#286500
1!
1L
1M
04
#287000
0!
0L
0M
14
#287500
1!
1L
1M
04
#288000
0!
0L
0M
14
#288500
1!
1L
1M
04
#289000
0!
0L
0M
14
#289500
1!
1L
1M
04
#290000
0!
0L
0M
14
#290500
1!
1L
1M
04
#291000
0!
0L
0M
14
#291500
1!
1L
1M
04
#292000
0!
0L
0M
14
#292500
1!
1L
1M
04
#293000
0!
0L
0M
14
#293500
1!
1L
1M
04
#294000
0!
0L
0M
14
#294500
1!
1L
1M
04
#295000
0!
0L
0M
14
#295500
1!
1L
1M
04
#296000
0!
0L
0M
14
#296500
1!
1L
1M
04
#297000
0!
0L
0M
14
#297500
1!
1L
1M
04
#298000
0!
0L
0M
14
#298500
1!
1L
1M
04
#299000
0!
0L
0M
14
#299500
1!
1L
1M
04
#300000
0!
0L
0M
14
#300500
1!
1L
1M
04
#301000
0!
0L
0M
14
#301500
1!
1L
1M
04
#302000
0!
0L
0M
14
#302500
1!
1L
1M
04
#303000
0!
0L
0M
14
#303500
1!
1L
1M
04
#304000
0!
0L
0M
14
#304500
1!
1L
1M
04
#305000
0!
0L
0M
14
#305500
1!
1L
1M
04
#306000
0!
0L
0M
14
#306500
1!
1L
1M
04
#307000
0!
0L
0M
14
#307500
1!
1L
1M
04
#308000
0!
0L
0M
14
#308500
1!
1L
1M
04
#309000
0!
0L
0M
14
#309500
1!
1L
1M
04
#310000
0!
0L
0M
14
#310500
1!
1L
1M
04
#311000
0!
0L
0M
14
#311500
1!
1L
1M
04
#312000
0!
0L
0M
14
#312500
1!
1L
1M
04
#313000
0!
0L
0M
14
#313500
1!
1L
1M
04
#314000
0!
0L
0M
14
#314500
1!
1L
1M
04
#315000
0!
0L
0M
14
#315500
1!
1L
1M
04
#316000
0!
0L
0M
14
#316500
1!
1L
1M
04
#317000
0!
0L
0M
14
#317500
1!
1L
1M
04
#318000
0!
0L
0M
14
#318500
1!
1L
1M
04
#319000
0!
0L
0M
14
#319500
1!
1L
1M
04
#320000
0!
0L
0M
14
#320500
1!
1L
1M
04
#321000
0!
0L
0M
14
#321500
1!
1L
1M
04
#322000
0!
0L
0M
14
#322500
1!
1L
1M
04
#323000
0!
0L
0M
14
#323500
1!
1L
1M
04
#324000
0!
0L
0M
14
#324500
1!
1L
1M
04
#325000
0!
0L
0M
14
#325500
1!
1L
1M
04
#326000
0!
0L
0M
14
#326500
1!
1L
1M
04
#327000
0!
0L
0M
14
#327500
1!
1L
1M
04
#328000
0!
0L
0M
14
#328500
1!
1L
1M
04
#329000
0!
0L
0M
14
#329500
1!
1L
1M
04
#330000
0!
0L
0M
14
#330500
1!
1L
1M
04
#331000
0!
0L
0M
14
#331500
1!
1L
1M
04
#332000
0!
0L
0M
14
#332500
1!
1L
1M
04
#333000
0!
0L
0M
14
#333500
1!
1L
1M
04
#334000
0!
0L
0M
14
#334500
1!
1L
1M
04
#335000
0!
0L
0M
14
#335500
1!
1L
1M
04
#336000
0!
0L
0M
14
#336500
1!
1L
1M
04
#337000
0!
0L
0M
14
#337500
1!
1L
1M
04
#338000
0!
0L
0M
14
#338500
1!
1L
1M
04
#339000
0!
0L
0M
14
#339500
1!
1L
1M
04
#340000
0!
0L
0M
14
#340500
1!
1L
1M
04
#341000
0!
0L
0M
14
#341500
1!
1L
1M
04
#342000
0!
0L
0M
14
#342500
1!
1L
1M
04
#343000
0!
0L
0M
14
#343500
1!
1L
1M
04
#344000
0!
0L
0M
14
#344500
1!
1L
1M
04
#345000
0!
0L
0M
14
#345500
1!
1L
1M
04
#346000
0!
0L
0M
14
#346500
1!
1L
1M
04
#347000
0!
0L
0M
14
#347500
1!
1L
1M
04
#348000
0!
0L
0M
14
#348500
1!
1L
1M
04
#349000
0!
0L
0M
14
#349500
1!
1L
1M
04
#350000
0!
0L
0M
14
#350500
1!
1L
1M
04
#351000
0!
0L
0M
14
#351500
1!
1L
1M
04
#352000
0!
0L
0M
14
#352500
1!
1L
1M
04
#353000
0!
0L
0M
14
#353500
1!
1L
1M
04
#354000
0!
0L
0M
14
#354500
1!
1L
1M
04
#355000
0!
0L
0M
14
#355500
1!
1L
1M
04
#356000
0!
0L
0M
14
#356500
1!
1L
1M
04
#357000
0!
0L
0M
14
#357500
1!
1L
1M
04
#358000
0!
0L
0M
14
#358500
1!
1L
1M
04
#359000
0!
0L
0M
14
#359500
1!
1L
1M
04
#360000
0!
0L
0M
14
#360500
1!
1L
1M
04
#361000
0!
0L
0M
14
#361500
1!
1L
1M
04
#362000
0!
0L
0M
14
#362500
1!
1L
1M
04
#363000
0!
0L
0M
14
#363500
1!
1L
1M
04
#364000
0!
0L
0M
14
#364500
1!
1L
1M
04
#365000
0!
0L
0M
14
#365500
1!
1L
1M
04
#366000
0!
0L
0M
14
#366500
1!
1L
1M
04
#367000
0!
0L
0M
14
#367500
1!
1L
1M
04
#368000
0!
0L
0M
14
#368500
1!
1L
1M
04
#369000
0!
0L
0M
14
#369500
1!
1L
1M
04
#370000
0!
0L
0M
14
#370500
1!
1L
1M
04
#371000
0!
0L
0M
14
#371500
1!
1L
1M
04
#372000
0!
0L
0M
14
#372500
1!
1L
1M
04
#373000
0!
0L
0M
14
#373500
1!
1L
1M
04
#374000
0!
0L
0M
14
#374500
1!
1L
1M
04
#375000
0!
0L
0M
14
#375500
1!
1L
1M
04
#376000
0!
0L
0M
14
#376500
1!
1L
1M
04
#377000
0!
0L
0M
14
#377500
1!
1L
1M
04
#378000
0!
0L
0M
14
#378500
1!
1L
1M
04
#379000
0!
0L
0M
14
#379500
1!
1L
1M
04
#380000
0!
0L
0M
14
#380500
1!
1L
1M
04
#381000
0!
0L
0M
14
#381500
1!
1L
1M
04
#382000
0!
0L
0M
14
#382500
1!
1L
1M
04
#383000
0!
0L
0M
14
#383500
1!
1L
1M
04
#384000
0!
0L
0M
14
#384500
1!
1L
1M
04
#385000
0!
0L
0M
14
#385500
1!
1L
1M
04
#386000
0!
0L
0M
14
#386500
1!
1L
1M
04
#387000
0!
0L
0M
14
#387500
1!
1L
1M
04
#388000
0!
0L
0M
14
#388500
1!
1L
1M
04
#389000
0!
0L
0M
14
#389500
1!
1L
1M
04
#390000
0!
0L
0M
14
#390500
1!
1L
1M
04
#391000
0!
0L
0M
14
#391500
1!
1L
1M
04
#392000
0!
0L
0M
14
#392500
1!
1L
1M
04
#393000
0!
0L
0M
14
#393500
1!
1L
1M
04
#394000
0!
0L
0M
14
#394500
1!
1L
1M
04
#395000
0!
0L
0M
14
#395500
1!
1L
1M
04
#396000
0!
0L
0M
14
#396500
1!
1L
1M
04
#397000
0!
0L
0M
14
#397500
1!
1L
1M
04
#398000
0!
0L
0M
14
#398500
1!
1L
1M
04
#399000
0!
0L
0M
14
#399500
1!
1L
1M
04
#400000
0!
0L
0M
14
#400500
1!
1L
1M
04
#401000
0!
0L
0M
14
#401500
1!
1L
1M
04
#402000
0!
0L
0M
14
#402500
1!
1L
1M
04
#403000
0!
0L
0M
14
#403500
1!
1L
1M
04
#404000
0!
0L
0M
14
#404500
1!
1L
1M
04
#405000
0!
0L
0M
14
#405500
1!
1L
1M
04
#406000
0!
0L
0M
14
#406500
1!
1L
1M
04
#407000
0!
0L
0M
14
#407500
1!
1L
1M
04
#408000
0!
0L
0M
14
#408500
1!
1L
1M
04
#409000
0!
0L
0M
14
#409500
1!
1L
1M
04
#410000
0!
0L
0M
14
#410500
1!
1L
1M
04
#411000
0!
0L
0M
14
#411500
1!
1L
1M
04
#412000
0!
0L
0M
14
#412500
1!
1L
1M
04
#413000
0!
0L
0M
14
#413500
1!
1L
1M
04
#414000
0!
0L
0M
14
#414500
1!
1L
1M
04
#415000
0!
0L
0M
14
#415500
1!
1L
1M
04
#416000
0!
0L
0M
14
#416500
1!
1L
1M
04
#417000
0!
0L
0M
14
#417500
1!
1L
1M
04
#418000
0!
0L
0M
14
#418500
1!
1L
1M
04
