Laboratorio/Practicas/simulation/qsim/practicas.msim.vcd
$comment
	File created using the following command:
		vcd file practicas.msim.vcd -direction
$end
$date
	Sat May 11 22:24:52 2024
$end
$version
	ModelSim Version 10.1d
$end
$timescale
	1ps
$end
$scope module rx_vlg_vec_tst $end
$var reg 1 ! ck $end
$var reg 1 " rx $end
$var wire 1 # MF $end
$var wire 1 $ Mckd $end
$var wire 1 % Mrc [9] $end
$var wire 1 & Mrc [8] $end
$var wire 1 ' Mrc [7] $end
$var wire 1 ( Mrc [6] $end
$var wire 1 ) Mrc [5] $end
$var wire 1 * Mrc [4] $end
$var wire 1 + Mrc [3] $end
$var wire 1 , Mrc [2] $end
$var wire 1 - Mrc [1] $end
$var wire 1 . Mrc [0] $end
$var wire 1 / dat [7] $end
$var wire 1 0 dat [6] $end
$var wire 1 1 dat [5] $end
$var wire 1 2 dat [4] $end
$var wire 1 3 dat [3] $end
$var wire 1 4 dat [2] $end
$var wire 1 5 dat [1] $end
$var wire 1 6 dat [0] $end
$var wire 1 7 stb $end
$var wire 1 8 sampler $end
$scope module i1 $end
$var wire 1 9 gnd $end
$var wire 1 : vcc $end
$var wire 1 ; unknown $end
$var tri1 1 < devclrn $end
$var tri1 1 = devpor $end
$var tri1 1 > devoe $end
$var wire 1 ? id1|Add0~0_combout $end
$var wire 1 @ id1|Add0~6_combout $end
$var wire 1 A id1|Add0~8_combout $end
$var wire 1 B id1|Add0~10_combout $end
$var wire 1 C id1|Add0~14_combout $end
$var wire 1 D id1|Add0~16_combout $end
$var wire 1 E id1|Add0~20_combout $end
$var wire 1 F id1|Add0~22_combout $end
$var wire 1 G id1|Add0~26_combout $end
$var wire 1 H id1|Add0~28_combout $end
$var wire 1 I id1|Add0~36_combout $end
$var wire 1 J id1|Equal0~2_combout $end
$var wire 1 K id1|rc~3_combout $end
$var wire 1 L id1|rc~9_combout $end
$var wire 1 M id1|rc~11_combout $end
$var wire 1 N id1|rc~12_combout $end
$var wire 1 O id1|rc~14_combout $end
$var wire 1 P id1|rc~19_combout $end
$var wire 1 Q id1|rckd~clkctrl_outclk $end
$var wire 1 R MF~output_o $end
$var wire 1 S Mckd~output_o $end
$var wire 1 T Mrc[0]~output_o $end
$var wire 1 U Mrc[1]~output_o $end
$var wire 1 V Mrc[2]~output_o $end
$var wire 1 W Mrc[3]~output_o $end
$var wire 1 X Mrc[4]~output_o $end
$var wire 1 Y Mrc[5]~output_o $end
$var wire 1 Z Mrc[6]~output_o $end
$var wire 1 [ Mrc[7]~output_o $end
$var wire 1 \ Mrc[8]~output_o $end
$var wire 1 ] Mrc[9]~output_o $end
$var wire 1 ^ dat[0]~output_o $end
$var wire 1 _ dat[1]~output_o $end
$var wire 1 ` dat[2]~output_o $end
$var wire 1 a dat[3]~output_o $end
$var wire 1 b dat[4]~output_o $end
$var wire 1 c dat[5]~output_o $end
$var wire 1 d dat[6]~output_o $end
$var wire 1 e dat[7]~output_o $end
$var wire 1 f stb~output_o $end
$var wire 1 g rx~input_o $end
$var wire 1 h il1|SQN~1_combout $end
$var wire 1 i rc[9]~feeder_combout $end
$var wire 1 j rc~8_combout $end
$var wire 1 k rc~7_combout $end
$var wire 1 l rc~6_combout $end
$var wire 1 m rc~5_combout $end
$var wire 1 n rc~4_combout $end
$var wire 1 o rc~3_combout $end
$var wire 1 p rc~2_combout $end
$var wire 1 q rc~1_combout $end
$var wire 1 r rc~0_combout $end
$var wire 1 s il1|SQ~0_combout $end
$var wire 1 t ck~input_o $end
$var wire 1 u ck~inputclkctrl_outclk $end
$var wire 1 v id1|rc~15_combout $end
$var wire 1 w id1|rc~0_combout $end
$var wire 1 x id1|rc~4_combout $end
$var wire 1 y id1|Add0~5 $end
$var wire 1 z id1|Add0~7 $end
$var wire 1 { id1|Add0~9 $end
$var wire 1 | id1|Add0~11 $end
$var wire 1 } id1|Add0~13 $end
$var wire 1 ~ id1|Add0~15 $end
$var wire 1 !! id1|Add0~17 $end
$var wire 1 "! id1|Add0~18_combout $end
$var wire 1 #! id1|rc~10_combout $end
$var wire 1 $! id1|Add0~19 $end
$var wire 1 %! id1|Add0~21 $end
$var wire 1 &! id1|Add0~23 $end
$var wire 1 '! id1|Add0~25 $end
$var wire 1 (! id1|Add0~27 $end
$var wire 1 )! id1|Add0~29 $end
$var wire 1 *! id1|Add0~31 $end
$var wire 1 +! id1|Add0~33 $end
$var wire 1 ,! id1|Add0~34_combout $end
$var wire 1 -! id1|rc~18_combout $end
$var wire 1 .! id1|Add0~35 $end
$var wire 1 /! id1|Add0~37 $end
$var wire 1 0! id1|Add0~39 $end
$var wire 1 1! id1|Add0~40_combout $end
$var wire 1 2! id1|rc~21_combout $end
$var wire 1 3! id1|Add0~41 $end
$var wire 1 4! id1|Add0~42_combout $end
$var wire 1 5! id1|rc~22_combout $end
$var wire 1 6! id1|Add0~32_combout $end
$var wire 1 7! id1|rc~17_combout $end
$var wire 1 8! id1|Add0~38_combout $end
$var wire 1 9! id1|rc~20_combout $end
$var wire 1 :! id1|Equal0~5_combout $end
$var wire 1 ;! id1|Equal0~6_combout $end
$var wire 1 <! id1|rc~8_combout $end
$var wire 1 =! id1|Add0~1 $end
$var wire 1 >! id1|Add0~2_combout $end
$var wire 1 ?! id1|rc~6_combout $end
$var wire 1 @! id1|rc~7_combout $end
$var wire 1 A! id1|Add0~3 $end
$var wire 1 B! id1|Add0~4_combout $end
$var wire 1 C! id1|rc~5_combout $end
$var wire 1 D! id1|Equal0~1_combout $end
$var wire 1 E! id1|rc~2_combout $end
$var wire 1 F! id1|Add0~12_combout $end
$var wire 1 G! id1|rc~1_combout $end
$var wire 1 H! id1|Equal0~0_combout $end
$var wire 1 I! id1|Add0~24_combout $end
$var wire 1 J! id1|rc~13_combout $end
$var wire 1 K! id1|Add0~30_combout $end
$var wire 1 L! id1|rc~16_combout $end
$var wire 1 M! id1|Equal0~3_combout $end
$var wire 1 N! id1|Equal0~4_combout $end
$var wire 1 O! id1|rckd~0_combout $end
$var wire 1 P! id1|rckd~q $end
$var wire 1 Q! rstb[0]~feeder_combout $end
$var wire 1 R! rstb~2_combout $end
$var wire 1 S! rstb~1_combout $end
$var wire 1 T! rstb~0_combout $end
$var wire 1 U! WideOr0~combout $end
$var wire 1 V! WideOr0~clkctrl_outclk $end
$var wire 1 W! rdat[0]~feeder_combout $end
$var wire 1 X! rdat[1]~feeder_combout $end
$var wire 1 Y! rdat[2]~feeder_combout $end
$var wire 1 Z! rdat[3]~feeder_combout $end
$var wire 1 [! rdat[4]~feeder_combout $end
$var wire 1 \! rdat[5]~feeder_combout $end
$var wire 1 ]! rdat[6]~feeder_combout $end
$var wire 1 ^! rdat[7]~feeder_combout $end
$var wire 1 _! rstb [19] $end
$var wire 1 `! rstb [18] $end
$var wire 1 a! rstb [17] $end
$var wire 1 b! rstb [16] $end
$var wire 1 c! rstb [15] $end
$var wire 1 d! rstb [14] $end
$var wire 1 e! rstb [13] $end
$var wire 1 f! rstb [12] $end
$var wire 1 g! rstb [11] $end
$var wire 1 h! rstb [10] $end
$var wire 1 i! rstb [9] $end
$var wire 1 j! rstb [8] $end
$var wire 1 k! rstb [7] $end
$var wire 1 l! rstb [6] $end
$var wire 1 m! rstb [5] $end
$var wire 1 n! rstb [4] $end
$var wire 1 o! rstb [3] $end
$var wire 1 p! rstb [2] $end
$var wire 1 q! rstb [1] $end
$var wire 1 r! rstb [0] $end
$var wire 1 s! rdat [7] $end
$var wire 1 t! rdat [6] $end
$var wire 1 u! rdat [5] $end
$var wire 1 v! rdat [4] $end
$var wire 1 w! rdat [3] $end
$var wire 1 x! rdat [2] $end
$var wire 1 y! rdat [1] $end
$var wire 1 z! rdat [0] $end
$var wire 1 {! rc [9] $end
$var wire 1 |! rc [8] $end
$var wire 1 }! rc [7] $end
$var wire 1 ~! rc [6] $end
$var wire 1 !" rc [5] $end
$var wire 1 "" rc [4] $end
$var wire 1 #" rc [3] $end
$var wire 1 $" rc [2] $end
$var wire 1 %" rc [1] $end
$var wire 1 &" rc [0] $end
$var wire 1 '" id1|rc [21] $end
$var wire 1 (" id1|rc [20] $end
$var wire 1 )" id1|rc [19] $end
$var wire 1 *" id1|rc [18] $end
$var wire 1 +" id1|rc [17] $end
$var wire 1 ," id1|rc [16] $end
$var wire 1 -" id1|rc [15] $end
$var wire 1 ." id1|rc [14] $end
$var wire 1 /" id1|rc [13] $end
$var wire 1 0" id1|rc [12] $end
$var wire 1 1" id1|rc [11] $end
$var wire 1 2" id1|rc [10] $end
$var wire 1 3" id1|rc [9] $end
$var wire 1 4" id1|rc [8] $end
$var wire 1 5" id1|rc [7] $end
$var wire 1 6" id1|rc [6] $end
$var wire 1 7" id1|rc [5] $end
$var wire 1 8" id1|rc [4] $end
$var wire 1 9" id1|rc [3] $end
$var wire 1 :" id1|rc [2] $end
$var wire 1 ;" id1|rc [1] $end
$var wire 1 <" id1|rc [0] $end
$upscope $end
$upscope $end
$enddefinitions $end
#0
$dumpvars
0!
1"
0#
0$
0.
0-
0,
0+
0*
0)
0(
0'
0&
0%
06
05
04
03
02
01
00
0/
07
x8
09
1:
x;
1<
1=
1>
1?
1@
1A
1B
1C
1D
1E
1F
1G
1H
1I
0J
0K
0L
0M
0N
0O
0P
0Q
0R
0S
0T
0U
0V
0W
0X
0Y
0Z
0[
0\
0]
0^
0_
0`
0a
0b
0c
0d
0e
0f
1g
0h
1i
1j
1k
1l
1m
1n
1o
1p
1q
1r
0s
0t
0u
0v
0w
0x
0y
1z
0{
1|
0}
1~
0!!
1"!
0#!
1$!
0%!
1&!
0'!
1(!
0)!
1*!
0+!
1,!
0-!
1.!
0/!
10!
11!
02!
03!
14!
05!
16!
07!
18!
09!
0:!
0;!
0<!
0=!
1>!
0?!
0@!
1A!
1B!
0C!
0D!
0E!
1F!
0G!
0H!
1I!
0J!
1K!
0L!
0M!
0N!
1O!
0P!
0Q!
0R!
0S!
0T!
0U!
0V!
0W!
0X!
0Y!
0Z!
0[!
0\!
0]!
0^!
0r!
0q!
0p!
0o!
zn!
zm!
zl!
zk!
zj!
zi!
zh!
zg!
zf!
ze!
zd!
zc!
zb!
za!
z`!
z_!
0z!
0y!
0x!
0w!
0v!
0u!
0t!
0s!
0&"
0%"
0$"
0#"
0""
0!"
0~!
0}!
0|!
0{!
0<"
0;"
0:"
09"
08"
07"
06"
05"
04"
03"
02"
01"
00"
0/"
0."
0-"
0,"
0+"
0*"
0)"
0("
0'"
$end
#250
1!
1t
1u
08
#500
0!
0t
0u
18
1P!
1Q
1S
1$
1&"
1%"
1$"
1#"
1""
1!"
1~!
1}!
1|!
1{!
1W!
1X!
1Y!
1Z!
1[!
1\!
1]!
1^!
1T
1U
1V
1W
1X
1Y
1Z
1[
1\
1]
1.
1-
1,
1+
1*
1)
1(
1'
1&
1%
#750
1!
1t
1u
08
#1000
0!
0t
0u
18
#1250
1!
1t
1u
08
#1500
0!
0t
0u
18
#1750
1!
1t
1u
08
#2000
0!
0t
0u
18
#2250
1!
1t
1u
08
#2500
0!
0t
0u
18
#2750
1!
1t
1u
08
#3000
0!
0t
0u
18
#3250
1!
1t
1u
08
#3500
0!
0t
0u
18
#3750
1!
1t
1u
08
#4000
0!
0t
0u
18
#4250
1!
1t
1u
08
#4500
0!
0t
0u
18
#4750
1!
1t
1u
08
#5000
0!
0t
0u
18
#5250
1!
1t
1u
08
#5500
0!
0t
0u
18
#5750
1!
1t
1u
08
#6000
0!
0t
0u
18
#6250
1!
1t
1u
08
#6500
0!
0t
0u
18
#6750
1!
1t
1u
08
#7000
0!
0t
0u
18
#7250
1!
1t
1u
08
#7500
0!
0t
0u
18
#7750
1!
1t
1u
08
#8000
0!
0t
0u
18
#8250
1!
1t
1u
08
#8500
0!
0t
0u
18
#8750
1!
1t
1u
08
#9000
0!
0t
0u
18
#9250
1!
1t
1u
08
#9500
0!
0t
0u
18
#9750
1!
1t
1u
08
#10000
0"
0!
0g
0t
0u
18
0i
1h
1s
1Q!
0O!
1C!
1R
1#
#10250
1!
1t
1u
08
1r!
#10500
0!
0t
0u
18
1:"
0P!
0Q
1D!
1y
0B!
1O!
0S
0$
1N!
0z
0@
0O!
1L!
1J!
1G!
1E!
0C!
1?!
1<!
19!
17!
15!
12!
1-!
1#!
1w
1v
1P
1O
1N
1M
1L
1K
1{
0A
1@!
0|
0B
0K
1}
0F!
0E!
0~
0C
0G!
1!!
0D
0w
0$!
0"!
0L
1%!
0E
0#!
0&!
0F
0M
1'!
0I!
0N
0(!
0G
0J!
1)!
0H
0O
0*!
0K!
0v
1+!
06!
0L!
0.!
0,!
07!
1/!
0I
0-!
00!
08!
0P
13!
01!
09!
04!
02!
05!
#10750
1!
1t
1u
08
#11000
0!
0t
0u
18
1<"
1;"
0:"
1=!
0?
0A!
0>!
0y
1B!
1>!
0<!
1y
0B!
0?!
1z
1@
1C!
1?!
0z
0@
0C!
0@!
0{
1A
1x
1@!
1{
0A
0x
1|
1B
1K
0|
0B
0K
0}
1F!
1E!
1}
0F!
0E!
1~
1C
1G!
0~
0C
0G!
0!!
1D
1w
1!!
0D
0w
1$!
1"!
1L
0$!
0"!
0L
0%!
1E
1#!
1%!
0E
0#!
1&!
1F
1M
0&!
0F
0M
0'!
1I!
1N
1'!
0I!
0N
1(!
1G
1J!
0(!
0G
0J!
0)!
1H
1O
1)!
0H
0O
1*!
1K!
1v
0*!
0K!
0v
0+!
16!
1L!
1+!
06!
0L!
1.!
1,!
17!
0.!
0,!
07!
0/!
1I
1-!
1/!
0I
0-!
10!
18!
1P
00!
08!
0P
03!
11!
19!
13!
01!
09!
14!
12!
04!
02!
15!
05!
#11250
1!
1t
1u
08
#11500
0!
0t
0u
18
0<"
0=!
1?
0>!
1<!
0?!
0@!
#11750
1!
1t
1u
08
#12000
0!
0t
0u
18
1<"
0;"
1=!
0?
1A!
1>!
0A!
0>!
0<!
0y
1B!
1?!
1y
0B!
0?!
1z
1@
1C!
1@!
0z
0@
0C!
0@!
0{
1A
1x
1{
0A
0x
1|
1B
1K
0|
0B
0K
0}
1F!
1E!
1}
0F!
0E!
1~
1C
1G!
0~
0C
0G!
0!!
1D
1w
1!!
0D
0w
1$!
1"!
1L
0$!
0"!
0L
0%!
1E
1#!
1%!
0E
0#!
1&!
1F
1M
0&!
0F
0M
0'!
1I!
1N
1'!
0I!
0N
1(!
1G
1J!
0(!
0G
0J!
0)!
1H
1O
1)!
0H
0O
1*!
1K!
1v
0*!
0K!
0v
0+!
16!
1L!
1+!
06!
0L!
1.!
1,!
17!
0.!
0,!
07!
0/!
1I
1-!
1/!
0I
0-!
10!
18!
1P
00!
08!
0P
03!
11!
19!
13!
01!
09!
14!
12!
04!
02!
15!
05!
#12250
1!
1t
1u
08
#12500
0!
0t
0u
18
0<"
0D!
0=!
1?
0N!
1A!
1>!
1<!
1O!
1C!
0<!
0y
1B!
1z
1@
0{
1A
1|
1B
0}
1F!
1~
1C
0!!
1D
1$!
1"!
0%!
1E
1&!
1F
0'!
1I!
1(!
1G
0)!
1H
1*!
1K!
0+!
16!
1.!
1,!
0/!
1I
10!
18!
03!
11!
14!
#12750
1!
1t
1u
08
#13000
0!
0t
0u
18
1:"
1P!
1Q
1D!
1y
0B!
0O!
1S
1$
1N!
0z
0@
1O!
1L!
1J!
1G!
1E!
0C!
1?!
1<!
19!
17!
15!
12!
1-!
1#!
1w
1v
1P
1O
1N
1M
1L
1K
1{
0A
1@!
0|
0B
0K
1}
0F!
0E!
0~
0C
0G!
1!!
0D
0w
0$!
0"!
0L
1%!
0E
0#!
0&!
0F
0M
1'!
0I!
0N
0(!
0G
0J!
1)!
0H
0O
0*!
0K!
0v
1+!
06!
0L!
0.!
0,!
07!
1/!
0I
0-!
00!
08!
0P
13!
01!
09!
04!
02!
05!
0{!
0j
0]
0%
#13250
1!
1t
1u
08
#13500
0!
0t
0u
18
1<"
1;"
0:"
1=!
0?
0A!
0>!
0y
1B!
1>!
0<!
1y
0B!
0?!
1z
1@
1C!
1?!
0z
0@
0C!
0@!
0{
1A
1x
1@!
1{
0A
0x
1|
1B
1K
0|
0B
0K
0}
1F!
1E!
1}
0F!
0E!
1~
1C
1G!
0~
0C
0G!
0!!
1D
1w
1!!
0D
0w
1$!
1"!
1L
0$!
0"!
0L
0%!
1E
1#!
1%!
0E
0#!
1&!
1F
1M
0&!
0F
0M
0'!
1I!
1N
1'!
0I!
0N
1(!
1G
1J!
0(!
0G
0J!
0)!
1H
1O
1)!
0H
0O
1*!
1K!
1v
0*!
0K!
0v
0+!
16!
1L!
1+!
06!
0L!
1.!
1,!
17!
0.!
0,!
07!
0/!
1I
1-!
1/!
0I
0-!
10!
18!
1P
00!
08!
0P
03!
11!
19!
13!
01!
09!
14!
12!
04!
02!
15!
05!
#13750
1!
1t
1u
08
#14000
0!
0t
0u
18
0<"
0=!
1?
0>!
1<!
0?!
0@!
#14250
1!
1t
1u
08
#14500
0!
0t
0u
18
1<"
0;"
1=!
0?
1A!
1>!
0A!
0>!
0<!
0y
1B!
1?!
1y
0B!
0?!
1z
1@
1C!
1@!
0z
0@
0C!
0@!
0{
1A
1x
1{
0A
0x
1|
1B
1K
0|
0B
0K
0}
1F!
1E!
1}
0F!
0E!
1~
1C
1G!
0~
0C
0G!
0!!
1D
1w
1!!
0D
0w
1$!
1"!
1L
0$!
0"!
0L
0%!
1E
1#!
1%!
0E
0#!
1&!
1F
1M
0&!
0F
0M
0'!
1I!
1N
1'!
0I!
0N
1(!
1G
1J!
0(!
0G
0J!
0)!
1H
1O
1)!
0H
0O
1*!
1K!
1v
0*!
0K!
0v
0+!
16!
1L!
1+!
06!
0L!
1.!
1,!
17!
0.!
0,!
07!
0/!
1I
1-!
1/!
0I
0-!
10!
18!
1P
00!
08!
0P
03!
11!
19!
13!
01!
09!
14!
12!
04!
02!
15!
05!
#14750
1!
1t
1u
08
#15000
0!
0t
0u
18
0<"
0D!
0=!
1?
0N!
1A!
1>!
1<!
0O!
1C!
0<!
0y
1B!
1z
1@
0{
1A
1|
1B
0}
1F!
1~
1C
0!!
1D
1$!
1"!
0%!
1E
1&!
1F
0'!
1I!
1(!
1G
0)!
1H
1*!
1K!
0+!
16!
1.!
1,!
0/!
1I
10!
18!
03!
11!
14!
#15250
1!
1t
1u
08
#15500
0!
0t
0u
18
1:"
0P!
0Q
1D!
1y
0B!
1O!
0S
0$
1N!
0z
0@
0O!
1L!
1J!
1G!
1E!
0C!
1?!
1<!
19!
17!
15!
12!
1-!
1#!
1w
1v
1P
1O
1N
1M
1L
1K
1{
0A
1@!
0|
0B
0K
1}
0F!
0E!
0~
0C
0G!
1!!
0D
0w
0$!
0"!
0L
1%!
0E
0#!
0&!
0F
0M
1'!
0I!
0N
0(!
0G
0J!
1)!
0H
0O
0*!
0K!
0v
1+!
06!
0L!
0.!
0,!
07!
1/!
0I
0-!
00!
08!
0P
13!
01!
09!
04!
02!
05!
#15750
1!
1t
1u
08
#16000
0!
0t
0u
18
1<"
1;"
0:"
1=!
0?
0A!
0>!
0y
1B!
1>!
0<!
1y
0B!
0?!
1z
1@
1C!
1?!
0z
0@
0C!
0@!
0{
1A
1x
1@!
1{
0A
0x
1|
1B
1K
0|
0B
0K
0}
1F!
1E!
1}
0F!
0E!
1~
1C
1G!
0~
0C
0G!
0!!
1D
1w
1!!
0D
0w
1$!
1"!
1L
0$!
0"!
0L
0%!
1E
1#!
1%!
0E
0#!
1&!
1F
1M
0&!
0F
0M
0'!
1I!
1N
1'!
0I!
0N
1(!
1G
1J!
0(!
0G
0J!
0)!
1H
1O
1)!
0H
0O
1*!
1K!
1v
0*!
0K!
0v
0+!
16!
1L!
1+!
06!
0L!
1.!
1,!
17!
0.!
0,!
07!
0/!
1I
1-!
1/!
0I
0-!
10!
18!
1P
00!
08!
0P
03!
11!
19!
13!
01!
09!
14!
12!
04!
02!
15!
05!
#16250
1!
1t
1u
08
#16500
0!
0t
0u
18
0<"
0=!
1?
0>!
1<!
0?!
0@!
#16750
1!
1t
1u
08
#17000
0!
0t
0u
18
1<"
0;"
1=!
0?
1A!
1>!
0A!
0>!
0<!
0y
1B!
1?!
1y
0B!
0?!
1z
1@
1C!
1@!
0z
0@
0C!
0@!
0{
1A
1x
1{
0A
0x
1|
1B
1K
0|
0B
0K
0}
1F!
1E!
1}
0F!
0E!
1~
1C
1G!
0~
0C
0G!
0!!
1D
1w
1!!
0D
0w
1$!
1"!
1L
0$!
0"!
0L
0%!
1E
1#!
1%!
0E
0#!
1&!
1F
1M
0&!
0F
0M
0'!
1I!
1N
1'!
0I!
0N
1(!
1G
1J!
0(!
0G
0J!
0)!
1H
1O
1)!
0H
0O
1*!
1K!
1v
0*!
0K!
0v
0+!
16!
1L!
1+!
06!
0L!
1.!
1,!
17!
0.!
0,!
07!
0/!
1I
1-!
1/!
0I
0-!
10!
18!
1P
00!
08!
0P
03!
11!
19!
13!
01!
09!
14!
12!
04!
02!
15!
05!
#17250
1!
1t
1u
08
#17500
0!
0t
0u
18
0<"
0D!
0=!
1?
0N!
1A!
1>!
1<!
1O!
1C!
0<!
0y
1B!
1z
1@
0{
1A
1|
1B
0}
1F!
1~
1C
0!!
1D
1$!
1"!
0%!
1E
1&!
1F
0'!
1I!
1(!
1G
0)!
1H
1*!
1K!
0+!
16!
1.!
1,!
0/!
1I
10!
18!
03!
11!
14!
#17750
1!
1t
1u
08
#18000
0!
0t
0u
18
1:"
1P!
1Q
1D!
1y
0B!
0O!
1S
1$
1N!
0z
0@
1O!
1L!
1J!
1G!
1E!
0C!
1?!
1<!
19!
17!
15!
12!
1-!
1#!
1w
1v
1P
1O
1N
1M
1L
1K
1{
0A
1@!
0|
0B
0K
1}
0F!
0E!
0~
0C
0G!
1!!
0D
0w
0$!
0"!
0L
1%!
0E
0#!
0&!
0F
0M
1'!
0I!
0N
0(!
0G
0J!
1)!
0H
0O
0*!
0K!
0v
1+!
06!
0L!
0.!
0,!
07!
1/!
0I
0-!
00!
08!
0P
13!
01!
09!
04!
02!
05!
0|!
0^!
0k
0\
0&
#18250
1!
1t
1u
08
#18500
0!
0t
0u
18
1<"
1;"
0:"
1=!
0?
0A!
0>!
0y
1B!
1>!
0<!
1y
0B!
0?!
1z
1@
1C!
1?!
0z
0@
0C!
0@!
0{
1A
1x
1@!
1{
0A
0x
1|
1B
1K
0|
0B
0K
0}
1F!
1E!
1}
0F!
0E!
1~
1C
1G!
0~
0C
0G!
0!!
1D
1w
1!!
0D
0w
1$!
1"!
1L
0$!
0"!
0L
0%!
1E
1#!
1%!
0E
0#!
1&!
1F
1M
0&!
0F
0M
0'!
1I!
1N
1'!
0I!
0N
1(!
1G
1J!
0(!
0G
0J!
0)!
1H
1O
1)!
0H
0O
1*!
1K!
1v
0*!
0K!
0v
0+!
16!
1L!
1+!
06!
0L!
1.!
1,!
17!
0.!
0,!
07!
0/!
1I
1-!
1/!
0I
0-!
10!
18!
1P
00!
08!
0P
03!
11!
19!
13!
01!
09!
14!
12!
04!
02!
15!
05!
#18750
1!
1t
1u
08
#19000
0!
0t
0u
18
0<"
0=!
1?
0>!
1<!
0?!
0@!
#19250
1!
1t
1u
08
#19500
0!
0t
0u
18
1<"
0;"
1=!
0?
1A!
1>!
0A!
0>!
0<!
0y
1B!
1?!
1y
0B!
0?!
1z
1@
1C!
1@!
0z
0@
0C!
0@!
0{
1A
1x
1{
0A
0x
1|
1B
1K
0|
0B
0K
0}
1F!
1E!
1}
0F!
0E!
1~
1C
1G!
0~
0C
0G!
0!!
1D
1w
1!!
0D
0w
1$!
1"!
1L
0$!
0"!
0L
0%!
1E
1#!
1%!
0E
0#!
1&!
1F
1M
0&!
0F
0M
0'!
1I!
1N
1'!
0I!
0N
1(!
1G
1J!
0(!
0G
0J!
0)!
1H
1O
1)!
0H
0O
1*!
1K!
1v
0*!
0K!
0v
0+!
16!
1L!
1+!
06!
0L!
1.!
1,!
17!
0.!
0,!
07!
0/!
1I
1-!
1/!
0I
0-!
10!
18!
1P
00!
08!
0P
03!
11!
19!
13!
01!
09!
14!
12!
04!
02!
15!
05!
#19750
1!
1t
1u
08
#20000
1"
0!
1g
0t
0u
18
1i
0<"
0D!
0=!
1?
0N!
1A!
1>!
1<!
0O!
1C!
0<!
0y
1B!
1z
1@
0{
1A
1|
1B
0}
1F!
1~
1C
0!!
1D
1$!
1"!
0%!
1E
1&!
1F
0'!
1I!
1(!
1G
0)!
1H
1*!
1K!
0+!
16!
1.!
1,!
0/!
1I
10!
18!
03!
11!
14!
#20250
1!
1t
1u
08
#20500
0!
0t
0u
18
1:"
0P!
0Q
1D!
1y
0B!
1O!
0S
0$
1N!
0z
0@
0O!
1L!
1J!
1G!
1E!
0C!
1?!
1<!
19!
17!
15!
12!
1-!
1#!
1w
1v
1P
1O
1N
1M
1L
1K
1{
0A
1@!
0|
0B
0K
1}
0F!
0E!
0~
0C
0G!
1!!
0D
0w
0$!
0"!
0L
1%!
0E
0#!
0&!
0F
0M
1'!
0I!
0N
0(!
0G
0J!
1)!
0H
0O
0*!
0K!
0v
1+!
06!
0L!
0.!
0,!
07!
1/!
0I
0-!
00!
08!
0P
13!
01!
09!
04!
02!
05!
#20750
1!
1t
1u
08
#21000
0!
0t
0u
18
1<"
1;"
0:"
1=!
0?
0A!
0>!
0y
1B!
1>!
0<!
1y
0B!
0?!
1z
1@
1C!
1?!
0z
0@
0C!
0@!
0{
1A
1x
1@!
1{
0A
0x
1|
1B
1K
0|
0B
0K
0}
1F!
1E!
1}
0F!
0E!
1~
1C
1G!
0~
0C
0G!
0!!
1D
1w
1!!
0D
0w
1$!
1"!
1L
0$!
0"!
0L
0%!
1E
1#!
1%!
0E
0#!
1&!
1F
1M
0&!
0F
0M
0'!
1I!
1N
1'!
0I!
0N
1(!
1G
1J!
0(!
0G
0J!
0)!
1H
1O
1)!
0H
0O
1*!
1K!
1v
0*!
0K!
0v
0+!
16!
1L!
1+!
06!
0L!
1.!
1,!
17!
0.!
0,!
07!
0/!
1I
1-!
1/!
0I
0-!
10!
18!
1P
00!
08!
0P
03!
11!
19!
13!
01!
09!
14!
12!
04!
02!
15!
05!
#21250
1!
1t
1u
08
#21500
0!
0t
0u
18
0<"
0=!
1?
0>!
1<!
0?!
0@!
#21750
1!
1t
1u
08
#22000
0!
0t
0u
18
1<"
0;"
1=!
0?
1A!
1>!
0A!
0>!
0<!
0y
1B!
1?!
1y
0B!
0?!
1z
1@
1C!
1@!
0z
0@
0C!
0@!
0{
1A
1x
1{
0A
0x
1|
1B
1K
0|
0B
0K
0}
1F!
1E!
1}
0F!
0E!
1~
1C
1G!
0~
0C
0G!
0!!
1D
1w
1!!
0D
0w
1$!
1"!
1L
0$!
0"!
0L
0%!
1E
1#!
1%!
0E
0#!
1&!
1F
1M
0&!
0F
0M
0'!
1I!
1N
1'!
0I!
0N
1(!
1G
1J!
0(!
0G
0J!
0)!
1H
1O
1)!
0H
0O
1*!
1K!
1v
0*!
0K!
0v
0+!
16!
1L!
1+!
06!
0L!
1.!
1,!
17!
0.!
0,!
07!
0/!
1I
1-!
1/!
0I
0-!
10!
18!
1P
00!
08!
0P
03!
11!
19!
13!
01!
09!
14!
12!
04!
02!
15!
05!
#22250
1!
1t
1u
08
#22500
0!
0t
0u
18
0<"
0D!
0=!
1?
0N!
1A!
1>!
1<!
1O!
1C!
0<!
0y
1B!
1z
1@
0{
1A
1|
1B
0}
1F!
1~
1C
0!!
1D
1$!
1"!
0%!
1E
1&!
1F
0'!
1I!
1(!
1G
0)!
1H
1*!
1K!
0+!
16!
1.!
1,!
0/!
1I
10!
18!
03!
11!
14!
#22750
1!
1t
1u
08
#23000
0!
0t
0u
18
1:"
1P!
1Q
1D!
1y
0B!
0O!
1S
1$
1N!
0z
0@
1O!
1L!
1J!
1G!
1E!
0C!
1?!
1<!
19!
17!
15!
12!
1-!
1#!
1w
1v
1P
1O
1N
1M
1L
1K
1{
0A
1@!
0|
0B
0K
1}
0F!
0E!
0~
0C
0G!
1!!
0D
0w
0$!
0"!
0L
1%!
0E
0#!
0&!
0F
0M
1'!
0I!
0N
0(!
0G
0J!
1)!
0H
0O
0*!
0K!
0v
1+!
06!
0L!
0.!
0,!
07!
1/!
0I
0-!
00!
08!
0P
13!
01!
09!
04!
02!
05!
0}!
1{!
0]!
0l
1j
0[
1]
0'
1%
#23250
1!
1t
1u
08
#23500
0!
0t
0u
18
1<"
1;"
0:"
1=!
0?
0A!
0>!
0y
1B!
1>!
0<!
1y
0B!
0?!
1z
1@
1C!
1?!
0z
0@
0C!
0@!
0{
1A
1x
1@!
1{
0A
0x
1|
1B
1K
0|
0B
0K
0}
1F!
1E!
1}
0F!
0E!
1~
1C
1G!
0~
0C
0G!
0!!
1D
1w
1!!
0D
0w
1$!
1"!
1L
0$!
0"!
0L
0%!
1E
1#!
1%!
0E
0#!
1&!
1F
1M
0&!
0F
0M
0'!
1I!
1N
1'!
0I!
0N
1(!
1G
1J!
0(!
0G
0J!
0)!
1H
1O
1)!
0H
0O
1*!
1K!
1v
0*!
0K!
0v
0+!
16!
1L!
1+!
06!
0L!
1.!
1,!
17!
0.!
0,!
07!
0/!
1I
1-!
1/!
0I
0-!
10!
18!
1P
00!
08!
0P
03!
11!
19!
13!
01!
09!
14!
12!
04!
02!
15!
05!
#23750
1!
1t
1u
08
#24000
0!
0t
0u
18
0<"
0=!
1?
0>!
1<!
0?!
0@!
#24250
1!
1t
1u
08
