Laboratorio/Practicas/simulation/qsim/practicas.msim.vcd
$comment
	File created using the following command:
		vcd file practicas.msim.vcd -direction
$end
$date
	Sun Apr 21 20:26:55 2024
$end
$version
	ModelSim Version 10.1d
$end
$timescale
	1ps
$end
$scope module tbt_vlg_vec_tst $end
$var reg 1 ! ck $end
$var reg 1 " f $end
$var wire 1 # ckd $end
$var wire 1 $ sampler $end
$scope module i1 $end
$var wire 1 % gnd $end
$var wire 1 & vcc $end
$var wire 1 ' unknown $end
$var tri1 1 ( devclrn $end
$var tri1 1 ) devpor $end
$var tri1 1 * devoe $end
$var wire 1 + rc[0]~22_combout $end
$var wire 1 , rc[0]~23 $end
$var wire 1 - rc[1]~25_combout $end
$var wire 1 . rc[1]~26 $end
$var wire 1 / rc[2]~27_combout $end
$var wire 1 0 rc[2]~28 $end
$var wire 1 1 rc[3]~29_combout $end
$var wire 1 2 rc[3]~30 $end
$var wire 1 3 rc[4]~31_combout $end
$var wire 1 4 rc[4]~32 $end
$var wire 1 5 rc[5]~33_combout $end
$var wire 1 6 rc[5]~34 $end
$var wire 1 7 rc[6]~35_combout $end
$var wire 1 8 rc[6]~36 $end
$var wire 1 9 rc[7]~37_combout $end
$var wire 1 : rc[7]~38 $end
$var wire 1 ; rc[8]~39_combout $end
$var wire 1 < rc[8]~40 $end
$var wire 1 = rc[9]~41_combout $end
$var wire 1 > rc[9]~42 $end
$var wire 1 ? rc[10]~43_combout $end
$var wire 1 @ rc[10]~44 $end
$var wire 1 A rc[11]~45_combout $end
$var wire 1 B rc[11]~46 $end
$var wire 1 C rc[12]~47_combout $end
$var wire 1 D rc[12]~48 $end
$var wire 1 E rc[13]~49_combout $end
$var wire 1 F rc[13]~50 $end
$var wire 1 G rc[14]~51_combout $end
$var wire 1 H rc[14]~52 $end
$var wire 1 I rc[15]~53_combout $end
$var wire 1 J rc[15]~54 $end
$var wire 1 K rc[16]~55_combout $end
$var wire 1 L rc[16]~56 $end
$var wire 1 M rc[17]~57_combout $end
$var wire 1 N rc[17]~58 $end
$var wire 1 O rc[18]~59_combout $end
$var wire 1 P rc[18]~60 $end
$var wire 1 Q rc[19]~61_combout $end
$var wire 1 R rc[19]~62 $end
$var wire 1 S rc[20]~63_combout $end
$var wire 1 T rc[20]~64 $end
$var wire 1 U rc[21]~65_combout $end
$var wire 1 V Equal0~0_combout $end
$var wire 1 W Equal0~1_combout $end
$var wire 1 X Equal0~2_combout $end
$var wire 1 Y Equal0~3_combout $end
$var wire 1 Z Equal0~4_combout $end
$var wire 1 [ Equal0~5_combout $end
$var wire 1 \ Equal0~6_combout $end
$var wire 1 ] rc[7]~24_combout $end
$var wire 1 ^ ~GND~combout $end
$var wire 1 _ ckd~output_o $end
$var wire 1 ` ck~input_o $end
$var wire 1 a ck~inputclkctrl_outclk $end
$var wire 1 b f~input_o $end
$var wire 1 c rckd~0_combout $end
$var wire 1 d rckd~q $end
$var wire 1 e rc [21] $end
$var wire 1 f rc [20] $end
$var wire 1 g rc [19] $end
$var wire 1 h rc [18] $end
$var wire 1 i rc [17] $end
$var wire 1 j rc [16] $end
$var wire 1 k rc [15] $end
$var wire 1 l rc [14] $end
$var wire 1 m rc [13] $end
$var wire 1 n rc [12] $end
$var wire 1 o rc [11] $end
$var wire 1 p rc [10] $end
$var wire 1 q rc [9] $end
$var wire 1 r rc [8] $end
$var wire 1 s rc [7] $end
$var wire 1 t rc [6] $end
$var wire 1 u rc [5] $end
$var wire 1 v rc [4] $end
$var wire 1 w rc [3] $end
$var wire 1 x rc [2] $end
$var wire 1 y rc [1] $end
$var wire 1 z rc [0] $end
$upscope $end
$upscope $end
$enddefinitions $end
#0
$dumpvars
0!
0"
0#
x$
0%
1&
x'
1(
1)
1*
1+
0,
1-
1.
1/
00
11
12
13
04
15
16
17
08
19
1:
1;
0<
1=
1>
1?
0@
1A
1B
1C
0D
1E
1F
1G
0H
1I
1J
1K
0L
1M
1N
1O
0P
1Q
1R
1S
0T
1U
0V
0W
0X
0Y
0Z
0[
0\
1]
0^
0_
0`
0a
0b
1c
0d
0z
0y
0x
0w
0v
0u
0t
0s
0r
0q
0p
0o
0n
0m
0l
0k
0j
0i
0h
0g
0f
0e
$end
#500
1!
1`
1a
0$
#1000
0!
0`
0a
1$
1d
1_
1#
#1500
1!
1`
1a
0$
#2000
0!
0`
0a
1$
#2500
1!
1`
1a
0$
#3000
0!
0`
0a
1$
#3500
1!
1`
1a
0$
#4000
0!
0`
0a
1$
#4500
1!
1`
1a
0$
#5000
0!
0`
0a
1$
#5500
1!
1`
1a
0$
#6000
0!
0`
0a
1$
#6500
1!
1`
1a
0$
#7000
0!
0`
0a
1$
#7500
1!
1`
1a
0$
#8000
0!
0`
0a
1$
#8500
1!
1`
1a
0$
#9000
0!
0`
0a
1$
#9500
1!
1`
1a
0$
#10000
0!
0`
0a
1$
#10500
1!
1`
1a
0$
#11000
0!
0`
0a
1$
#11500
1!
1`
1a
0$
#12000
0!
0`
0a
1$
#12500
1!
1`
1a
0$
#13000
0!
0`
0a
1$
#13500
1!
1`
1a
0$
#14000
0!
0`
0a
1$
#14500
1!
1`
1a
0$
#15000
0!
0`
0a
1$
#15500
1!
1`
1a
0$
#16000
0!
0`
0a
1$
#16500
1!
1`
1a
0$
#17000
0!
0`
0a
1$
#17500
1!
1`
1a
0$
#18000
0!
0`
0a
1$
#18500
1!
1`
1a
0$
#19000
0!
0`
0a
1$
#19500
1!
1`
1a
0$
#20000
0!
0`
0a
1$
#20500
1!
1`
1a
0$
#21000
0!
0`
0a
1$
#21500
1!
1`
1a
0$
#22000
0!
0`
0a
1$
#22500
1!
1`
1a
0$
#23000
0!
0`
0a
1$
#23500
1!
1`
1a
0$
#24000
0!
0`
0a
1$
#24500
1!
1`
1a
0$
#25000
0!
0`
0a
1$
#25500
1!
1`
1a
0$
#26000
0!
0`
0a
1$
#26500
1!
1`
1a
0$
#27000
0!
0`
0a
1$
#27500
1!
1`
1a
0$
#28000
0!
0`
0a
1$
#28500
1!
1`
1a
0$
#29000
0!
0`
0a
1$
#29500
1!
1`
1a
0$
#30000
0!
0`
0a
1$
#30500
1!
1`
1a
0$
#31000
0!
0`
0a
1$
#31500
1!
1`
1a
0$
#32000
0!
0`
0a
1$
#32500
1!
1`
1a
0$
#33000
0!
0`
0a
1$
#33500
1!
1`
1a
0$
#34000
0!
0`
0a
1$
#34500
1!
1`
1a
0$
#35000
0!
0`
0a
1$
#35500
1!
1`
1a
0$
#36000
0!
0`
0a
1$
#36500
1!
1`
1a
0$
#37000
0!
0`
0a
1$
#37500
1!
1`
1a
0$
#38000
0!
0`
0a
1$
#38500
1!
1`
1a
0$
#39000
0!
0`
0a
1$
#39500
1!
1`
1a
0$
#40000
0!
0`
0a
1$
#40500
1!
1`
1a
0$
#41000
0!
0`
0a
1$
#41500
1!
1`
1a
0$
#42000
0!
0`
0a
1$
#42500
1!
1`
1a
0$
#43000
0!
0`
0a
1$
#43500
1!
1`
1a
0$
#44000
0!
0`
0a
1$
#44500
1!
1`
1a
0$
#45000
0!
0`
0a
1$
#45500
1!
1`
1a
0$
#46000
0!
0`
0a
1$
#46500
1!
1`
1a
0$
#47000
0!
0`
0a
1$
#47500
1!
1`
1a
0$
#48000
0!
0`
0a
1$
#48500
1!
1`
1a
0$
#49000
0!
0`
0a
1$
#49500
1!
1`
1a
0$
#50000
0!
0`
0a
1$
#50500
1!
1`
1a
0$
#51000
0!
0`
0a
1$
#51500
1!
1`
1a
0$
#52000
0!
0`
0a
1$
#52500
1!
1`
1a
0$
#53000
0!
0`
0a
1$
#53500
1!
1`
1a
0$
#54000
0!
0`
0a
1$
#54500
1!
1`
1a
0$
#55000
0!
0`
0a
1$
#55500
1!
1`
1a
0$
#56000
0!
0`
0a
1$
#56500
1!
1`
1a
0$
#57000
0!
0`
0a
1$
#57500
1!
1`
1a
0$
#58000
0!
0`
0a
1$
#58500
1!
1`
1a
0$
#59000
0!
0`
0a
1$
#59500
1!
1`
1a
0$
#60000
0!
0`
0a
1$
#60500
1!
1`
1a
0$
#61000
0!
0`
0a
1$
#61500
1!
1`
1a
0$
#62000
0!
0`
0a
1$
#62500
1!
1`
1a
0$
#63000
0!
0`
0a
1$
#63500
1!
1`
1a
0$
#64000
0!
0`
0a
1$
#64500
1!
1`
1a
0$
#65000
0!
0`
0a
1$
#65500
1!
1`
1a
0$
#66000
0!
0`
0a
1$
#66500
1!
1`
1a
0$
#67000
0!
0`
0a
1$
#67500
1!
1`
1a
0$
#68000
0!
0`
0a
1$
#68500
1!
1`
1a
0$
#69000
0!
0`
0a
1$
#69500
1!
1`
1a
0$
#70000
0!
0`
0a
1$
#70500
1!
1`
1a
0$
#71000
0!
0`
0a
1$
#71500
1!
1`
1a
0$
#72000
0!
0`
0a
1$
#72500
1!
1`
1a
0$
#73000
0!
0`
0a
1$
#73500
1!
1`
1a
0$
#74000
0!
0`
0a
1$
#74500
1!
1`
1a
0$
#75000
0!
0`
0a
1$
#75500
1!
1`
1a
0$
#76000
0!
0`
0a
1$
#76500
1!
1`
1a
0$
#77000
0!
0`
0a
1$
#77500
1!
1`
1a
0$
#78000
0!
0`
0a
1$
#78500
1!
1`
1a
0$
#79000
0!
0`
0a
1$
#79500
1!
1`
1a
0$
#80000
0!
0`
0a
1$
#80500
1!
1`
1a
0$
#81000
0!
0`
0a
1$
#81500
1!
1`
1a
0$
#82000
0!
0`
0a
1$
#82500
1!
1`
1a
0$
#83000
0!
0`
0a
1$
#83500
1!
1`
1a
0$
#84000
0!
0`
0a
1$
#84500
1!
1`
1a
0$
#85000
0!
0`
0a
1$
#85500
1!
1`
1a
0$
#86000
0!
0`
0a
1$
#86500
1!
1`
1a
0$
#87000
0!
0`
0a
1$
#87500
1!
1`
1a
0$
#88000
0!
0`
0a
1$
#88500
1!
1`
1a
0$
#89000
0!
0`
0a
1$
#89500
1!
1`
1a
0$
#90000
0!
0`
0a
1$
#90500
1!
1`
1a
0$
#91000
0!
0`
0a
1$
#91500
1!
1`
1a
0$
#92000
0!
0`
0a
1$
#92500
1!
1`
1a
0$
#93000
0!
0`
0a
1$
#93500
1!
1`
1a
0$
#94000
0!
0`
0a
1$
#94500
1!
1`
1a
0$
#95000
0!
0`
0a
1$
#95500
1!
1`
1a
0$
#96000
0!
0`
0a
1$
#96500
1!
1`
1a
0$
#97000
0!
0`
0a
1$
#97500
1!
1`
1a
0$
#98000
0!
0`
0a
1$
#98500
1!
1`
1a
0$
#99000
0!
0`
0a
1$
#99500
1!
1`
1a
0$
#100000
0!
0`
0a
1$
#100500
1!
1`
1a
0$
#101000
0!
0`
0a
1$
#101500
1!
1`
1a
0$
#102000
0!
0`
0a
1$
#102500
1!
1`
1a
0$
#103000
0!
0`
0a
1$
#103500
1!
1`
1a
0$
#104000
0!
0`
0a
1$
#104500
1!
1`
1a
0$
#105000
0!
0`
0a
1$
#105500
1!
1`
1a
0$
#106000
0!
0`
0a
1$
#106500
1!
1`
1a
0$
#107000
0!
0`
0a
1$
#107500
1!
1`
1a
0$
#108000
0!
0`
0a
1$
#108500
1!
1`
1a
0$
#109000
0!
0`
0a
1$
#109500
1!
1`
1a
0$
#110000
0!
0`
0a
1$
#110500
1!
1`
1a
0$
#111000
0!
0`
0a
1$
#111500
1!
1`
1a
0$
#112000
0!
0`
0a
1$
#112500
1!
1`
1a
0$
#113000
0!
0`
0a
1$
#113500
1!
1`
1a
0$
#114000
0!
0`
0a
1$
#114500
1!
1`
1a
0$
#115000
0!
0`
0a
1$
#115500
1!
1`
1a
0$
#116000
0!
0`
0a
1$
#116500
1!
1`
1a
0$
#117000
0!
0`
0a
1$
#117500
1!
1`
1a
0$
#118000
0!
0`
0a
1$
#118500
1!
1`
1a
0$
#119000
0!
0`
0a
1$
#119500
1!
1`
1a
0$
#120000
0!
0`
0a
1$
#120500
1!
1`
1a
0$
#121000
0!
0`
0a
1$
#121500
1!
1`
1a
0$
#122000
0!
0`
0a
1$
#122500
1!
1`
1a
0$
#123000
0!
0`
0a
1$
#123500
1!
1`
1a
0$
#124000
0!
0`
0a
1$
#124500
1!
1`
1a
0$
#125000
0!
0`
0a
1$
#125500
1!
1`
1a
0$
#126000
0!
0`
0a
1$
#126500
1!
1`
1a
0$
#127000
0!
0`
0a
1$
#127500
1!
1`
1a
0$
#128000
0!
0`
0a
1$
#128500
1!
1`
1a
0$
#129000
0!
0`
0a
1$
#129500
1!
1`
1a
0$
#130000
0!
0`
0a
1$
#130500
1!
1`
1a
0$
#131000
0!
0`
0a
1$
#131500
1!
1`
1a
0$
#132000
0!
0`
0a
1$
#132500
1!
1`
1a
0$
#133000
0!
0`
0a
1$
#133500
1!
1`
1a
0$
#134000
0!
0`
0a
1$
#134500
1!
1`
1a
0$
#135000
0!
0`
0a
1$
#135500
1!
1`
1a
0$
#136000
0!
0`
0a
1$
#136500
1!
1`
1a
0$
#137000
0!
0`
0a
1$
#137500
1!
1`
1a
0$
#138000
0!
0`
0a
1$
#138500
1!
1`
1a
0$
#139000
0!
0`
0a
1$
#139500
1!
1`
1a
0$
#140000
0!
0`
0a
1$
#140500
1!
1`
1a
0$
#141000
0!
0`
0a
1$
#141500
1!
1`
1a
0$
#142000
0!
0`
0a
1$
#142500
1!
1`
1a
0$
#143000
0!
0`
0a
1$
#143500
1!
1`
1a
0$
#144000
0!
0`
0a
1$
#144500
1!
1`
1a
0$
#145000
0!
0`
0a
1$
#145500
1!
1`
1a
0$
#146000
0!
0`
0a
1$
#146500
1!
1`
1a
0$
#147000
0!
0`
0a
1$
#147500
1!
1`
1a
0$
#148000
0!
0`
0a
1$
#148500
1!
1`
1a
0$
#149000
0!
0`
0a
1$
#149500
1!
1`
1a
0$
#150000
0!
0`
0a
1$
#150500
1!
1`
1a
0$
#151000
0!
0`
0a
1$
#151500
1!
1`
1a
0$
#152000
0!
0`
0a
1$
#152500
1!
1`
1a
0$
#153000
0!
0`
0a
1$
#153500
1!
1`
1a
0$
#154000
0!
0`
0a
1$
#154500
1!
1`
1a
0$
#155000
0!
0`
0a
1$
#155500
1!
1`
1a
0$
#156000
0!
0`
0a
1$
#156500
1!
1`
1a
0$
#157000
0!
0`
0a
1$
#157500
1!
1`
1a
0$
#158000
0!
0`
0a
1$
#158500
1!
1`
1a
0$
#159000
0!
0`
0a
1$
#159500
1!
1`
1a
0$
#160000
0!
0`
0a
1$
#160500
1!
1`
1a
0$
#161000
0!
0`
0a
1$
#161500
1!
1`
1a
0$
#162000
0!
0`
0a
1$
#162500
1!
1`
1a
0$
#163000
0!
0`
0a
1$
#163500
1!
1`
1a
0$
#164000
0!
0`
0a
1$
#164500
1!
1`
1a
0$
#165000
0!
0`
0a
1$
#165500
1!
1`
1a
0$
#166000
0!
0`
0a
1$
#166500
1!
1`
1a
0$
#167000
0!
0`
0a
1$
#167500
1!
1`
1a
0$
#168000
0!
0`
0a
1$
#168500
1!
1`
1a
0$
#169000
0!
0`
0a
1$
#169500
1!
1`
1a
0$
#170000
0!
0`
0a
1$
#170500
1!
1`
1a
0$
#171000
0!
0`
0a
1$
#171500
1!
1`
1a
0$
#172000
0!
0`
0a
1$
#172500
1!
1`
1a
0$
#173000
0!
0`
0a
1$
#173500
1!
1`
1a
0$
#174000
0!
0`
0a
1$
#174500
1!
1`
1a
0$
#175000
0!
0`
0a
1$
#175500
1!
1`
1a
0$
#176000
0!
0`
0a
1$
#176500
1!
1`
1a
0$
#177000
0!
0`
0a
1$
#177500
1!
1`
1a
0$
#178000
0!
0`
0a
1$
#178500
1!
1`
1a
0$
#179000
0!
0`
0a
1$
#179500
1!
1`
1a
0$
#180000
0!
0`
0a
1$
#180500
1!
1`
1a
0$
#181000
0!
0`
0a
1$
#181500
1!
1`
1a
0$
#182000
0!
0`
0a
1$
#182500
1!
1`
1a
0$
#183000
0!
0`
0a
1$
#183500
1!
1`
1a
0$
#184000
0!
0`
0a
1$
#184500
1!
1`
1a
0$
#185000
0!
0`
0a
1$
#185500
1!
1`
1a
0$
#186000
0!
0`
0a
1$
#186500
1!
1`
1a
0$
#187000
0!
0`
0a
1$
#187500
1!
1`
1a
0$
#188000
0!
0`
0a
1$
#188500
1!
1`
1a
0$
#189000
0!
0`
0a
1$
#189500
1!
1`
1a
0$
#190000
1"
0!
1b
0`
0a
1$
0c
1x
1V
10
0/
1Z
02
01
1\
14
03
1c
0]
06
05
18
07
0:
09
1<
0;
0>
0=
1@
0?
0B
0A
1D
0C
0F
0E
1H
0G
0J
0I
1L
0K
0N
0M
1P
0O
0R
0Q
1T
0S
0U
#190500
1!
1`
1a
0$
#191000
0!
0`
0a
1$
1z
1y
0x
1,
0+
0.
0-
00
1/
1-
10
0/
12
11
02
01
04
13
14
03
16
15
06
05
08
17
18
07
1:
19
0:
09
0<
1;
1<
0;
1>
1=
0>
0=
0@
1?
1@
0?
1B
1A
0B
0A
0D
1C
1D
0C
1F
1E
0F
0E
0H
1G
1H
0G
1J
1I
0J
0I
0L
1K
1L
0K
1N
1M
0N
0M
0P
1O
1P
0O
1R
1Q
0R
0Q
0T
1S
1T
0S
1U
0U
#191500
1!
1`
1a
0$
#192000
0!
0`
0a
1$
0z
0,
1+
0-
#192500
1!
1`
1a
0$
#193000
0!
0`
0a
1$
1z
0y
1,
0+
1.
1-
0.
0-
00
1/
10
0/
12
11
02
01
04
13
14
03
16
15
06
05
08
17
18
07
1:
19
0:
09
0<
1;
1<
0;
1>
1=
0>
0=
0@
1?
1@
0?
1B
1A
0B
0A
0D
1C
1D
0C
1F
1E
0F
0E
0H
1G
1H
0G
1J
1I
0J
0I
0L
1K
1L
0K
1N
1M
0N
0M
0P
1O
1P
0O
1R
1Q
0R
0Q
0T
1S
1T
0S
1U
0U
#193500
1!
1`
1a
0$
#194000
0!
0`
0a
1$
0z
0V
0,
1+
0Z
1.
1-
0\
00
1/
0c
1]
12
11
04
13
16
15
08
17
1:
19
0<
1;
1>
1=
0@
1?
1B
1A
0D
1C
1F
1E
0H
1G
1J
1I
0L
1K
1N
1M
0P
1O
1R
1Q
0T
1S
1U
#194500
1!
1`
1a
0$
#195000
0!
0`
0a
1$
1x
0d
1V
10
0/
1c
0_
0#
1Z
02
01
1\
14
03
0c
0]
06
05
18
07
0:
09
1<
0;
0>
0=
1@
0?
0B
0A
1D
0C
0F
0E
1H
0G
0J
0I
1L
0K
0N
0M
1P
0O
0R
0Q
1T
0S
0U
#195500
1!
1`
1a
0$
#196000
0!
0`
0a
1$
1z
1y
0x
1,
0+
0.
0-
00
1/
1-
10
0/
12
11
02
01
04
13
14
03
16
15
06
05
08
17
18
07
1:
19
0:
09
0<
1;
1<
0;
1>
1=
0>
0=
0@
1?
1@
0?
1B
1A
0B
0A
0D
1C
1D
0C
1F
1E
0F
0E
0H
1G
1H
0G
1J
1I
0J
0I
0L
1K
1L
0K
1N
1M
0N
0M
0P
1O
1P
0O
1R
1Q
0R
0Q
0T
1S
1T
0S
1U
0U
#196500
1!
1`
1a
0$
#197000
0!
0`
0a
1$
0z
0,
1+
0-
#197500
1!
1`
1a
0$
#198000
0!
0`
0a
1$
1z
0y
1,
0+
1.
1-
0.
0-
00
1/
10
0/
12
11
02
01
04
13
14
03
16
15
06
05
08
17
18
07
1:
19
0:
09
0<
1;
1<
0;
1>
1=
0>
0=
0@
1?
1@
0?
1B
1A
0B
0A
0D
1C
1D
0C
1F
1E
0F
0E
0H
1G
1H
0G
1J
1I
0J
0I
0L
1K
1L
0K
1N
1M
0N
0M
0P
1O
1P
0O
1R
1Q
0R
0Q
0T
1S
1T
0S
1U
0U
#198500
1!
1`
1a
0$
#199000
0!
0`
0a
1$
0z
0V
0,
1+
0Z
1.
1-
0\
00
1/
1c
1]
12
11
04
13
16
15
08
17
1:
19
0<
1;
1>
1=
0@
1?
1B
1A
0D
1C
1F
1E
0H
1G
1J
1I
0L
1K
1N
1M
0P
1O
1R
1Q
0T
1S
1U
#199500
1!
1`
1a
0$
#200000
0!
0`
0a
1$
1x
1d
1V
10
0/
0c
1_
1#
1Z
02
01
1\
14
03
1c
0]
06
05
18
07
0:
09
1<
0;
0>
0=
1@
0?
0B
0A
1D
0C
0F
0E
1H
0G
0J
0I
1L
0K
0N
0M
1P
0O
0R
0Q
1T
0S
0U
#200500
1!
1`
1a
0$
#201000
0!
0`
0a
1$
1z
1y
0x
1,
0+
0.
0-
00
1/
1-
10
0/
12
11
02
01
04
13
14
03
16
15
06
05
08
17
18
07
1:
19
0:
09
0<
1;
1<
0;
1>
1=
0>
0=
0@
1?
1@
0?
1B
1A
0B
0A
0D
1C
1D
0C
1F
1E
0F
0E
0H
1G
1H
0G
1J
1I
0J
0I
0L
1K
1L
0K
1N
1M
0N
0M
0P
1O
1P
0O
1R
1Q
0R
0Q
0T
1S
1T
0S
1U
0U
#201500
1!
1`
1a
0$
#202000
0!
0`
0a
1$
0z
0,
1+
0-
#202500
1!
1`
1a
0$
#203000
0!
0`
0a
1$
1z
0y
1,
0+
1.
1-
0.
0-
00
1/
10
0/
12
11
02
01
04
13
14
03
16
15
06
05
08
17
18
07
1:
19
0:
09
0<
1;
1<
0;
1>
1=
0>
0=
0@
1?
1@
0?
1B
1A
0B
0A
0D
1C
1D
0C
1F
1E
0F
0E
0H
1G
1H
0G
1J
1I
0J
0I
0L
1K
1L
0K
1N
1M
0N
0M
0P
1O
1P
0O
1R
1Q
0R
0Q
0T
1S
1T
0S
1U
0U
#203500
1!
1`
1a
0$
#204000
0!
0`
0a
1$
0z
0V
0,
1+
0Z
1.
1-
0\
00
1/
0c
1]
12
11
04
13
16
15
08
17
1:
19
0<
1;
1>
1=
0@
1?
1B
1A
0D
1C
1F
1E
0H
1G
1J
1I
0L
1K
1N
1M
0P
1O
1R
1Q
0T
1S
1U
#204500
1!
1`
1a
0$
#205000
0!
0`
0a
1$
1x
0d
1V
10
0/
1c
0_
0#
1Z
02
01
1\
14
03
0c
0]
06
05
18
07
0:
09
1<
0;
0>
0=
1@
0?
0B
0A
1D
0C
0F
0E
1H
0G
0J
0I
1L
0K
0N
0M
1P
0O
0R
0Q
1T
0S
0U
#205500
1!
1`
1a
0$
#206000
0!
0`
0a
1$
1z
1y
0x
1,
0+
0.
0-
00
1/
1-
10
0/
12
11
02
01
04
13
14
03
16
15
06
05
08
17
18
07
1:
19
0:
09
0<
1;
1<
0;
1>
1=
0>
0=
0@
1?
1@
0?
1B
1A
0B
0A
0D
1C
1D
0C
1F
1E
0F
0E
0H
1G
1H
0G
1J
1I
0J
0I
0L
1K
1L
0K
1N
1M
0N
0M
0P
1O
1P
0O
1R
1Q
0R
0Q
0T
1S
1T
0S
1U
0U
#206500
1!
1`
1a
0$
#207000
0!
0`
0a
1$
0z
0,
1+
0-
#207500
1!
1`
1a
0$
#208000
0!
0`
0a
1$
1z
0y
1,
0+
1.
1-
0.
0-
00
1/
10
0/
12
11
02
01
04
13
14
03
16
15
06
05
08
17
18
07
1:
19
0:
09
0<
1;
1<
0;
1>
1=
0>
0=
0@
1?
1@
0?
1B
1A
0B
0A
0D
1C
1D
0C
1F
1E
0F
0E
0H
1G
1H
0G
1J
1I
0J
0I
0L
1K
1L
0K
1N
1M
0N
0M
0P
1O
1P
0O
1R
1Q
0R
0Q
0T
1S
1T
0S
1U
0U
#208500
1!
1`
1a
0$
#209000
0!
0`
0a
1$
0z
0V
0,
1+
0Z
1.
1-
0\
00
1/
1c
1]
12
11
04
13
16
15
08
17
1:
19
0<
1;
1>
1=
0@
1?
1B
1A
0D
1C
1F
1E
0H
1G
1J
1I
0L
1K
1N
1M
0P
1O
1R
1Q
0T
1S
1U
#209500
1!
1`
1a
0$
#210000
0!
0`
0a
1$
1x
1d
1V
10
0/
0c
1_
1#
1Z
02
01
1\
14
03
1c
0]
06
05
18
07
0:
09
1<
0;
0>
0=
1@
0?
0B
0A
1D
0C
0F
0E
1H
0G
0J
0I
1L
0K
0N
0M
1P
0O
0R
0Q
1T
0S
0U
#210500
1!
1`
1a
0$
#211000
0!
0`
0a
1$
1z
1y
0x
1,
0+
0.
0-
00
1/
1-
10
0/
12
11
02
01
04
13
14
03
16
15
06
05
08
17
18
07
1:
19
0:
09
0<
1;
1<
0;
1>
1=
0>
0=
0@
1?
1@
0?
1B
1A
0B
0A
0D
1C
1D
0C
1F
1E
0F
0E
0H
1G
1H
0G
1J
1I
0J
0I
0L
1K
1L
0K
1N
1M
0N
0M
0P
1O
1P
0O
1R
1Q
0R
0Q
0T
1S
1T
0S
1U
0U
#211500
1!
1`
1a
0$
#212000
0!
0`
0a
1$
0z
0,
1+
0-
#212500
1!
1`
1a
0$
#213000
0!
0`
0a
1$
1z
0y
1,
0+
1.
1-
0.
0-
00
1/
10
0/
12
11
02
01
04
13
14
03
16
15
06
05
08
17
18
07
1:
19
0:
09
0<
1;
1<
0;
1>
1=
0>
0=
0@
1?
1@
0?
1B
1A
0B
0A
0D
1C
1D
0C
1F
1E
0F
0E
0H
1G
1H
0G
1J
1I
0J
0I
0L
1K
1L
0K
1N
1M
0N
0M
0P
1O
1P
0O
1R
1Q
0R
0Q
0T
1S
1T
0S
1U
0U
#213500
1!
1`
1a
0$
#214000
0!
0`
0a
1$
0z
0V
0,
1+
0Z
1.
1-
0\
00
1/
0c
1]
12
11
04
13
16
15
08
17
1:
19
0<
1;
1>
1=
0@
1?
1B
1A
0D
1C
1F
1E
0H
1G
1J
1I
0L
1K
1N
1M
0P
1O
1R
1Q
0T
1S
1U
#214500
1!
1`
1a
0$
#215000
0!
0`
0a
1$
1x
0d
1V
10
0/
1c
0_
0#
1Z
02
01
1\
14
03
0c
0]
06
05
18
07
0:
09
1<
0;
0>
0=
1@
0?
0B
0A
1D
0C
0F
0E
1H
0G
0J
0I
1L
0K
0N
0M
1P
0O
0R
0Q
1T
0S
0U
#215500
1!
1`
1a
0$
#216000
0!
0`
0a
1$
1z
1y
0x
1,
0+
0.
0-
00
1/
1-
10
0/
12
11
02
01
04
13
14
03
16
15
06
05
08
17
18
07
1:
19
0:
09
0<
1;
1<
0;
1>
1=
0>
0=
0@
1?
1@
0?
1B
1A
0B
0A
0D
1C
1D
0C
1F
1E
0F
0E
0H
1G
1H
0G
1J
1I
0J
0I
0L
1K
1L
0K
1N
1M
0N
0M
0P
1O
1P
0O
1R
1Q
0R
0Q
0T
1S
1T
0S
1U
0U
#216500
1!
1`
1a
0$
#217000
0!
0`
0a
1$
0z
0,
1+
0-
#217500
1!
1`
1a
0$
#218000
0!
0`
0a
1$
1z
0y
1,
0+
1.
1-
0.
0-
00
1/
10
0/
12
11
02
01
04
13
14
03
16
15
06
05
08
17
18
07
1:
19
0:
09
0<
1;
1<
0;
1>
1=
0>
0=
0@
1?
1@
0?
1B
1A
0B
0A
0D
1C
1D
0C
1F
1E
0F
0E
0H
1G
1H
0G
1J
1I
0J
0I
0L
1K
1L
0K
1N
1M
0N
0M
0P
1O
1P
0O
1R
1Q
0R
0Q
0T
1S
1T
0S
1U
0U
#218500
1!
1`
1a
0$
#219000
0!
0`
0a
1$
0z
0V
0,
1+
0Z
1.
1-
0\
00
1/
1c
1]
12
11
04
13
16
15
08
17
1:
19
0<
1;
1>
1=
0@
1?
1B
1A
0D
1C
1F
1E
0H
1G
1J
1I
0L
1K
1N
1M
0P
1O
1R
1Q
0T
1S
1U
#219500
1!
1`
1a
0$
#220000
0!
0`
0a
1$
1x
1d
1V
10
0/
0c
1_
1#
1Z
02
01
1\
14
03
1c
0]
06
05
18
07
0:
09
1<
0;
0>
0=
1@
0?
0B
0A
1D
0C
0F
0E
1H
0G
0J
0I
1L
0K
0N
0M
1P
0O
0R
0Q
1T
0S
0U
#220500
1!
1`
1a
0$
#221000
0!
0`
0a
1$
1z
1y
0x
1,
0+
0.
0-
00
1/
1-
10
0/
12
11
02
01
04
13
14
03
16
15
06
05
08
17
18
07
1:
19
0:
09
0<
1;
1<
0;
1>
1=
0>
0=
0@
1?
1@
0?
1B
1A
0B
0A
0D
1C
1D
0C
1F
1E
0F
0E
0H
1G
1H
0G
1J
1I
0J
0I
0L
1K
1L
0K
1N
1M
0N
0M
0P
1O
1P
0O
1R
1Q
0R
0Q
0T
1S
1T
0S
1U
0U
#221500
1!
1`
1a
0$
#222000
0!
0`
0a
1$
0z
0,
1+
0-
#222500
1!
1`
1a
0$
#223000
0!
0`
0a
1$
1z
0y
1,
0+
1.
1-
0.
0-
00
1/
10
0/
12
11
02
01
04
13
14
03
16
15
06
05
08
17
18
07
1:
19
0:
09
0<
1;
1<
0;
1>
1=
0>
0=
0@
1?
1@
0?
1B
1A
0B
0A
0D
1C
1D
0C
1F
1E
0F
0E
0H
1G
1H
0G
1J
1I
0J
0I
0L
1K
1L
0K
1N
1M
0N
0M
0P
1O
1P
0O
1R
1Q
0R
0Q
0T
1S
1T
0S
1U
0U
#223500
1!
1`
1a
0$
#224000
0!
0`
0a
1$
0z
0V
0,
1+
0Z
1.
1-
0\
00
1/
0c
1]
12
11
04
13
16
15
08
17
1:
19
0<
1;
1>
1=
0@
1?
1B
1A
0D
1C
1F
1E
0H
1G
1J
1I
0L
1K
1N
1M
0P
1O
1R
1Q
0T
1S
1U
#224500
1!
1`
1a
0$
#225000
0!
0`
0a
1$
1x
0d
1V
10
0/
1c
0_
0#
1Z
02
01
1\
14
03
0c
0]
06
05
18
07
0:
09
1<
0;
0>
0=
1@
0?
0B
0A
1D
0C
0F
0E
1H
0G
0J
0I
1L
0K
0N
0M
1P
0O
0R
0Q
1T
0S
0U
#225500
1!
1`
1a
0$
