Laboratorio/Practicas/simulation/qsim/practicas.msim.vcd
$comment
	File created using the following command:
		vcd file practicas.msim.vcd -direction
$end
$date
	Mon Mar 11 00:27:06 2024
$end
$version
	ModelSim Version 10.1d
$end
$timescale
	1ps
$end
$scope module contador_vlg_vec_tst $end
$var reg 1 ! clk $end
$var wire 1 " sQ [16] $end
$var wire 1 # sQ [15] $end
$var wire 1 $ sQ [14] $end
$var wire 1 % sQ [13] $end
$var wire 1 & sQ [12] $end
$var wire 1 ' sQ [11] $end
$var wire 1 ( sQ [10] $end
$var wire 1 ) sQ [9] $end
$var wire 1 * sQ [8] $end
$var wire 1 + sQ [7] $end
$var wire 1 , sQ [6] $end
$var wire 1 - sQ [5] $end
$var wire 1 . sQ [4] $end
$var wire 1 / sQ [3] $end
$var wire 1 0 sQ [2] $end
$var wire 1 1 sQ [1] $end
$var wire 1 2 sQ [0] $end
$var wire 1 3 sampler $end
$scope module i1 $end
$var wire 1 4 gnd $end
$var wire 1 5 vcc $end
$var wire 1 6 unknown $end
$var tri1 1 7 devclrn $end
$var tri1 1 8 devpor $end
$var tri1 1 9 devoe $end
$var wire 1 : sQ[0]~output_o $end
$var wire 1 ; sQ[1]~output_o $end
$var wire 1 < sQ[2]~output_o $end
$var wire 1 = sQ[3]~output_o $end
$var wire 1 > sQ[4]~output_o $end
$var wire 1 ? sQ[5]~output_o $end
$var wire 1 @ sQ[6]~output_o $end
$var wire 1 A sQ[7]~output_o $end
$var wire 1 B sQ[8]~output_o $end
$var wire 1 C sQ[9]~output_o $end
$var wire 1 D sQ[10]~output_o $end
$var wire 1 E sQ[11]~output_o $end
$var wire 1 F sQ[12]~output_o $end
$var wire 1 G sQ[13]~output_o $end
$var wire 1 H sQ[14]~output_o $end
$var wire 1 I sQ[15]~output_o $end
$var wire 1 J sQ[16]~output_o $end
$var wire 1 K clk~input_o $end
$var wire 1 L clk~inputclkctrl_outclk $end
$var wire 1 M Ff~17_combout $end
$var wire 1 N Ff~5_combout $end
$var wire 1 O Ff~18_combout $end
$var wire 1 P Ff[6]~7_combout $end
$var wire 1 Q Ff~8_combout $end
$var wire 1 R Ff~4_combout $end
$var wire 1 S Ff~9_combout $end
$var wire 1 T Ff~10_combout $end
$var wire 1 U Ff~11_combout $end
$var wire 1 V Ff~12_combout $end
$var wire 1 W Ff~13_combout $end
$var wire 1 X Ff~14_combout $end
$var wire 1 Y Ff~15_combout $end
$var wire 1 Z Ff[13]~0_combout $end
$var wire 1 [ Ff~16_combout $end
$var wire 1 \ Ff~3_combout $end
$var wire 1 ] Ff~6_combout $end
$var wire 1 ^ Ff [16] $end
$var wire 1 _ Ff [15] $end
$var wire 1 ` Ff [14] $end
$var wire 1 a Ff [13] $end
$var wire 1 b Ff [12] $end
$var wire 1 c Ff [11] $end
$var wire 1 d Ff [10] $end
$var wire 1 e Ff [9] $end
$var wire 1 f Ff [8] $end
$var wire 1 g Ff [7] $end
$var wire 1 h Ff [6] $end
$var wire 1 i Ff [5] $end
$var wire 1 j Ff [4] $end
$var wire 1 k Ff [3] $end
$var wire 1 l Ff [2] $end
$var wire 1 m Ff [1] $end
$var wire 1 n Ff [0] $end
$upscope $end
$upscope $end
$enddefinitions $end
#0
$dumpvars
0!
02
01
00
1/
1.
0-
0,
0+
0*
0)
0(
0'
0&
0%
0$
0#
0"
x3
04
15
x6
17
18
19
0:
0;
0<
1=
1>
0?
0@
0A
0B
0C
0D
0E
0F
0G
0H
0I
0J
0K
0L
0M
0N
1O
0P
0Q
1R
0S
0T
0U
0V
0W
0X
0Y
0Z
0[
0\
1]
zn
zm
zl
0k
0j
0i
0h
0g
0f
0e
0d
0c
0b
0a
0`
z_
z^
$end
#500
1!
1K
1L
03
#1000
0!
0K
0L
13
1j
1i
0]
1Q
0>
1?
0.
1-
#1500
1!
1K
1L
03
#2000
0!
0K
0L
13
1h
0i
1S
0Q
1@
0?
1,
0-
#2500
1!
1K
1L
03
#3000
0!
0K
0L
13
0h
1g
0S
1T
0@
1A
0,
1+
#3500
1!
1K
1L
03
#4000
0!
0K
0L
13
0g
1f
0T
1U
0A
1B
0+
1*
#4500
1!
1K
1L
03
#5000
0!
0K
0L
13
0f
1e
0U
1V
0B
1C
0*
1)
#5500
1!
1K
1L
03
#6000
0!
0K
0L
13
0e
1d
0V
1W
0C
1D
0)
1(
#6500
1!
1K
1L
03
#7000
0!
0K
0L
13
0d
1c
0W
1X
0D
1E
0(
1'
#7500
1!
1K
1L
03
#8000
0!
0K
0L
13
0c
1b
0X
1[
0E
1F
0'
1&
#8500
1!
1K
1L
03
#9000
0!
0K
0L
13
0b
1a
0[
1\
1Z
1X
1P
0F
1G
0&
1%
#9500
1!
1K
1L
03
#10000
0!
0K
0L
13
1k
1`
1b
0a
0X
0Z
1M
1[
1W
0=
1H
1F
0G
0/
1$
1&
0%
#10500
1!
1K
1L
03
#11000
0!
0K
0L
13
1c
0b
1V
0[
0W
1E
0F
1'
0&
#11500
1!
1K
1L
03
#12000
0!
0K
0L
13
1d
0c
1U
0V
1D
0E
1(
0'
#12500
1!
1K
1L
03
#13000
0!
0K
0L
13
1e
0d
1T
0U
1C
0D
1)
0(
#13500
1!
1K
1L
03
#14000
0!
0K
0L
13
1f
0e
1S
0T
1B
0C
1*
0)
#14500
1!
1K
1L
03
#15000
0!
0K
0L
13
1g
0f
1Q
0S
1A
0B
1+
0*
#15500
1!
1K
1L
03
#16000
0!
0K
0L
13
1h
0g
1]
0Q
1@
0A
1,
0+
#16500
1!
1K
1L
03
#17000
0!
0K
0L
13
0h
1i
0]
1N
0@
1?
0,
1-
0O
#17500
1!
1K
1L
03
#18000
0!
0K
0L
13
0j
0i
1]
0\
0P
1O
0M
0N
1>
0?
1.
0-
#18500
1!
1K
1L
03
#19000
0!
0K
0L
13
1j
0k
0`
1i
0]
1Q
0>
1=
0H
1?
0.
1/
0$
1-
#19500
1!
1K
1L
03
#20000
0!
0K
0L
13
1h
0i
1S
0Q
1@
0?
1,
0-
#20500
1!
1K
1L
03
#21000
0!
0K
0L
13
0h
1g
0S
1T
0@
1A
0,
1+
#21500
1!
1K
1L
03
#22000
0!
0K
0L
13
0g
1f
0T
1U
0A
1B
0+
1*
#22500
1!
1K
1L
03
#23000
0!
0K
0L
13
0f
1e
0U
1V
0B
1C
0*
1)
#23500
1!
1K
1L
03
#24000
0!
0K
0L
13
0e
1d
0V
1W
0C
1D
0)
1(
#24500
1!
1K
1L
03
#25000
0!
0K
0L
13
0d
1c
0W
1X
0D
1E
0(
1'
#25500
1!
1K
1L
03
#26000
0!
0K
0L
13
0c
1b
0X
1[
0E
1F
0'
1&
#26500
1!
1K
1L
03
#27000
0!
0K
0L
13
0b
1a
0[
1\
1Z
1X
1P
0F
1G
0&
1%
#27500
1!
1K
1L
03
#28000
0!
0K
0L
13
1k
1`
1b
0a
0X
0Z
1M
1[
1W
0=
1H
1F
0G
0/
1$
1&
0%
#28500
1!
1K
1L
03
#29000
0!
0K
0L
13
1c
0b
1V
0[
0W
1E
0F
1'
0&
#29500
1!
1K
1L
03
#30000
0!
0K
0L
13
1d
0c
1U
0V
1D
0E
1(
0'
#30500
1!
1K
1L
03
#31000
0!
0K
0L
13
1e
0d
1T
0U
1C
0D
1)
0(
#31500
1!
1K
1L
03
#32000
0!
0K
0L
13
1f
0e
1S
0T
1B
0C
1*
0)
#32500
1!
1K
1L
03
#33000
0!
0K
0L
13
1g
0f
1Q
0S
1A
0B
1+
0*
#33500
1!
1K
1L
03
#34000
0!
0K
0L
13
1h
0g
1]
0Q
1@
0A
1,
0+
#34500
1!
1K
1L
03
#35000
0!
0K
0L
13
0h
1i
0]
1N
0@
1?
0,
1-
0O
#35500
1!
1K
1L
03
#36000
0!
0K
0L
13
0j
0i
1]
0\
0P
1O
0M
0N
1>
0?
1.
0-
#36500
1!
1K
1L
03
#37000
0!
0K
0L
13
1j
0k
0`
1i
0]
1Q
0>
1=
0H
1?
0.
1/
0$
1-
#37500
1!
1K
1L
03
#38000
0!
0K
0L
13
1h
0i
1S
0Q
1@
0?
1,
0-
#38500
1!
1K
1L
03
#39000
0!
0K
0L
13
0h
1g
0S
1T
0@
1A
0,
1+
#39500
1!
1K
1L
03
#40000
0!
0K
0L
13
0g
1f
0T
1U
0A
1B
0+
1*
#40500
1!
1K
1L
03
#41000
0!
0K
0L
13
0f
1e
0U
1V
0B
1C
0*
1)
#41500
1!
1K
1L
03
#42000
0!
0K
0L
13
0e
1d
0V
1W
0C
1D
0)
1(
#42500
1!
1K
1L
03
#43000
0!
0K
0L
13
0d
1c
0W
1X
0D
1E
0(
1'
#43500
1!
1K
1L
03
#44000
0!
0K
0L
13
0c
1b
0X
1[
0E
1F
0'
1&
#44500
1!
1K
1L
03
#45000
0!
0K
0L
13
0b
1a
0[
1\
1Z
1X
1P
0F
1G
0&
1%
#45500
1!
1K
1L
03
#46000
0!
0K
0L
13
1k
1`
1b
0a
0X
0Z
1M
1[
1W
0=
1H
1F
0G
0/
1$
1&
0%
#46500
1!
1K
1L
03
#47000
0!
0K
0L
13
1c
0b
1V
0[
0W
1E
0F
1'
0&
#47500
1!
1K
1L
03
#48000
0!
0K
0L
13
1d
0c
1U
0V
1D
0E
1(
0'
#48500
1!
1K
1L
03
#49000
0!
0K
0L
13
1e
0d
1T
0U
1C
0D
1)
0(
#49500
1!
1K
1L
03
#50000
0!
0K
0L
13
1f
0e
1S
0T
1B
0C
1*
0)
#50500
1!
1K
1L
03
#51000
0!
0K
0L
13
1g
0f
1Q
0S
1A
0B
1+
0*
#51500
1!
1K
1L
03
#52000
0!
0K
0L
13
1h
0g
1]
0Q
1@
0A
1,
0+
#52500
1!
1K
1L
03
#53000
0!
0K
0L
13
0h
1i
0]
1N
0@
1?
0,
1-
0O
#53500
1!
1K
1L
03
#54000
0!
0K
0L
13
0j
0i
1]
0\
0P
1O
0M
0N
1>
0?
1.
0-
#54500
1!
1K
1L
03
#55000
0!
0K
0L
13
1j
0k
0`
1i
0]
1Q
0>
1=
0H
1?
0.
1/
0$
1-
#55500
1!
1K
1L
03
#56000
0!
0K
0L
13
1h
0i
1S
0Q
1@
0?
1,
0-
#56500
1!
1K
1L
03
#57000
0!
0K
0L
13
0h
1g
0S
1T
0@
1A
0,
1+
#57500
1!
1K
1L
03
#58000
0!
0K
0L
13
0g
1f
0T
1U
0A
1B
0+
1*
#58500
1!
1K
1L
03
#59000
0!
0K
0L
13
0f
1e
0U
1V
0B
1C
0*
1)
#59500
1!
1K
1L
03
#60000
0!
0K
0L
13
0e
1d
0V
1W
0C
1D
0)
1(
#60500
1!
1K
1L
03
#61000
0!
0K
0L
13
0d
1c
0W
1X
0D
1E
0(
1'
#61500
1!
1K
1L
03
#62000
0!
0K
0L
13
0c
1b
0X
1[
0E
1F
0'
1&
#62500
1!
1K
1L
03
#63000
0!
0K
0L
13
0b
1a
0[
1\
1Z
1X
1P
0F
1G
0&
1%
#63500
1!
1K
1L
03
#64000
0!
0K
0L
13
1k
1`
1b
0a
0X
0Z
1M
1[
1W
0=
1H
1F
0G
0/
1$
1&
0%
#64500
1!
1K
1L
03
#65000
0!
0K
0L
13
1c
0b
1V
0[
0W
1E
0F
1'
0&
#65500
1!
1K
1L
03
#66000
0!
0K
0L
13
1d
0c
1U
0V
1D
0E
1(
0'
#66500
1!
1K
1L
03
#67000
0!
0K
0L
13
1e
0d
1T
0U
1C
0D
1)
0(
#67500
1!
1K
1L
03
#68000
0!
0K
0L
13
1f
0e
1S
0T
1B
0C
1*
0)
#68500
1!
1K
1L
03
#69000
0!
0K
0L
13
1g
0f
1Q
0S
1A
0B
1+
0*
#69500
1!
1K
1L
03
#70000
0!
0K
0L
13
1h
0g
1]
0Q
1@
0A
1,
0+
#70500
1!
1K
1L
03
#71000
0!
0K
0L
13
0h
1i
0]
1N
0@
1?
0,
1-
0O
#71500
1!
1K
1L
03
#72000
0!
0K
0L
13
0j
0i
1]
0\
0P
1O
0M
0N
1>
0?
1.
0-
#72500
1!
1K
1L
03
#73000
0!
0K
0L
13
1j
0k
0`
1i
0]
1Q
0>
1=
0H
1?
0.
1/
0$
1-
#73500
1!
1K
1L
03
#74000
0!
0K
0L
13
1h
0i
1S
0Q
1@
0?
1,
0-
#74500
1!
1K
1L
03
#75000
0!
0K
0L
13
0h
1g
0S
1T
0@
1A
0,
1+
#75500
1!
1K
1L
03
#76000
0!
0K
0L
13
0g
1f
0T
1U
0A
1B
0+
1*
#76500
1!
1K
1L
03
#77000
0!
0K
0L
13
0f
1e
0U
1V
0B
1C
0*
1)
#77500
1!
1K
1L
03
#78000
0!
0K
0L
13
0e
1d
0V
1W
0C
1D
0)
1(
#78500
1!
1K
1L
03
#79000
0!
0K
0L
13
0d
1c
0W
1X
0D
1E
0(
1'
#79500
1!
1K
1L
03
#80000
0!
0K
0L
13
0c
1b
0X
1[
0E
1F
0'
1&
#80500
1!
1K
1L
03
#81000
0!
0K
0L
13
0b
1a
0[
1\
1Z
1X
1P
0F
1G
0&
1%
#81500
1!
1K
1L
03
#82000
0!
0K
0L
13
1k
1`
1b
0a
0X
0Z
1M
1[
1W
0=
1H
1F
0G
0/
1$
1&
0%
#82500
1!
1K
1L
03
#83000
0!
0K
0L
13
1c
0b
1V
0[
0W
1E
0F
1'
0&
#83500
1!
1K
1L
03
#84000
0!
0K
0L
13
1d
0c
1U
0V
1D
0E
1(
0'
#84500
1!
1K
1L
03
#85000
0!
0K
0L
13
1e
0d
1T
0U
1C
0D
1)
0(
#85500
1!
1K
1L
03
#86000
0!
0K
0L
13
1f
0e
1S
0T
1B
0C
1*
0)
#86500
1!
1K
1L
03
#87000
0!
0K
0L
13
1g
0f
1Q
0S
1A
0B
1+
0*
#87500
1!
1K
1L
03
#88000
0!
0K
0L
13
1h
0g
1]
0Q
1@
0A
1,
0+
#88500
1!
1K
1L
03
#89000
0!
0K
0L
13
0h
1i
0]
1N
0@
1?
0,
1-
0O
#89500
1!
1K
1L
03
#90000
0!
0K
0L
13
0j
0i
1]
0\
0P
1O
0M
0N
1>
0?
1.
0-
#90500
1!
1K
1L
03
#91000
0!
0K
0L
13
1j
0k
0`
1i
0]
1Q
0>
1=
0H
1?
0.
1/
0$
1-
#91500
1!
1K
1L
03
#92000
0!
0K
0L
13
1h
0i
1S
0Q
1@
0?
1,
0-
#92500
1!
1K
1L
03
#93000
0!
0K
0L
13
0h
1g
0S
1T
0@
1A
0,
1+
#93500
1!
1K
1L
03
#94000
0!
0K
0L
13
0g
1f
0T
1U
0A
1B
0+
1*
#94500
1!
1K
1L
03
#95000
0!
0K
0L
13
0f
1e
0U
1V
0B
1C
0*
1)
#95500
1!
1K
1L
03
#96000
0!
0K
0L
13
0e
1d
0V
1W
0C
1D
0)
1(
#96500
1!
1K
1L
03
#97000
0!
0K
0L
13
0d
1c
0W
1X
0D
1E
0(
1'
#97500
1!
1K
1L
03
#98000
0!
0K
0L
13
0c
1b
0X
1[
0E
1F
0'
1&
#98500
1!
1K
1L
03
#99000
0!
0K
0L
13
0b
1a
0[
1\
1Z
1X
1P
0F
1G
0&
1%
#99500
1!
1K
1L
03
#100000
0!
0K
0L
13
1k
1`
1b
0a
0X
0Z
1M
1[
1W
0=
1H
1F
0G
0/
1$
1&
0%
#100500
1!
1K
1L
03
#101000
0!
0K
0L
13
1c
0b
1V
0[
0W
1E
0F
1'
0&
#101500
1!
1K
1L
03
#102000
0!
0K
0L
13
1d
0c
1U
0V
1D
0E
1(
0'
#102500
1!
1K
1L
03
#103000
0!
0K
0L
13
1e
0d
1T
0U
1C
0D
1)
0(
#103500
1!
1K
1L
03
#104000
0!
0K
0L
13
1f
0e
1S
0T
1B
0C
1*
0)
#104500
1!
1K
1L
03
#105000
0!
0K
0L
13
1g
0f
1Q
0S
1A
0B
1+
0*
#105500
1!
1K
1L
03
#106000
0!
0K
0L
13
1h
0g
1]
0Q
1@
0A
1,
0+
#106500
1!
1K
1L
03
#107000
0!
0K
0L
13
0h
1i
0]
1N
0@
1?
0,
1-
0O
#107500
1!
1K
1L
03
#108000
0!
0K
0L
13
0j
0i
1]
0\
0P
1O
0M
0N
1>
0?
1.
0-
#108500
1!
1K
1L
03
#109000
0!
0K
0L
13
1j
0k
0`
1i
0]
1Q
0>
1=
0H
1?
0.
1/
0$
1-
#109500
1!
1K
1L
03
#110000
0!
0K
0L
13
1h
0i
1S
0Q
1@
0?
1,
0-
#110500
1!
1K
1L
03
#111000
0!
0K
0L
13
0h
1g
0S
1T
0@
1A
0,
1+
#111500
1!
1K
1L
03
#112000
0!
0K
0L
13
0g
1f
0T
1U
0A
1B
0+
1*
#112500
1!
1K
1L
03
#113000
0!
0K
0L
13
0f
1e
0U
1V
0B
1C
0*
1)
#113500
1!
1K
1L
03
#114000
0!
0K
0L
13
0e
1d
0V
1W
0C
1D
0)
1(
#114500
1!
1K
1L
03
#115000
0!
0K
0L
13
0d
1c
0W
1X
0D
1E
0(
1'
#115500
1!
1K
1L
03
#116000
0!
0K
0L
13
0c
1b
0X
1[
0E
1F
0'
1&
#116500
1!
1K
1L
03
#117000
0!
0K
0L
13
0b
1a
0[
1\
1Z
1X
1P
0F
1G
0&
1%
#117500
1!
1K
1L
03
#118000
0!
0K
0L
13
1k
1`
1b
0a
0X
0Z
1M
1[
1W
0=
1H
1F
0G
0/
1$
1&
0%
#118500
1!
1K
1L
03
#119000
0!
0K
0L
13
1c
0b
1V
0[
0W
1E
0F
1'
0&
#119500
1!
1K
1L
03
#120000
0!
0K
0L
13
1d
0c
1U
0V
1D
0E
1(
0'
#120500
1!
1K
1L
03
#121000
0!
0K
0L
13
1e
0d
1T
0U
1C
0D
1)
0(
#121500
1!
1K
1L
03
#122000
0!
0K
0L
13
1f
0e
1S
0T
1B
0C
1*
0)
#122500
1!
1K
1L
03
#123000
0!
0K
0L
13
1g
0f
1Q
0S
1A
0B
1+
0*
#123500
1!
1K
1L
03
#124000
0!
0K
0L
13
1h
0g
1]
0Q
1@
0A
1,
0+
#124500
1!
1K
1L
03
#125000
0!
0K
0L
13
0h
1i
0]
1N
0@
1?
0,
1-
0O
#125500
1!
1K
1L
03
#126000
0!
0K
0L
13
0j
0i
1]
0\
0P
1O
0M
0N
1>
0?
1.
0-
#126500
1!
1K
1L
03
#127000
0!
0K
0L
13
1j
0k
0`
1i
0]
1Q
0>
1=
0H
1?
0.
1/
0$
1-
#127500
1!
1K
1L
03
#128000
0!
0K
0L
13
1h
0i
1S
0Q
1@
0?
1,
0-
#128500
1!
1K
1L
03
#129000
0!
0K
0L
13
0h
1g
0S
1T
0@
1A
0,
1+
#129500
1!
1K
1L
03
#130000
0!
0K
0L
13
0g
1f
0T
1U
0A
1B
0+
1*
#130500
1!
1K
1L
03
#131000
0!
0K
0L
13
0f
1e
0U
1V
0B
1C
0*
1)
#131500
1!
1K
1L
03
#132000
0!
0K
0L
13
0e
1d
0V
1W
0C
1D
0)
1(
#132500
1!
1K
1L
03
#133000
0!
0K
0L
13
0d
1c
0W
1X
0D
1E
0(
1'
#133500
1!
1K
1L
03
#134000
0!
0K
0L
13
0c
1b
0X
1[
0E
1F
0'
1&
#134500
1!
1K
1L
03
#135000
0!
0K
0L
13
0b
1a
0[
1\
1Z
1X
1P
0F
1G
0&
1%
#135500
1!
1K
1L
03
#136000
0!
0K
0L
13
1k
1`
1b
0a
0X
0Z
1M
1[
1W
0=
1H
1F
0G
0/
1$
1&
0%
#136500
1!
1K
1L
03
#137000
0!
0K
0L
13
1c
0b
1V
0[
0W
1E
0F
1'
0&
#137500
1!
1K
1L
03
#138000
0!
0K
0L
13
1d
0c
1U
0V
1D
0E
1(
0'
#138500
1!
1K
1L
03
#139000
0!
0K
0L
13
1e
0d
1T
0U
1C
0D
1)
0(
#139500
1!
1K
1L
03
#140000
0!
0K
0L
13
1f
0e
1S
0T
1B
0C
1*
0)
#140500
1!
1K
1L
03
#141000
0!
0K
0L
13
1g
0f
1Q
0S
1A
0B
1+
0*
#141500
1!
1K
1L
03
#142000
0!
0K
0L
13
1h
0g
1]
0Q
1@
0A
1,
0+
#142500
1!
1K
1L
03
#143000
0!
0K
0L
13
0h
1i
0]
1N
0@
1?
0,
1-
0O
#143500
1!
1K
1L
03
#144000
0!
0K
0L
13
0j
0i
1]
0\
0P
1O
0M
0N
1>
0?
1.
0-
#144500
1!
1K
1L
03
#145000
0!
0K
0L
13
1j
0k
0`
1i
0]
1Q
0>
1=
0H
1?
0.
1/
0$
1-
#145500
1!
1K
1L
03
#146000
0!
0K
0L
13
1h
0i
1S
0Q
1@
0?
1,
0-
#146500
1!
1K
1L
03
#147000
0!
0K
0L
13
0h
1g
0S
1T
0@
1A
0,
1+
#147500
1!
1K
1L
03
#148000
0!
0K
0L
13
0g
1f
0T
1U
0A
1B
0+
1*
#148500
1!
1K
1L
03
#149000
0!
0K
0L
13
0f
1e
0U
1V
0B
1C
0*
1)
#149500
1!
1K
1L
03
#150000
0!
0K
0L
13
0e
1d
0V
1W
0C
1D
0)
1(
#150500
1!
1K
1L
03
#151000
0!
0K
0L
13
0d
1c
0W
1X
0D
1E
0(
1'
#151500
1!
1K
1L
03
#152000
0!
0K
0L
13
0c
1b
0X
1[
0E
1F
0'
1&
#152500
1!
1K
1L
03
#153000
0!
0K
0L
13
0b
1a
0[
1\
1Z
1X
1P
0F
1G
0&
1%
#153500
1!
1K
1L
03
#154000
0!
0K
0L
13
1k
1`
1b
0a
0X
0Z
1M
1[
1W
0=
1H
1F
0G
0/
1$
1&
0%
#154500
1!
1K
1L
03
#155000
0!
0K
0L
13
1c
0b
1V
0[
0W
1E
0F
1'
0&
#155500
1!
1K
1L
03
#156000
0!
0K
0L
13
1d
0c
1U
0V
1D
0E
1(
0'
#156500
1!
1K
1L
03
#157000
0!
0K
0L
13
1e
0d
1T
0U
1C
0D
1)
0(
#157500
1!
1K
1L
03
#158000
0!
0K
0L
13
1f
0e
1S
0T
1B
0C
1*
0)
#158500
1!
1K
1L
03
#159000
0!
0K
0L
13
1g
0f
1Q
0S
1A
0B
1+
0*
#159500
1!
1K
1L
03
#160000
0!
0K
0L
13
1h
0g
1]
0Q
1@
0A
1,
0+
#160500
1!
1K
1L
03
#161000
0!
0K
0L
13
0h
1i
0]
1N
0@
1?
0,
1-
0O
#161500
1!
1K
1L
03
#162000
0!
0K
0L
13
0j
0i
1]
0\
0P
1O
0M
0N
1>
0?
1.
0-
#162500
1!
1K
1L
03
#163000
0!
0K
0L
13
1j
0k
0`
1i
0]
1Q
0>
1=
0H
1?
0.
1/
0$
1-
#163500
1!
1K
1L
03
#164000
0!
0K
0L
13
1h
0i
1S
0Q
1@
0?
1,
0-
#164500
1!
1K
1L
03
#165000
0!
0K
0L
13
0h
1g
0S
1T
0@
1A
0,
1+
#165500
1!
1K
1L
03
#166000
0!
0K
0L
13
0g
1f
0T
1U
0A
1B
0+
1*
#166500
1!
1K
1L
03
#167000
0!
0K
0L
13
0f
1e
0U
1V
0B
1C
0*
1)
#167500
1!
1K
1L
03
#168000
0!
0K
0L
13
0e
1d
0V
1W
0C
1D
0)
1(
#168500
1!
1K
1L
03
#169000
0!
0K
0L
13
0d
1c
0W
1X
0D
1E
0(
1'
#169500
1!
1K
1L
03
#170000
0!
0K
0L
13
0c
1b
0X
1[
0E
1F
0'
1&
#170500
1!
1K
1L
03
#171000
0!
0K
0L
13
0b
1a
0[
1\
1Z
1X
1P
0F
1G
0&
1%
#171500
1!
1K
1L
03
#172000
0!
0K
0L
13
1k
1`
1b
0a
0X
0Z
1M
1[
1W
0=
1H
1F
0G
0/
1$
1&
0%
#172500
1!
1K
1L
03
#173000
0!
0K
0L
13
1c
0b
1V
0[
0W
1E
0F
1'
0&
#173500
1!
1K
1L
03
#174000
0!
0K
0L
13
1d
0c
1U
0V
1D
0E
1(
0'
#174500
1!
1K
1L
03
#175000
0!
0K
0L
13
1e
0d
1T
0U
1C
0D
1)
0(
#175500
1!
1K
1L
03
#176000
0!
0K
0L
13
1f
0e
1S
0T
1B
0C
1*
0)
#176500
1!
1K
1L
03
#177000
0!
0K
0L
13
1g
0f
1Q
0S
1A
0B
1+
0*
#177500
1!
1K
1L
03
#178000
0!
0K
0L
13
1h
0g
1]
0Q
1@
0A
1,
0+
#178500
1!
1K
1L
03
#179000
0!
0K
0L
13
0h
1i
0]
1N
0@
1?
0,
1-
0O
#179500
1!
1K
1L
03
#180000
0!
0K
0L
13
0j
0i
1]
0\
0P
1O
0M
0N
1>
0?
1.
0-
#180500
1!
1K
1L
03
#181000
0!
0K
0L
13
1j
0k
0`
1i
0]
1Q
0>
1=
0H
1?
0.
1/
0$
1-
#181500
1!
1K
1L
03
#182000
0!
0K
0L
13
1h
0i
1S
0Q
1@
0?
1,
0-
#182500
1!
1K
1L
03
#183000
0!
0K
0L
13
0h
1g
0S
1T
0@
1A
0,
1+
#183500
1!
1K
1L
03
#184000
0!
0K
0L
13
0g
1f
0T
1U
0A
1B
0+
1*
#184500
1!
1K
1L
03
#185000
0!
0K
0L
13
0f
1e
0U
1V
0B
1C
0*
1)
#185500
1!
1K
1L
03
#186000
0!
0K
0L
13
0e
1d
0V
1W
0C
1D
0)
1(
#186500
1!
1K
1L
03
#187000
0!
0K
0L
13
0d
1c
0W
1X
0D
1E
0(
1'
#187500
1!
1K
1L
03
#188000
0!
0K
0L
13
0c
1b
0X
1[
0E
1F
0'
1&
#188500
1!
1K
1L
03
#189000
0!
0K
0L
13
0b
1a
0[
1\
1Z
1X
1P
0F
1G
0&
1%
#189500
1!
1K
1L
03
#190000
0!
0K
0L
13
1k
1`
1b
0a
0X
0Z
1M
1[
1W
0=
1H
1F
0G
0/
1$
1&
0%
#190500
1!
1K
1L
03
#191000
0!
0K
0L
13
1c
0b
1V
0[
0W
1E
0F
1'
0&
#191500
1!
1K
1L
03
#192000
0!
0K
0L
13
1d
0c
1U
0V
1D
0E
1(
0'
#192500
1!
1K
1L
03
#193000
0!
0K
0L
13
1e
0d
1T
0U
1C
0D
1)
0(
#193500
1!
1K
1L
03
#194000
0!
0K
0L
13
1f
0e
1S
0T
1B
0C
1*
0)
#194500
1!
1K
1L
03
#195000
0!
0K
0L
13
1g
0f
1Q
0S
1A
0B
1+
0*
#195500
1!
1K
1L
03
#196000
0!
0K
0L
13
1h
0g
1]
0Q
1@
0A
1,
0+
#196500
1!
1K
1L
03
#197000
0!
0K
0L
13
0h
1i
0]
1N
0@
1?
0,
1-
0O
#197500
1!
1K
1L
03
#198000
0!
0K
0L
13
0j
0i
1]
0\
0P
1O
0M
0N
1>
0?
1.
0-
#198500
1!
1K
1L
03
#199000
0!
0K
0L
13
1j
0k
0`
1i
0]
1Q
0>
1=
0H
1?
0.
1/
0$
1-
#199500
1!
1K
1L
03
#200000
0!
0K
0L
13
1h
0i
1S
0Q
1@
0?
1,
0-
#200500
1!
1K
1L
03
#201000
0!
0K
0L
13
0h
1g
0S
1T
0@
1A
0,
1+
#201500
1!
1K
1L
03
#202000
0!
0K
0L
13
0g
1f
0T
1U
0A
1B
0+
1*
#202500
1!
1K
1L
03
#203000
0!
0K
0L
13
0f
1e
0U
1V
0B
1C
0*
1)
#203500
1!
1K
1L
03
#204000
0!
0K
0L
13
0e
1d
0V
1W
0C
1D
0)
1(
#204500
1!
1K
1L
03
#205000
0!
0K
0L
13
0d
1c
0W
1X
0D
1E
0(
1'
#205500
1!
1K
1L
03
#206000
0!
0K
0L
13
0c
1b
0X
1[
0E
1F
0'
1&
#206500
1!
1K
1L
03
#207000
0!
0K
0L
13
0b
1a
0[
1\
1Z
1X
1P
0F
1G
0&
1%
#207500
1!
1K
1L
03
#208000
0!
0K
0L
13
1k
1`
1b
0a
0X
0Z
1M
1[
1W
0=
1H
1F
0G
0/
1$
1&
0%
#208500
1!
1K
1L
03
#209000
0!
0K
0L
13
1c
0b
1V
0[
0W
1E
0F
1'
0&
#209500
1!
1K
1L
03
#210000
0!
0K
0L
13
1d
0c
1U
0V
1D
0E
1(
0'
#210500
1!
1K
1L
03
#211000
0!
0K
0L
13
1e
0d
1T
0U
1C
0D
1)
0(
#211500
1!
1K
1L
03
#212000
0!
0K
0L
13
1f
0e
1S
0T
1B
0C
1*
0)
#212500
1!
1K
1L
03
#213000
0!
0K
0L
13
1g
0f
1Q
0S
1A
0B
1+
0*
#213500
1!
1K
1L
03
#214000
0!
0K
0L
13
1h
0g
1]
0Q
1@
0A
1,
0+
#214500
1!
1K
1L
03
#215000
0!
0K
0L
13
0h
1i
0]
1N
0@
1?
0,
1-
0O
#215500
1!
1K
1L
03
#216000
0!
0K
0L
13
0j
0i
1]
0\
0P
1O
0M
0N
1>
0?
1.
0-
#216500
1!
1K
1L
03
#217000
0!
0K
0L
13
1j
0k
0`
1i
0]
1Q
0>
1=
0H
1?
0.
1/
0$
1-
#217500
1!
1K
1L
03
#218000
0!
0K
0L
13
1h
0i
1S
0Q
1@
0?
1,
0-
#218500
1!
1K
1L
03
#219000
0!
0K
0L
13
0h
1g
0S
1T
0@
1A
0,
1+
#219500
1!
1K
1L
03
#220000
0!
0K
0L
13
0g
1f
0T
1U
0A
1B
0+
1*
#220500
1!
1K
1L
03
#221000
0!
0K
0L
13
0f
1e
0U
1V
0B
1C
0*
1)
#221500
1!
1K
1L
03
#222000
0!
0K
0L
13
0e
1d
0V
1W
0C
1D
0)
1(
#222500
1!
1K
1L
03
#223000
0!
0K
0L
13
0d
1c
0W
1X
0D
1E
0(
1'
#223500
1!
1K
1L
03
#224000
0!
0K
0L
13
0c
1b
0X
1[
0E
1F
0'
1&
#224500
1!
1K
1L
03
#225000
0!
0K
0L
13
0b
1a
0[
1\
1Z
1X
1P
0F
1G
0&
1%
#225500
1!
1K
1L
03
