Clases/FlipFlops/simulation/qsim/flipflops.msim.vcd
$comment
	File created using the following command:
		vcd file flipflops.msim.vcd -direction
$end
$date
	Sun Mar 03 13:20:03 2024
$end
$version
	ModelSim Version 10.1d
$end
$timescale
	1ps
$end
$scope module flipflop_T_vlg_vec_tst $end
$var reg 1 ! CLK $end
$var reg 1 " T $end
$var wire 1 # Q1 $end
$var wire 1 $ Q2 $end
$var wire 1 % sampler $end
$scope module i1 $end
$var wire 1 & gnd $end
$var wire 1 ' vcc $end
$var wire 1 ( unknown $end
$var tri1 1 ) devclrn $end
$var tri1 1 * devpor $end
$var tri1 1 + devoe $end
$var wire 1 , Q1~output_o $end
$var wire 1 - Q2~output_o $end
$var wire 1 . T~input_o $end
$var wire 1 / CLK~input_o $end
$var wire 1 0 inst1~1_combout $end
$upscope $end
$upscope $end
$enddefinitions $end
#0
$dumpvars
0!
0"
1#
1$
x%
0&
1'
x(
1)
1*
1+
1,
1-
0.
0/
00
$end
#5000
1!
1/
0%
#10000
0!
0/
1%
#15000
1!
1/
0%
#20000
0!
0/
1%
#25000
1!
1/
0%
#30000
0!
0/
1%
#35000
1!
1/
0%
#40000
0!
0/
1%
#45000
1!
1/
0%
#50000
0!
0/
1%
#55000
1!
1/
0%
#60000
0!
0/
1%
#65000
1!
1/
0%
#70000
0!
0/
1%
#75000
1!
1/
0%
#80000
0!
0/
1%
#85000
1!
1/
0%
#90000
0!
0/
1%
#95000
1!
1/
0%
#100000
0!
0/
1%
#105000
1!
1/
0%
#110000
0!
0/
1%
#115000
1!
1/
0%
#120000
0!
0/
1%
#125000
1!
1/
0%
#130000
0!
0/
1%
#135000
1!
1/
0%
#140000
0!
0/
1%
#145000
1!
1/
0%
#150000
0!
0/
1%
#155000
1!
1/
0%
#160000
0!
0/
1%
#165000
1!
1/
0%
#170000
0!
0/
1%
#175000
1!
1/
0%
#180000
0!
0/
1%
#185000
1!
1/
0%
#190000
0!
0/
1%
#195000
1!
1/
0%
#200000
0!
0/
1%
#205000
1!
1/
0%
#210000
0!
0/
1%
#215000
1!
1/
0%
#220000
0!
0/
1%
#225000
1!
1/
0%
#230000
0!
0/
1%
#235000
1!
1/
0%
#240000
0!
0/
1%
#245000
1!
1/
0%
#250000
0!
0/
1%
#255000
1!
1/
0%
#260000
0!
0/
1%
#265000
1!
1/
0%
#270000
0!
0/
1%
#275000
1!
1/
0%
#280000
0!
0/
1%
#285000
1!
1/
0%
#290000
0!
0/
1%
#295000
1!
1/
0%
#300000
0!
0/
1%
#305000
1!
1/
0%
#310000
0!
0/
1%
#315000
1!
1/
0%
#320000
0!
0/
1%
#325000
1!
1/
0%
#330000
0!
0/
1%
#335000
1!
1/
0%
#340000
0!
0/
1%
#345000
1!
1/
0%
#350000
0!
0/
1%
#355000
1!
1/
0%
#360000
0!
0/
1%
#365000
1!
1/
0%
#370000
0!
0/
1%
#375000
1!
1/
0%
#380000
0!
0/
1%
#385000
1!
1/
0%
#390000
0!
0/
1%
#395000
1!
1/
0%
#400000
0!
0/
1%
#405000
1!
1/
0%
#410000
0!
0/
1%
#415000
1!
1/
0%
#420000
0!
0/
1%
#425000
1!
1/
0%
#430000
0!
0/
1%
#435000
1!
1/
0%
#440000
0!
0/
1%
#445000
1!
1/
0%
#450000
0!
0/
1%
#455000
1!
1/
0%
#460000
0!
0/
1%
#465000
1!
1/
0%
#470000
0!
0/
1%
#475000
1!
1/
0%
#480000
0!
0/
1%
#485000
1!
1/
0%
#490000
0!
0/
1%
#495000
1!
1/
0%
#500000
1"
0!
1.
0/
1%
