Clases/JK en Cascada/simulation/qsim/cascada_JK.msim.vcd
$comment
	File created using the following command:
		vcd file cascada_JK.msim.vcd -direction
$end
$date
	Wed Mar 13 00:34:37 2024
$end
$version
	ModelSim Version 10.1d
$end
$timescale
	1ps
$end
$scope module flipflopJK_negedge_vlg_vec_tst $end
$var reg 1 ! CLK $end
$var reg 1 " E1 $end
$var wire 1 # J $end
$var wire 1 $ J1 $end
$var wire 1 % K $end
$var wire 1 & K1 $end
$var wire 1 ' Q $end
$var wire 1 ( Q1 $end
$var wire 1 ) Q2 $end
$var wire 1 * sampler $end
$scope module i1 $end
$var wire 1 + gnd $end
$var wire 1 , vcc $end
$var wire 1 - unknown $end
$var tri1 1 . devclrn $end
$var tri1 1 / devpor $end
$var tri1 1 0 devoe $end
$var wire 1 1 Q~output_o $end
$var wire 1 2 Q1~output_o $end
$var wire 1 3 J~output_o $end
$var wire 1 4 K~output_o $end
$var wire 1 5 J1~output_o $end
$var wire 1 6 Q2~output_o $end
$var wire 1 7 K1~output_o $end
$var wire 1 8 E1~input_o $end
$var wire 1 9 CLK~input_o $end
$var wire 1 : inst2~1_combout $end
$var wire 1 ; inst3~combout $end
$var wire 1 < inst5~0_combout $end
$var wire 1 = inst5~q $end
$upscope $end
$upscope $end
$enddefinitions $end
#0
$dumpvars
0!
1"
1#
1$
1%
1&
1'
1(
0)
x*
0+
1,
x-
1.
1/
10
11
12
13
14
15
06
17
18
09
0:
1;
1<
0=
$end
#5000
1!
19
0*
0;
02
0(
#10000
0!
09
1*
1;
12
1(
1=
0<
16
1)
#15000
1!
19
0*
0;
02
0(
#20000
0!
09
1*
1;
12
1(
0=
1<
06
0)
#25000
1!
19
0*
0;
02
0(
#30000
0!
09
1*
1;
12
1(
1=
0<
16
1)
#35000
1!
19
0*
0;
02
0(
#40000
0!
09
1*
1;
12
1(
0=
1<
06
0)
#45000
1!
19
0*
0;
02
0(
#50000
0!
09
1*
1;
12
1(
1=
0<
16
1)
#55000
1!
19
0*
0;
02
0(
#60000
0!
09
1*
1;
12
1(
0=
1<
06
0)
#65000
1!
19
0*
0;
02
0(
#70000
0!
09
1*
1;
12
1(
1=
0<
16
1)
#75000
1!
19
0*
0;
02
0(
#80000
0!
09
1*
1;
12
1(
0=
1<
06
0)
#85000
1!
19
0*
0;
02
0(
#90000
0!
09
1*
1;
12
1(
1=
0<
16
1)
#95000
1!
19
0*
0;
02
0(
#100000
0!
09
1*
1;
12
1(
0=
1<
06
0)
#105000
1!
19
0*
0;
02
0(
#110000
0!
09
1*
1;
12
1(
1=
0<
16
1)
#115000
1!
19
0*
0;
02
0(
#120000
0!
09
1*
1;
12
1(
0=
1<
06
0)
#125000
1!
19
0*
0;
02
0(
#130000
0!
09
1*
1;
12
1(
1=
0<
16
1)
#135000
1!
19
0*
0;
02
0(
#140000
0!
09
1*
1;
12
1(
0=
1<
06
0)
#145000
1!
19
0*
0;
02
0(
#150000
0!
09
1*
1;
12
1(
1=
0<
16
1)
#155000
1!
19
0*
0;
02
0(
#160000
0!
09
1*
1;
12
1(
0=
1<
06
0)
#165000
1!
19
0*
0;
02
0(
#170000
0!
09
1*
1;
12
1(
1=
0<
16
1)
#175000
1!
19
0*
0;
02
0(
#180000
0!
09
1*
1;
12
1(
0=
1<
06
0)
#185000
1!
19
0*
0;
02
0(
#190000
0!
09
1*
1;
12
1(
1=
0<
16
1)
#195000
1!
19
0*
0;
02
0(
#200000
0!
09
1*
1;
12
1(
0=
1<
06
0)
#205000
1!
19
0*
0;
02
0(
#210000
0!
09
1*
1;
12
1(
1=
0<
16
1)
#215000
1!
19
0*
0;
02
0(
#220000
0!
09
1*
1;
12
1(
0=
1<
06
0)
#225000
1!
19
0*
0;
02
0(
#230000
0!
09
1*
1;
12
1(
1=
0<
16
1)
#235000
1!
19
0*
0;
02
0(
#240000
0!
09
1*
1;
12
1(
0=
1<
06
0)
#245000
1!
19
0*
0;
02
0(
#250000
0!
09
1*
1;
12
1(
1=
0<
16
1)
#255000
1!
19
0*
0;
02
0(
#260000
0!
09
1*
1;
12
1(
0=
1<
06
0)
#265000
1!
19
0*
0;
02
0(
#270000
0!
09
1*
1;
12
1(
1=
0<
16
1)
#275000
1!
19
0*
0;
02
0(
#280000
0!
09
1*
1;
12
1(
0=
1<
06
0)
#285000
1!
19
0*
0;
02
0(
#290000
0!
09
1*
1;
12
1(
1=
0<
16
1)
#295000
1!
19
0*
0;
02
0(
#300000
0!
09
1*
1;
12
1(
0=
1<
06
0)
#305000
1!
19
0*
0;
02
0(
#310000
0!
09
1*
1;
12
1(
1=
0<
16
1)
#315000
1!
19
0*
0;
02
0(
#320000
0!
09
1*
1;
12
1(
0=
1<
06
0)
#325000
1!
19
0*
0;
02
0(
#330000
0!
09
1*
1;
12
1(
1=
0<
16
1)
#335000
1!
19
0*
0;
02
0(
#340000
0!
09
1*
1;
12
1(
0=
1<
06
0)
#345000
1!
19
0*
0;
02
0(
#350000
0!
09
1*
1;
12
1(
1=
0<
16
1)
#355000
1!
19
0*
0;
02
0(
#360000
0!
09
1*
1;
12
1(
0=
1<
06
0)
#365000
1!
19
0*
0;
02
0(
#370000
0!
09
1*
1;
12
1(
1=
0<
16
1)
#375000
1!
19
0*
0;
02
0(
#380000
0!
09
1*
1;
12
1(
0=
1<
06
0)
#385000
1!
19
0*
0;
02
0(
#390000
0!
09
1*
1;
12
1(
1=
0<
16
1)
#395000
1!
19
0*
0;
02
0(
#400000
0!
09
1*
1;
12
1(
0=
1<
06
0)
#405000
1!
19
0*
0;
02
0(
#410000
0!
09
1*
1;
12
1(
1=
0<
16
1)
#415000
1!
19
0*
0;
02
0(
#420000
0!
09
1*
1;
12
1(
0=
1<
06
0)
#425000
1!
19
0*
0;
02
0(
#430000
0!
09
1*
1;
12
1(
1=
0<
16
1)
#435000
1!
19
0*
0;
02
0(
#440000
0!
09
1*
1;
12
1(
0=
1<
06
0)
#445000
1!
19
0*
0;
02
0(
#450000
0!
09
1*
1;
12
1(
1=
0<
16
1)
#455000
1!
19
0*
0;
02
0(
#460000
0!
09
1*
1;
12
1(
0=
1<
06
0)
#465000
1!
19
0*
0;
02
0(
#470000
0!
09
1*
1;
12
1(
1=
0<
16
1)
#475000
1!
19
0*
0;
02
0(
#480000
0!
09
1*
1;
12
1(
0=
1<
06
0)
#485000
1!
19
0*
0;
02
0(
#490000
0!
09
1*
1;
12
1(
1=
0<
16
1)
#495000
1!
19
0*
0;
02
0(
#500000
0!
09
1*
1;
12
1(
0=
1<
06
0)
#505000
1!
19
0*
0;
02
0(
#510000
0!
09
1*
1;
12
1(
1=
0<
16
1)
#515000
1!
19
0*
0;
02
0(
#520000
0!
09
1*
1;
12
1(
0=
1<
06
0)
#525000
1!
19
0*
0;
02
0(
#530000
0!
09
1*
1;
12
1(
1=
0<
16
1)
#535000
1!
19
0*
0;
02
0(
#540000
0!
09
1*
1;
12
1(
0=
1<
06
0)
#545000
1!
19
0*
0;
02
0(
#550000
0!
09
1*
1;
12
1(
1=
0<
16
1)
#555000
1!
19
0*
0;
02
0(
#560000
0!
09
1*
1;
12
1(
0=
1<
06
0)
#565000
1!
19
0*
0;
02
0(
#570000
0!
09
1*
1;
12
1(
1=
0<
16
1)
#575000
1!
19
0*
0;
02
0(
#580000
0!
09
1*
1;
12
1(
0=
1<
06
0)
#585000
1!
19
0*
0;
02
0(
#590000
0!
09
1*
1;
12
1(
1=
0<
16
1)
#595000
1!
19
0*
0;
02
0(
#600000
0!
09
1*
1;
12
1(
0=
1<
06
0)
#605000
1!
19
0*
0;
02
0(
#610000
0!
09
1*
1;
12
1(
1=
0<
16
1)
#615000
1!
19
0*
0;
02
0(
#620000
0!
09
1*
1;
12
1(
0=
1<
06
0)
#625000
1!
19
0*
0;
02
0(
#630000
0!
09
1*
1;
12
1(
1=
0<
16
1)
#635000
1!
19
0*
0;
02
0(
#640000
0!
09
1*
1;
12
1(
0=
1<
06
0)
#645000
1!
19
0*
0;
02
0(
#650000
0!
09
1*
1;
12
1(
1=
0<
16
1)
#655000
1!
19
0*
0;
02
0(
#660000
0!
09
1*
1;
12
1(
0=
1<
06
0)
#665000
1!
19
0*
0;
02
0(
#670000
0!
09
1*
1;
12
1(
1=
0<
16
1)
#675000
1!
19
0*
0;
02
0(
#680000
0!
09
1*
1;
12
1(
0=
1<
06
0)
#685000
1!
19
0*
0;
02
0(
#690000
0!
09
1*
1;
12
1(
1=
0<
16
1)
#695000
1!
19
0*
0;
02
0(
#700000
0!
09
1*
1;
12
1(
0=
1<
06
0)
#705000
1!
19
0*
0;
02
0(
#710000
0!
09
1*
1;
12
1(
1=
0<
16
1)
#715000
1!
19
0*
0;
02
0(
#720000
0!
09
1*
1;
12
1(
0=
1<
06
0)
#725000
1!
19
0*
0;
02
0(
#730000
0!
09
1*
1;
12
1(
1=
0<
16
1)
#735000
1!
19
0*
0;
02
0(
#740000
0!
09
1*
1;
12
1(
0=
1<
06
0)
#745000
1!
19
0*
0;
02
0(
#750000
0!
09
1*
1;
12
1(
1=
0<
16
1)
#755000
1!
19
0*
0;
02
0(
#760000
0!
09
1*
1;
12
1(
0=
1<
06
0)
#765000
1!
19
0*
0;
02
0(
#770000
0!
09
1*
1;
12
1(
1=
0<
16
1)
#775000
1!
19
0*
0;
02
0(
#780000
0!
09
1*
1;
12
1(
0=
1<
06
0)
#785000
1!
19
0*
0;
02
0(
#790000
0!
09
1*
1;
12
1(
1=
0<
16
1)
#795000
1!
19
0*
0;
02
0(
#800000
0!
09
1*
1;
12
1(
0=
1<
06
0)
#805000
1!
19
0*
0;
02
0(
#810000
0!
09
1*
1;
12
1(
1=
0<
16
1)
#815000
1!
19
0*
0;
02
0(
#820000
0!
09
1*
1;
12
1(
0=
1<
06
0)
#825000
1!
19
0*
0;
02
0(
#830000
0!
09
1*
1;
12
1(
1=
0<
16
1)
#835000
1!
19
0*
0;
02
0(
#840000
0!
09
1*
1;
12
1(
0=
1<
06
0)
#845000
1!
19
0*
0;
02
0(
#850000
0!
09
1*
1;
12
1(
1=
0<
16
1)
#855000
1!
19
0*
0;
02
0(
#860000
0!
09
1*
1;
12
1(
0=
1<
06
0)
#865000
1!
19
0*
0;
02
0(
#870000
0!
09
1*
1;
12
1(
1=
0<
16
1)
#875000
1!
19
0*
0;
02
0(
#880000
0!
09
1*
1;
12
1(
0=
1<
06
0)
#885000
1!
19
0*
0;
02
0(
#890000
0!
09
1*
1;
12
1(
1=
0<
16
1)
#895000
1!
19
0*
0;
02
0(
#900000
0!
09
1*
1;
12
1(
0=
1<
06
0)
#905000
1!
19
0*
0;
02
0(
#910000
0!
09
1*
1;
12
1(
1=
0<
16
1)
#915000
1!
19
0*
0;
02
0(
#920000
0!
09
1*
1;
12
1(
0=
1<
06
0)
#925000
1!
19
0*
0;
02
0(
#930000
0!
09
1*
1;
12
1(
1=
0<
16
1)
#935000
1!
19
0*
0;
02
0(
#940000
0!
09
1*
1;
12
1(
0=
1<
06
0)
#945000
1!
19
0*
0;
02
0(
#950000
0!
09
1*
1;
12
1(
1=
0<
16
1)
#955000
1!
19
0*
0;
02
0(
#960000
0!
09
1*
1;
12
1(
0=
1<
06
0)
#965000
1!
19
0*
0;
02
0(
#970000
0!
09
1*
1;
12
1(
1=
0<
16
1)
#975000
1!
19
0*
0;
02
0(
#980000
0!
09
1*
1;
12
1(
0=
1<
06
0)
#985000
1!
19
0*
0;
02
0(
#990000
0!
09
1*
1;
12
1(
1=
0<
16
1)
#995000
1!
19
0*
0;
02
0(
