Clases/Proyecto Final/simulation/qsim/proyecto.msim.vcd
$comment
	File created using the following command:
		vcd file proyecto.msim.vcd -direction
$end
$date
	Tue May 21 22:20:08 2024
$end
$version
	ModelSim Version 10.1d
$end
$timescale
	1ps
$end
$scope module Pastillero_vlg_vec_tst $end
$var reg 1 ! RST $end
$var reg 1 " clk $end
$var reg 1 # w $end
$var reg 1 $ x $end
$var reg 1 % y $end
$var reg 1 & z $end
$var wire 1 ' AB [3] $end
$var wire 1 ( AB [2] $end
$var wire 1 ) AB [1] $end
$var wire 1 * AB [0] $end
$var wire 1 + E [10] $end
$var wire 1 , E [9] $end
$var wire 1 - E [8] $end
$var wire 1 . E [7] $end
$var wire 1 / E [6] $end
$var wire 1 0 E [5] $end
$var wire 1 1 E [4] $end
$var wire 1 2 E [3] $end
$var wire 1 3 E [2] $end
$var wire 1 4 E [1] $end
$var wire 1 5 E [0] $end
$var wire 1 6 sampler $end
$scope module i1 $end
$var wire 1 7 gnd $end
$var wire 1 8 vcc $end
$var wire 1 9 unknown $end
$var tri1 1 : devclrn $end
$var tri1 1 ; devpor $end
$var tri1 1 < devoe $end
$var wire 1 = Add0~0_combout $end
$var wire 1 > Add0~4_combout $end
$var wire 1 ? Add0~6_combout $end
$var wire 1 @ Add0~20_combout $end
$var wire 1 A Add0~38_combout $end
$var wire 1 B Add0~45 $end
$var wire 1 C Add0~46_combout $end
$var wire 1 D Add0~47 $end
$var wire 1 E Add0~48_combout $end
$var wire 1 F Add0~49 $end
$var wire 1 G Add0~50_combout $end
$var wire 1 H Equal0~0_combout $end
$var wire 1 I Equal0~7_combout $end
$var wire 1 J AB[0]~output_o $end
$var wire 1 K AB[1]~output_o $end
$var wire 1 L AB[2]~output_o $end
$var wire 1 M AB[3]~output_o $end
$var wire 1 N E[0]~output_o $end
$var wire 1 O E[1]~output_o $end
$var wire 1 P E[2]~output_o $end
$var wire 1 Q E[3]~output_o $end
$var wire 1 R E[4]~output_o $end
$var wire 1 S E[5]~output_o $end
$var wire 1 T E[6]~output_o $end
$var wire 1 U E[7]~output_o $end
$var wire 1 V E[8]~output_o $end
$var wire 1 W E[9]~output_o $end
$var wire 1 X E[10]~output_o $end
$var wire 1 Y w~input_o $end
$var wire 1 Z y~input_o $end
$var wire 1 [ x~input_o $end
$var wire 1 \ RST~input_o $end
$var wire 1 ] state~17_combout $end
$var wire 1 ^ Add0~1 $end
$var wire 1 _ Add0~2_combout $end
$var wire 1 ` c~0_combout $end
$var wire 1 a Add0~3 $end
$var wire 1 b Add0~5 $end
$var wire 1 c Add0~7 $end
$var wire 1 d Add0~8_combout $end
$var wire 1 e c~1_combout $end
$var wire 1 f Add0~9 $end
$var wire 1 g Add0~10_combout $end
$var wire 1 h c~2_combout $end
$var wire 1 i Add0~11 $end
$var wire 1 j Add0~12_combout $end
$var wire 1 k Add0~13 $end
$var wire 1 l Add0~14_combout $end
$var wire 1 m Add0~15 $end
$var wire 1 n Add0~17 $end
$var wire 1 o Add0~18_combout $end
$var wire 1 p Add0~19 $end
$var wire 1 q Add0~21 $end
$var wire 1 r Add0~22_combout $end
$var wire 1 s Add0~23 $end
$var wire 1 t Add0~25 $end
$var wire 1 u Add0~26_combout $end
$var wire 1 v Add0~27 $end
$var wire 1 w Add0~28_combout $end
$var wire 1 x Add0~29 $end
$var wire 1 y Add0~30_combout $end
$var wire 1 z Add0~31 $end
$var wire 1 { Add0~32_combout $end
$var wire 1 | Add0~33 $end
$var wire 1 } Add0~34_combout $end
$var wire 1 ~ Add0~35 $end
$var wire 1 !! Add0~36_combout $end
$var wire 1 "! Equal0~5_combout $end
$var wire 1 #! Add0~37 $end
$var wire 1 $! Add0~39 $end
$var wire 1 %! Add0~40_combout $end
$var wire 1 &! Add0~41 $end
$var wire 1 '! Add0~42_combout $end
$var wire 1 (! Add0~43 $end
$var wire 1 )! Add0~44_combout $end
$var wire 1 *! Equal0~6_combout $end
$var wire 1 +! Equal0~1_combout $end
$var wire 1 ,! Add0~16_combout $end
$var wire 1 -! Equal0~2_combout $end
$var wire 1 .! Add0~24_combout $end
$var wire 1 /! Equal0~3_combout $end
$var wire 1 0! Equal0~4_combout $end
$var wire 1 1! Equal0~8_combout $end
$var wire 1 2! state.S9~q $end
$var wire 1 3! state~22_combout $end
$var wire 1 4! state.S10~q $end
$var wire 1 5! z~input_o $end
$var wire 1 6! state~28_combout $end
$var wire 1 7! state~29_combout $end
$var wire 1 8! state.S0~q $end
$var wire 1 9! state~18_combout $end
$var wire 1 :! state.S1~q $end
$var wire 1 ;! state~23_combout $end
$var wire 1 <! state~24_combout $end
$var wire 1 =! state.S2~q $end
$var wire 1 >! state~20_combout $end
$var wire 1 ?! state.S3~q $end
$var wire 1 @! WideOr5~0_combout $end
$var wire 1 A! state~26_combout $end
$var wire 1 B! state.S4~q $end
$var wire 1 C! state~19_combout $end
$var wire 1 D! state.S5~q $end
$var wire 1 E! WideOr6~combout $end
$var wire 1 F! state~25_combout $end
$var wire 1 G! state.S6~q $end
$var wire 1 H! WideOr5~combout $end
$var wire 1 I! state~21_combout $end
$var wire 1 J! state.S7~q $end
$var wire 1 K! WideOr4~0_combout $end
$var wire 1 L! state~27_combout $end
$var wire 1 M! state.S8~q $end
$var wire 1 N! WideOr3~0_combout $end
$var wire 1 O! clk~input_o $end
$var wire 1 P! clk~inputclkctrl_outclk $end
$var wire 1 Q! E[0]~1_combout $end
$var wire 1 R! E[7]~0_combout $end
$var wire 1 S! E[0]~reg0_q $end
$var wire 1 T! E[1]~reg0_q $end
$var wire 1 U! E[2]~reg0feeder_combout $end
$var wire 1 V! E[2]~reg0_q $end
$var wire 1 W! E[3]~reg0feeder_combout $end
$var wire 1 X! E[3]~reg0_q $end
$var wire 1 Y! E[4]~reg0feeder_combout $end
$var wire 1 Z! E[4]~reg0_q $end
$var wire 1 [! E[5]~reg0feeder_combout $end
$var wire 1 \! E[5]~reg0_q $end
$var wire 1 ]! E[6]~reg0feeder_combout $end
$var wire 1 ^! E[6]~reg0_q $end
$var wire 1 _! E[7]~reg0_q $end
$var wire 1 `! E[8]~reg0feeder_combout $end
$var wire 1 a! E[8]~reg0_q $end
$var wire 1 b! E[9]~reg0_q $end
$var wire 1 c! E[10]~reg0feeder_combout $end
$var wire 1 d! E[10]~reg0_q $end
$var wire 1 e! c [25] $end
$var wire 1 f! c [24] $end
$var wire 1 g! c [23] $end
$var wire 1 h! c [22] $end
$var wire 1 i! c [21] $end
$var wire 1 j! c [20] $end
$var wire 1 k! c [19] $end
$var wire 1 l! c [18] $end
$var wire 1 m! c [17] $end
$var wire 1 n! c [16] $end
$var wire 1 o! c [15] $end
$var wire 1 p! c [14] $end
$var wire 1 q! c [13] $end
$var wire 1 r! c [12] $end
$var wire 1 s! c [11] $end
$var wire 1 t! c [10] $end
$var wire 1 u! c [9] $end
$var wire 1 v! c [8] $end
$var wire 1 w! c [7] $end
$var wire 1 x! c [6] $end
$var wire 1 y! c [5] $end
$var wire 1 z! c [4] $end
$var wire 1 {! c [3] $end
$var wire 1 |! c [2] $end
$var wire 1 }! c [1] $end
$var wire 1 ~! c [0] $end
$upscope $end
$upscope $end
$enddefinitions $end
#0
$dumpvars
1!
0"
1#
1$
1%
1&
0*
0)
0(
0'
05
04
03
02
01
00
0/
0.
0-
0,
0+
x6
07
18
x9
1:
1;
1<
1=
0>
0?
0@
0A
0B
0C
1D
0E
0F
0G
0H
1I
0J
0K
0L
0M
0N
0O
0P
0Q
0R
0S
0T
0U
0V
0W
0X
1Y
1Z
1[
1\
0]
0^
0_
0`
1a
0b
1c
0d
0e
0f
0g
0h
1i
0j
0k
0l
1m
0n
0o
1p
0q
0r
1s
0t
0u
1v
0w
0x
0y
1z
0{
0|
0}
1~
0!!
1"!
0#!
1$!
0%!
0&!
0'!
1(!
0)!
1*!
0+!
0,!
1-!
0.!
1/!
00!
01!
02!
03!
04!
15!
06!
17!
08!
19!
0:!
0;!
0<!
0=!
0>!
0?!
1@!
0A!
0B!
0C!
0D!
0E!
0F!
0G!
0H!
0I!
0J!
0K!
0L!
0M!
0N!
0O!
0P!
1Q!
0R!
0S!
0T!
0U!
0V!
0W!
0X!
0Y!
0Z!
0[!
0\!
0]!
0^!
0_!
0`!
0a!
0b!
0c!
0d!
0~!
0}!
0|!
0{!
0z!
0y!
0x!
0w!
0v!
0u!
0t!
0s!
0r!
0q!
0p!
0o!
0n!
0m!
0l!
0k!
0j!
0i!
0h!
0g!
0f!
0e!
$end
#500
1"
1O!
1P!
06
1~!
1H
1^
0=
1_
1`
#1000
0"
0O!
0P!
16
#1500
1"
1O!
1P!
06
1}!
0~!
0a
0_
0H
0^
1=
1>
0`
1a
1_
0>
1`
#2000
0"
0O!
0P!
16
#2500
1"
1O!
1P!
06
1~!
1^
0=
0a
0_
1>
0`
#3000
0"
0O!
0P!
16
#3500
1"
1O!
1P!
06
0}!
1|!
0~!
1a
1_
1b
0>
0^
1=
0b
1>
1`
1?
0_
0?
0`
#4000
0"
0O!
0P!
16
#4500
1"
1O!
1P!
06
1~!
1^
0=
1_
1`
#5000
0"
0O!
0P!
16
#5500
1"
1O!
1P!
06
1}!
0~!
0a
0_
0^
1=
1b
0>
0`
1a
1_
1?
0b
1>
1`
0?
#6000
0"
0O!
0P!
16
#6500
1"
1O!
1P!
06
1~!
1^
0=
0a
0_
1b
0>
0`
1?
#7000
0"
0O!
0P!
16
#7500
1"
1O!
1P!
06
0}!
1{!
0|!
0~!
1a
1_
0c
0?
0b
1>
0^
1=
0>
1`
1d
1c
1?
0_
1e
0d
0`
0e
#8000
0"
0O!
0P!
16
#8500
1"
1O!
1P!
06
1~!
1^
0=
1_
1`
#9000
0"
0O!
0P!
16
#9500
1"
1O!
1P!
06
1}!
0~!
0a
0_
0^
1=
1>
0`
1a
1_
0>
1`
#10000
0"
0O!
0P!
16
#10500
1"
1O!
1P!
06
1~!
1^
0=
0a
0_
1>
0`
#11000
0"
0O!
0P!
16
#11500
1"
1O!
1P!
06
0}!
1|!
0~!
1a
1_
1b
0>
0^
1=
0b
1>
1`
0c
0?
0_
1c
1?
1d
0`
0d
1e
0e
#12000
0"
0O!
0P!
16
#12500
1"
1O!
1P!
06
1~!
1^
0=
1_
1`
#13000
0"
0O!
0P!
16
#13500
1"
1O!
1P!
06
1}!
0~!
0a
0_
0^
1=
1b
0>
0`
1a
1_
0c
0?
0b
1>
1`
1d
1c
1?
1e
0d
0e
#14000
0"
0O!
0P!
16
#14500
1"
1O!
1P!
06
1~!
1^
0=
0a
0_
1b
0>
0`
0c
0?
1d
1e
#15000
0"
0O!
0P!
16
#15500
1"
1O!
1P!
06
1z!
0}!
0{!
0|!
0~!
1f
0d
1a
1_
1c
1?
0b
1>
0^
1=
1g
0e
0>
1`
0f
1d
0?
0_
1h
0g
1e
0`
0h
#16000
0"
0O!
0P!
16
#16500
1"
1O!
1P!
06
1~!
1H
1^
0=
1_
1`
#17000
0"
0O!
0P!
16
#17500
1"
1O!
1P!
06
1}!
0~!
0a
0_
0H
0^
1=
1>
0`
1a
1_
0>
1`
#18000
0"
0O!
0P!
16
#18500
1"
1O!
1P!
06
1~!
1^
0=
0a
0_
1>
0`
#19000
0"
0O!
0P!
16
#19500
1"
1O!
1P!
06
0}!
1|!
0~!
1a
1_
1b
0>
0^
1=
0b
1>
1`
1?
0_
0?
0`
#20000
0"
0O!
0P!
16
#20500
1"
1O!
1P!
06
1~!
1^
0=
1_
1`
#21000
0"
0O!
0P!
16
#21500
1"
1O!
1P!
06
1}!
0~!
0a
0_
0^
1=
1b
0>
0`
1a
1_
1?
0b
1>
1`
0?
#22000
0"
0O!
0P!
16
#22500
1"
1O!
1P!
06
1~!
1^
0=
0a
0_
1b
0>
0`
1?
#23000
0"
0O!
0P!
16
#23500
1"
1O!
1P!
06
0}!
1{!
0|!
0~!
1a
1_
0c
0?
0b
1>
0^
1=
0>
1`
1f
0d
1c
1?
0_
1g
0e
0f
1d
0`
1h
0g
1e
0h
#24000
0"
0O!
0P!
16
#24500
1"
1O!
1P!
06
1~!
1^
0=
1_
1`
#25000
0"
0O!
0P!
16
#25500
1"
1O!
1P!
06
1}!
0~!
0a
0_
0^
1=
1>
0`
1a
1_
0>
1`
#26000
0"
0O!
0P!
16
#26500
1"
1O!
1P!
06
1~!
1^
0=
0a
0_
1>
0`
#27000
0"
0O!
0P!
16
#27500
1"
1O!
1P!
06
0}!
1|!
0~!
1a
1_
1b
0>
0^
1=
0b
1>
1`
0c
0?
0_
1c
1?
1f
0d
0`
0f
1d
1g
0e
0g
1e
1h
0h
#28000
0"
0O!
0P!
16
#28500
1"
1O!
1P!
06
1~!
1^
0=
1_
1`
#29000
0"
0O!
0P!
16
#29500
1"
1O!
1P!
06
1}!
0~!
0a
0_
0^
1=
1b
0>
0`
1a
1_
0c
0?
0b
1>
1`
1f
0d
1c
1?
1g
0e
0f
1d
1h
0g
1e
0h
#30000
0"
0O!
0P!
16
#30500
1"
1O!
1P!
06
1~!
1^
0=
0a
0_
1b
0>
0`
0c
0?
1f
0d
1g
0e
1h
#31000
0"
0O!
0P!
16
#31500
1"
1O!
1P!
06
1y!
0z!
0}!
0{!
0|!
0~!
0i
0g
0f
1d
1a
1_
1c
1?
0b
1>
0^
1=
1j
0h
1i
1g
1e
0>
1`
0d
0?
0_
0j
1h
0e
0`
#32000
0"
0O!
0P!
16
#32500
1"
1O!
1P!
06
1~!
1H
1^
0=
1_
1`
#33000
0"
0O!
0P!
16
#33500
1"
1O!
1P!
06
1}!
0~!
0a
0_
0H
0^
1=
1>
0`
1a
1_
0>
1`
#34000
0"
0O!
0P!
16
#34500
1"
1O!
1P!
06
1~!
1^
0=
0a
0_
1>
0`
#35000
0"
0O!
0P!
16
#35500
1"
1O!
1P!
06
0}!
1|!
0~!
1a
1_
1b
0>
0^
1=
0b
1>
1`
1?
0_
0?
0`
#36000
0"
0O!
0P!
16
#36500
1"
1O!
1P!
06
1~!
1^
0=
1_
1`
#37000
0"
0O!
0P!
16
#37500
1"
1O!
1P!
06
1}!
0~!
0a
0_
0^
1=
1b
0>
0`
1a
1_
1?
0b
1>
1`
0?
#38000
0"
0O!
0P!
16
#38500
1"
1O!
1P!
06
1~!
1^
0=
0a
0_
1b
0>
0`
1?
#39000
0"
0O!
0P!
16
#39500
1"
1O!
1P!
06
0}!
1{!
0|!
0~!
1a
1_
0c
0?
0b
1>
0^
1=
0>
1`
1d
1c
1?
0_
1e
0d
0`
0e
#40000
0"
0O!
0P!
16
#40500
1"
1O!
1P!
06
1~!
1^
0=
1_
1`
#41000
0"
0O!
0P!
16
#41500
1"
1O!
1P!
06
1}!
0~!
0a
0_
0^
1=
1>
0`
1a
1_
0>
1`
#42000
0"
0O!
0P!
16
#42500
1"
1O!
1P!
06
1~!
1^
0=
0a
0_
1>
0`
#43000
0"
0O!
0P!
16
#43500
1"
1O!
1P!
06
0}!
1|!
0~!
1a
1_
1b
0>
0^
1=
0b
1>
1`
0c
0?
0_
1c
1?
1d
0`
0d
1e
0e
#44000
0"
0O!
0P!
16
#44500
1"
1O!
1P!
06
1~!
1^
0=
1_
1`
#45000
0"
0O!
0P!
16
#45500
1"
1O!
1P!
06
1}!
0~!
0a
0_
0^
1=
1b
0>
0`
1a
1_
0c
0?
0b
1>
1`
1d
1c
1?
1e
0d
0e
#46000
0"
0O!
0P!
16
#46500
1"
1O!
1P!
06
1~!
1^
0=
0a
0_
1b
0>
0`
0c
0?
1d
1e
#47000
0"
0O!
0P!
16
#47500
1"
1O!
1P!
06
1z!
0}!
0{!
0|!
0~!
1+!
1f
0d
1a
1_
1c
1?
0b
1>
0^
1=
0i
0g
0e
0>
1`
0f
1d
0?
0_
1j
0h
1i
1g
1e
0`
0j
1h
#48000
0"
0O!
0P!
16
#48500
1"
1O!
1P!
06
1~!
1H
1^
0=
10!
1_
11!
1`
1R!
0h
0e
0`
#49000
0"
0O!
0P!
16
#49500
1"
1O!
1P!
06
1:!
18!
0y!
0z!
0~!
1S!
1;!
0Q!
09!
0+!
0g
0d
0H
0^
1=
1N
15
1E!
1<!
00!
0_
1J
1*
01!
0R!
#50000
0"
0O!
0P!
16
#50500
1"
1O!
1P!
06
1~!
1H
1^
0=
1_
1`
#51000
0"
0O!
0P!
16
#51500
1"
1O!
1P!
06
1}!
0~!
0a
0_
0H
0^
1=
1>
0`
1a
1_
0>
1`
#52000
0"
0O!
0P!
16
#52500
1"
1O!
1P!
06
1~!
1^
0=
0a
0_
1>
0`
#53000
0"
0O!
0P!
16
#53500
1"
1O!
1P!
06
0}!
1|!
0~!
1a
1_
1b
0>
0^
1=
0b
1>
1`
1?
0_
0?
0`
#54000
0"
0O!
0P!
16
#54500
1"
1O!
1P!
06
1~!
1^
0=
1_
1`
#55000
0"
0O!
0P!
16
#55500
1"
1O!
1P!
06
1}!
0~!
0a
0_
0^
1=
1b
0>
0`
1a
1_
1?
0b
1>
1`
0?
#56000
0"
0O!
0P!
16
#56500
1"
1O!
1P!
06
1~!
1^
0=
0a
0_
1b
0>
0`
1?
#57000
0"
0O!
0P!
16
#57500
1"
1O!
1P!
06
0}!
1{!
0|!
0~!
1a
1_
0c
0?
0b
1>
0^
1=
0>
1`
1d
1c
1?
0_
1e
0d
0`
0e
#58000
0"
0O!
0P!
16
#58500
1"
1O!
1P!
06
1~!
1^
0=
1_
1`
#59000
0"
0O!
0P!
16
#59500
1"
1O!
1P!
06
1}!
0~!
0a
0_
0^
1=
1>
0`
1a
1_
0>
1`
#60000
0"
0O!
0P!
16
#60500
1"
1O!
1P!
06
1~!
1^
0=
0a
0_
1>
0`
#61000
0"
0O!
0P!
16
#61500
1"
1O!
1P!
06
0}!
1|!
0~!
1a
1_
1b
0>
0^
1=
0b
1>
1`
0c
0?
0_
1c
1?
1d
0`
0d
1e
0e
#62000
0"
0O!
0P!
16
#62500
1"
1O!
1P!
06
1~!
1^
0=
1_
1`
#63000
0"
0O!
0P!
16
#63500
1"
1O!
1P!
06
1}!
0~!
0a
0_
0^
1=
1b
0>
0`
1a
1_
0c
0?
0b
1>
1`
1d
1c
1?
1e
0d
0e
#64000
0"
0O!
0P!
16
#64500
1"
1O!
1P!
06
1~!
1^
0=
0a
0_
1b
0>
0`
0c
0?
1d
1e
#65000
0"
0O!
0P!
16
#65500
1"
1O!
1P!
06
1z!
0}!
0{!
0|!
0~!
1f
0d
1a
1_
1c
1?
0b
1>
0^
1=
1g
0e
0>
1`
0f
1d
0?
0_
1h
0g
1e
0`
0h
#66000
0"
0O!
0P!
16
#66500
1"
1O!
1P!
06
1~!
1H
1^
0=
1_
1`
#67000
0"
0O!
0P!
16
#67500
1"
1O!
1P!
06
1}!
0~!
0a
0_
0H
0^
1=
1>
0`
1a
1_
0>
1`
#68000
0"
0O!
0P!
16
#68500
1"
1O!
1P!
06
1~!
1^
0=
0a
0_
1>
0`
#69000
0"
0O!
0P!
16
#69500
1"
1O!
1P!
06
0}!
1|!
0~!
1a
1_
1b
0>
0^
1=
0b
1>
1`
1?
0_
0?
0`
#70000
0"
0O!
0P!
16
#70500
1"
1O!
1P!
06
1~!
1^
0=
1_
1`
#71000
0"
0O!
0P!
16
#71500
1"
1O!
1P!
06
1}!
0~!
0a
0_
0^
1=
1b
0>
0`
1a
1_
1?
0b
1>
1`
0?
#72000
0"
0O!
0P!
16
#72500
1"
1O!
1P!
06
1~!
1^
0=
0a
0_
1b
0>
0`
1?
#73000
0"
0O!
0P!
16
#73500
1"
1O!
1P!
06
0}!
1{!
0|!
0~!
1a
1_
0c
0?
0b
1>
0^
1=
0>
1`
1f
0d
1c
1?
0_
1g
0e
0f
1d
0`
1h
0g
1e
0h
#74000
0"
0O!
0P!
16
#74500
1"
1O!
1P!
06
1~!
1^
0=
1_
1`
#75000
0"
0O!
0P!
16
#75500
1"
1O!
1P!
06
1}!
0~!
0a
0_
0^
1=
1>
0`
1a
1_
0>
1`
#76000
0"
0O!
0P!
16
#76500
1"
1O!
1P!
06
1~!
1^
0=
0a
0_
1>
0`
#77000
0"
0O!
0P!
16
#77500
1"
1O!
1P!
06
0}!
1|!
0~!
1a
1_
1b
0>
0^
1=
0b
1>
1`
0c
0?
0_
1c
1?
1f
0d
0`
0f
1d
1g
0e
0g
1e
1h
0h
#78000
0"
0O!
0P!
16
#78500
1"
1O!
1P!
06
1~!
1^
0=
1_
1`
#79000
0"
0O!
0P!
16
#79500
1"
1O!
1P!
06
1}!
0~!
0a
0_
0^
1=
1b
0>
0`
1a
1_
0c
0?
0b
1>
1`
1f
0d
1c
1?
1g
0e
0f
1d
1h
0g
1e
0h
#80000
0"
0O!
0P!
16
#80500
1"
1O!
1P!
06
1~!
1^
0=
0a
0_
1b
0>
0`
0c
0?
1f
0d
1g
0e
1h
#81000
0"
0O!
0P!
16
#81500
1"
1O!
1P!
06
1y!
0z!
0}!
0{!
0|!
0~!
0i
0g
0f
1d
1a
1_
1c
1?
0b
1>
0^
1=
1j
0h
1i
1g
1e
0>
1`
0d
0?
0_
0j
1h
0e
0`
#82000
0"
0O!
0P!
16
#82500
1"
1O!
1P!
06
1~!
1H
1^
0=
1_
1`
#83000
0"
0O!
0P!
16
#83500
1"
1O!
1P!
06
1}!
0~!
0a
0_
0H
0^
1=
1>
0`
1a
1_
0>
1`
#84000
0"
0O!
0P!
16
#84500
1"
1O!
1P!
06
1~!
1^
0=
0a
0_
1>
0`
#85000
0"
0O!
0P!
16
#85500
1"
1O!
1P!
06
0}!
1|!
0~!
1a
1_
1b
0>
0^
1=
0b
1>
1`
1?
0_
0?
0`
#86000
0"
0O!
0P!
16
#86500
1"
1O!
1P!
06
1~!
1^
0=
1_
1`
#87000
0"
0O!
0P!
16
#87500
1"
1O!
1P!
06
1}!
0~!
0a
0_
0^
1=
1b
0>
0`
1a
1_
1?
0b
1>
1`
0?
#88000
0"
0O!
0P!
16
#88500
1"
1O!
1P!
06
1~!
1^
0=
0a
0_
1b
0>
0`
1?
#89000
0"
0O!
0P!
16
#89500
1"
1O!
1P!
06
0}!
1{!
0|!
0~!
1a
1_
0c
0?
0b
1>
0^
1=
0>
1`
1d
1c
1?
0_
1e
0d
0`
0e
#90000
0"
0O!
0P!
16
#90500
1"
1O!
1P!
06
1~!
1^
0=
1_
1`
#91000
0"
0O!
0P!
16
#91500
1"
1O!
1P!
06
1}!
0~!
0a
0_
0^
1=
1>
0`
1a
1_
0>
1`
#92000
0"
0O!
0P!
16
#92500
1"
1O!
1P!
06
1~!
1^
0=
0a
0_
1>
0`
#93000
0"
0O!
0P!
16
#93500
1"
1O!
1P!
06
0}!
1|!
0~!
1a
1_
1b
0>
0^
1=
0b
1>
1`
0c
0?
0_
1c
1?
1d
0`
0d
1e
0e
#94000
0"
0O!
0P!
16
#94500
1"
1O!
1P!
06
1~!
1^
0=
1_
1`
#95000
0"
0O!
0P!
16
#95500
1"
1O!
1P!
06
1}!
0~!
0a
0_
0^
1=
1b
0>
0`
1a
1_
0c
0?
0b
1>
1`
1d
1c
1?
1e
0d
0e
#96000
0"
0O!
0P!
16
#96500
1"
1O!
1P!
06
1~!
1^
0=
0a
0_
1b
0>
0`
0c
0?
1d
1e
#97000
0"
0O!
0P!
16
#97500
1"
1O!
1P!
06
1z!
0}!
0{!
0|!
0~!
1+!
1f
0d
1a
1_
1c
1?
0b
1>
0^
1=
0i
0g
0e
0>
1`
0f
1d
0?
0_
1j
0h
1i
1g
1e
0`
0j
1h
#98000
0"
0O!
0P!
16
#98500
1"
1O!
1P!
06
1~!
1H
1^
0=
10!
1_
11!
1`
1R!
0h
0e
0`
#99000
0"
0O!
0P!
16
#99500
1"
1O!
1P!
06
1=!
0:!
0y!
0z!
0~!
1T!
0S!
1U!
1>!
0;!
0+!
0g
0d
0H
0^
1=
1O
0N
14
05
1H!
0E!
0<!
00!
0_
1K
0J
1)
0*
01!
0R!
#100000
0"
0O!
0P!
16
#100500
1"
1O!
1P!
06
1~!
1H
1^
0=
1_
1`
#101000
0"
0O!
0P!
16
#101500
1"
1O!
1P!
06
1}!
0~!
0a
0_
0H
0^
1=
1>
0`
1a
1_
0>
1`
#102000
0"
0O!
0P!
16
#102500
1"
1O!
1P!
06
1~!
1^
0=
0a
0_
1>
0`
#103000
0"
0O!
0P!
16
#103500
1"
1O!
1P!
06
0}!
1|!
0~!
1a
1_
1b
0>
0^
1=
0b
1>
1`
1?
0_
0?
0`
#104000
0"
0O!
0P!
16
#104500
1"
1O!
1P!
06
1~!
1^
0=
1_
1`
#105000
0"
0O!
0P!
16
#105500
1"
1O!
1P!
06
1}!
0~!
0a
0_
0^
1=
1b
0>
0`
1a
1_
1?
0b
1>
1`
0?
#106000
0"
0O!
0P!
16
#106500
1"
1O!
1P!
06
1~!
1^
0=
0a
0_
1b
0>
0`
1?
#107000
0"
0O!
0P!
16
#107500
1"
1O!
1P!
06
0}!
1{!
0|!
0~!
1a
1_
0c
0?
0b
1>
0^
1=
0>
1`
1d
1c
1?
0_
1e
0d
0`
0e
#108000
0"
0O!
0P!
16
#108500
1"
1O!
1P!
06
1~!
1^
0=
1_
1`
#109000
0"
0O!
0P!
16
#109500
1"
1O!
1P!
06
1}!
0~!
0a
0_
0^
1=
1>
0`
1a
1_
0>
1`
#110000
0"
0O!
0P!
16
#110500
1"
1O!
1P!
06
1~!
1^
0=
0a
0_
1>
0`
#111000
0"
0O!
0P!
16
#111500
1"
1O!
1P!
06
0}!
1|!
0~!
1a
1_
1b
0>
0^
1=
0b
1>
1`
0c
0?
0_
1c
1?
1d
0`
0d
1e
0e
#112000
0"
0O!
0P!
16
#112500
1"
1O!
1P!
06
1~!
1^
0=
1_
1`
#113000
0"
0O!
0P!
16
#113500
1"
1O!
1P!
06
1}!
0~!
0a
0_
0^
1=
1b
0>
0`
1a
1_
0c
0?
0b
1>
1`
1d
1c
1?
1e
0d
0e
#114000
0"
0O!
0P!
16
#114500
1"
1O!
1P!
06
1~!
1^
0=
0a
0_
1b
0>
0`
0c
0?
1d
1e
#115000
0"
0O!
0P!
16
#115500
1"
1O!
1P!
06
1z!
0}!
0{!
0|!
0~!
1f
0d
1a
1_
1c
1?
0b
1>
0^
1=
1g
0e
0>
1`
0f
1d
0?
0_
1h
0g
1e
0`
0h
#116000
0"
0O!
0P!
16
#116500
1"
1O!
1P!
06
1~!
1H
1^
0=
1_
1`
#117000
0"
0O!
0P!
16
#117500
1"
1O!
1P!
06
1}!
0~!
0a
0_
0H
0^
1=
1>
0`
1a
1_
0>
1`
#118000
0"
0O!
0P!
16
#118500
1"
1O!
1P!
06
1~!
1^
0=
0a
0_
1>
0`
#119000
0"
0O!
0P!
16
#119500
1"
1O!
1P!
06
0}!
1|!
0~!
1a
1_
1b
0>
0^
1=
0b
1>
1`
1?
0_
0?
0`
#120000
0"
0O!
0P!
16
#120500
1"
1O!
1P!
06
1~!
1^
0=
1_
1`
#121000
0"
0O!
0P!
16
#121500
1"
1O!
1P!
06
1}!
0~!
0a
0_
0^
1=
1b
0>
0`
1a
1_
1?
0b
1>
1`
0?
#122000
0"
0O!
0P!
16
#122500
1"
1O!
1P!
06
1~!
1^
0=
0a
0_
1b
0>
0`
1?
#123000
0"
0O!
0P!
16
#123500
1"
1O!
1P!
06
0}!
1{!
0|!
0~!
1a
1_
0c
0?
0b
1>
0^
1=
0>
1`
1f
0d
1c
1?
0_
1g
0e
0f
1d
0`
1h
0g
1e
0h
#124000
0"
0O!
0P!
16
#124500
1"
1O!
1P!
06
1~!
1^
0=
1_
1`
#125000
0"
0O!
0P!
16
#125500
1"
1O!
1P!
06
1}!
0~!
0a
0_
0^
1=
1>
0`
1a
1_
0>
1`
#126000
0"
0O!
0P!
16
#126500
1"
1O!
1P!
06
1~!
1^
0=
0a
0_
1>
0`
#127000
0"
0O!
0P!
16
#127500
1"
1O!
1P!
06
0}!
1|!
0~!
1a
1_
1b
0>
0^
1=
0b
1>
1`
0c
0?
0_
1c
1?
1f
0d
0`
0f
1d
1g
0e
0g
1e
1h
0h
#128000
0"
0O!
0P!
16
#128500
1"
1O!
1P!
06
1~!
1^
0=
1_
1`
#129000
0"
0O!
0P!
16
#129500
1"
1O!
1P!
06
1}!
0~!
0a
0_
0^
1=
1b
0>
0`
1a
1_
0c
0?
0b
1>
1`
1f
0d
1c
1?
1g
0e
0f
1d
1h
0g
1e
0h
#130000
0"
0O!
0P!
16
#130500
1"
1O!
1P!
06
1~!
1^
0=
0a
0_
1b
0>
0`
0c
0?
1f
0d
1g
0e
1h
#131000
0"
0O!
0P!
16
#131500
1"
1O!
1P!
06
1y!
0z!
0}!
0{!
0|!
0~!
0i
0g
0f
1d
1a
1_
1c
1?
0b
1>
0^
1=
1j
0h
1i
1g
1e
0>
1`
0d
0?
0_
0j
1h
0e
0`
#132000
0"
0O!
0P!
16
#132500
1"
1O!
1P!
06
1~!
1H
1^
0=
1_
1`
#133000
0"
0O!
0P!
16
#133500
1"
1O!
1P!
06
1}!
0~!
0a
0_
0H
0^
1=
1>
0`
1a
1_
0>
1`
#134000
0"
0O!
0P!
16
#134500
1"
1O!
1P!
06
1~!
1^
0=
0a
0_
1>
0`
#135000
0"
0O!
0P!
16
#135500
1"
1O!
1P!
06
0}!
1|!
0~!
1a
1_
1b
0>
0^
1=
0b
1>
1`
1?
0_
0?
0`
#136000
0"
0O!
0P!
16
#136500
1"
1O!
1P!
06
1~!
1^
0=
1_
1`
#137000
0"
0O!
0P!
16
#137500
1"
1O!
1P!
06
1}!
0~!
0a
0_
0^
1=
1b
0>
0`
1a
1_
1?
0b
1>
1`
0?
#138000
0"
0O!
0P!
16
#138500
1"
1O!
1P!
06
1~!
1^
0=
0a
0_
1b
0>
0`
1?
#139000
0"
0O!
0P!
16
