Clases/Latches/simulation/qsim/latches.msim.vcd
$comment
	File created using the following command:
		vcd file latches.msim.vcd -direction
$end
$date
	Sat Mar 09 21:09:55 2024
$end
$version
	ModelSim Version 10.1d
$end
$timescale
	1ps
$end
$scope module latches_vlg_vec_tst $end
$var reg 1 ! D $end
$var reg 1 " EN1 $end
$var reg 1 # EN2 $end
$var reg 1 $ R1 $end
$var reg 1 % R2 $end
$var reg 1 & R3 $end
$var reg 1 ' S1 $end
$var reg 1 ( S2 $end
$var reg 1 ) S3 $end
$var wire 1 * Q1LatchD $end
$var wire 1 + Q1LatchEN $end
$var wire 1 , Q1LatchNAND $end
$var wire 1 - Q1LatchNOR $end
$var wire 1 . Q2LatchD $end
$var wire 1 / Q2LatchEN $end
$var wire 1 0 Q2LatchNAND $end
$var wire 1 1 Q2LatchNOR $end
$var wire 1 2 R2N $end
$var wire 1 3 S2N $end
$var wire 1 4 sampler $end
$scope module i1 $end
$var wire 1 5 gnd $end
$var wire 1 6 vcc $end
$var wire 1 7 unknown $end
$var tri1 1 8 devclrn $end
$var tri1 1 9 devpor $end
$var tri1 1 : devoe $end
$var wire 1 ; Q1LatchNAND~output_o $end
$var wire 1 < Q2LatchNAND~output_o $end
$var wire 1 = Q1LatchNOR~output_o $end
$var wire 1 > Q2LatchNOR~output_o $end
$var wire 1 ? Q1LatchEN~output_o $end
$var wire 1 @ Q2LatchEN~output_o $end
$var wire 1 A Q1LatchD~output_o $end
$var wire 1 B Q2LatchD~output_o $end
$var wire 1 C R2N~output_o $end
$var wire 1 D S2N~output_o $end
$var wire 1 E R2~input_o $end
$var wire 1 F S2~input_o $end
$var wire 1 G inst4~combout $end
$var wire 1 H inst5~combout $end
$var wire 1 I S1~input_o $end
$var wire 1 J R1~input_o $end
$var wire 1 K inst0~combout $end
$var wire 1 L inst1~combout $end
$var wire 1 M R3~input_o $end
$var wire 1 N EN1~input_o $end
$var wire 1 O S3~input_o $end
$var wire 1 P inst8~combout $end
$var wire 1 Q inst9~0_combout $end
$var wire 1 R EN2~input_o $end
$var wire 1 S D~input_o $end
$var wire 1 T inst13~1_combout $end
$var wire 1 U inst14~combout $end
$upscope $end
$upscope $end
$enddefinitions $end
#0
$dumpvars
0!
0"
0#
0$
1%
0&
0'
1(
0)
0*
0+
1,
x-
0.
0/
10
x1
02
03
x4
05
16
x7
18
19
1:
1;
1<
x=
x>
0?
0@
0A
0B
0C
0D
1E
1F
0G
1H
0I
0J
xK
xL
0M
0N
0O
1P
1Q
0R
0S
1T
1U
$end
#125000
1"
1N
04
#250000
1$
0%
1&
1#
0"
1J
0E
1M
1R
0N
14
1K
1G
0U
1C
12
0L
0=
0;
1B
0-
0,
1.
1>
11
#375000
1"
1N
04
0P
1?
1+
#500000
1'
0(
1)
1!
0$
1%
0&
0#
0"
1I
0F
1O
1S
0J
1E
0M
0R
0N
14
1L
0K
0G
1P
1U
1D
0C
13
02
0>
1=
1;
0?
0B
01
1-
1,
0+
0.
0H
0<
00
#625000
1"
1N
04
0Q
1@
1/
#750000
1$
0%
1&
1#
0"
1J
0E
1M
1R
0N
14
1K
0T
1Q
1C
12
0=
1A
0@
0-
1*
0/
#875000
1"
1N
04
0Q
1@
1/
